1 -1.67823
2 -0.910579
3 -0.224433
4 0.00549224
5 -0.978129
6 -1.18273
7 -0.361059
8 -0.553057
9 -0.258269
10 -1.373
11 -0.312059
12 -0.146034
13 0.0715781
14 -0.344012
15 -0.86506
16 -0.465052
17 -0.546874
18 -0.177968
19 0.698072
20 -0.651236
21 -0.209412
22 0.367609
23 0.782095
24 -0.633633
25 0.687706
26 -0.246453
27 0.401659
28 1.47386
29 -0.473393
30 1.41052
31 0.447175
32 0.381803
33 1.58052
34 0.65722
35 0.381451
36 0.867499
37 -0.0292437
38 0.681875
39 0.673942
40 -0.643319
41 0.622119
42 0.69436
43 -0.115368
44 0.27181
45 0.728446
46 1.22869
47 -0.474057
48 -0.927841
49 0.157135
50 -1.53309
51 0.412858
52 1.01519
53 0.822474
54 1.58086
55 1.81992
56 -0.381479
57 1.44177
58 -0.150951
59 0.643533
60 -0.511053
61 -0.659011
62 0.947373
63 1.06553
64 1.40173
65 -0.769896
66 1.12089
67 0.600852
68 1.27273
69 1.32422
70 0.336974
71 0.954138
72 0.294405
73 -0.145402
74 -0.893243
75 -1.29238
76 -0.918216
77 -1.14855
78 -0.375371
79 -1.68773
80 -0.502747
81 -0.851119
82 0.667865
83 -0.00423333
84 0.332261
85 1.07471
86 0.609307
87 0.793728
88 0.723959
89 0.249325
90 -0.717198
91 0.502552
92 -0.225619
93 0.954798
94 -0.163292
95 -0.0716083
96 -0.389648
97 0.56909
98 -0.524631
99 1.1961
100 -0.0299384
101 0.835745
102 -1.3819
103 -1.48966
104 -1.15591
105 -0.327851
106 1.25065
107 -0.521412
108 0.0551093
109 -1.29614
110 0.268987
111 1.72714
112 -0.87079
113 -0.821884
114 0.808566
115 -1.27451
116 -1.67847
117 -0.318164
118 -2.52346
119 -0.941426
120 -1.57878
121 -0.665779
122 -1.02557
123 -0.21048
124 -0.789575
125 -0.362425
126 -0.681656
127 0.317759
128 0.0907133
129 0.612085
130 0.142659
131 -0.475073
132 0.148741
133 0.376049
134 0.732343
135 0.112782
136 -0.238476
137 0.293586
138 -0.477136
139 0.377072
140 -0.0191434
141 -0.108713
142 0.0727101
143 0.155672
144 0.857361
145 -1.62375
146 1.31947
147 -0.1282
148 0.153573
149 1.30061
150 0.883832
151 -0.483546
152 0.834259
153 1.17782
154 0.958125
155 0.995535
156 1.29556
157 0.626114
158 -0.490983
159 -0.156996
160 1.08331
161 0.708935
162 -0.107414
163 -0.235553
164 0.46179
165 -1.81382
166 -0.121798
167 -0.451
168 0.46868
169 -0.698773
170 0.720503
171 1.14879
172 0.592585
173 0.378423
174 0.170571
175 0.315936
176 1.30439
177 1.35168
178 1.26523
179 0.0269025
180 -0.257762
181 0.592303
182 1.07453
183 -0.775863
184 0.355593
185 0.357106
186 -0.478349
187 1.2074
188 -0.499657
189 1.20056
190 1.58398
191 0.845077
192 1.7663
193 0.176359
194 0.631769
195 -0.539916
196 0.438081
197 0.601815
198 0.0216252
199 0.84299
200 0.987862
201 0.636683
202 1.59537
203 -0.753496
204 0.534213
205 1.30699
206 -0.0261925
207 1.10818
208 -0.680893
209 0.623914
210 0.738682
211 0.065444
212 0.425286
213 1.90013
214 -0.471756
215 0.280949
216 1.18449
217 0.385415
218 0.183103
219 0.240764
220 -0.152979
221 1.34324
222 0.790131
223 1.5758
224 1.71807
225 0.746711
226 2.16482
227 1.94312
228 1.12284
229 1.35721
230 0.606441
231 -0.266184
232 -1.09741
233 0.634057
234 1.44095
235 1.43616
236 0.457262
237 0.558231
238 1.17526
239 0.285397
240 -0.120925
241 0.0509544
242 1.49827
243 -0.686883
244 1.17464
245 0.565296
246 0.418229
247 0.0944032
248 -0.769056
249 0.984889
250 0.455742
251 0.686795
252 1.93925
253 0.419398
254 0.574799
255 1.21028
256 -0.418867
257 -0.393103
258 0.924835
259 0.737614
260 0.201142
261 1.18737
262 1.36021
263 1.29536
264 2.18292
265 0.843572
266 0.70577
267 1.11241
268 1.69511
269 2.09187
270 1.70055
271 0.951703
272 1.78396
273 1.53448
274 1.90464
275 0.18646
276 0.83174
277 0.198373
278 1.14612
279 1.649
280 1.38474
281 0.117195
282 0.889615
283 0.518266
284 0.407444
285 0.976185
286 0.816912
287 -0.780907
288 1.28045
289 -0.083513
290 0.447978
291 0.816992
292 0.559719
293 -0.228344
294 0.480345
295 0.32884
296 0.257438
297 0.227602
298 0.6299
299 0.59604
300 1.15629
301 0.623793
302 0.448351
303 0.195133
304 1.00831
305 -0.201005
306 1.30596
307 -0.407488
308 -0.480497
309 -0.279471
310 1.16257
311 -0.65721
312 1.06521
313 -0.41366
314 -1.11749
315 -0.795156
316 -0.379982
317 0.635635
318 -0.942971
319 0.894148
320 -0.336135
321 -0.148391
322 1.52012
323 -1.05208
324 0.390176
325 0.209138
326 0.663452
327 1.15073
328 0.27492
329 0.823331
330 1.97622
331 0.454125
332 -1.38757
333 0.595518
334 0.329563
335 0.0320162
336 1.0556
337 0.222157
338 0.498698
339 0.433655
340 1.31318
341 0.866292
342 0.679544
343 0.0122884
344 0.390955
345 -0.411801
346 -0.103117
347 -0.286383
348 0.954904
349 0.597667
350 0.887575
351 -0.509774
352 0.196241
353 0.823841
354 0.441457
355 -0.23474
356 1.02176
357 0.733706
358 -0.508634
359 0.578058
360 1.2681
361 0.490545
362 0.0844951
363 1.57088
364 0.745423
365 0.115898
366 0.853224
367 -1.10941
368 1.10524
369 0.943933
370 1.17169
371 1.33484
372 0.379021
373 1.18002
374 -0.243457
375 0.380338
376 1.26299
377 -0.520296
378 -1.03526
379 0.144672
380 -1.28932
381 0.447238
382 1.18688
383 0.328374
384 0.482863
385 -1.07481
386 -1.33168
387 -4.04387
388 -1.13315
389 -1.8772
390 0.838207
391 -4.95451
392 -3.39214
393 0.726915
394 0.0198636
395 -0.804328
396 0.458843
397 -0.192561
398 -0.546862
399 0.431346
400 -1.18514
401 -0.836302
402 -0.906149
403 0.30018
404 0.397694
405 -0.417393
406 -1.27844
407 -0.351034
408 0.257541
409 0.354585
410 0.32698
411 -0.745349
412 -0.748707
413 -0.269703
414 0.43543
415 -0.590682
416 -2.0759
417 -0.585087
418 0.17275
419 -0.91684
420 -0.523371
421 -1.72707
422 -0.305399
423 0.327611
424 0.826555
425 -0.244615
426 0.0154311
427 -0.722265
428 -1.52485
429 0.890332
430 0.0841869
431 0.052016
432 -0.381637
433 -1.37193
434 0.435011
435 0.447956
436 -0.250627
437 0.683206
438 -0.167926
439 0.37724
440 -0.0126986
441 -1.42751
442 0.0156483
443 -1.67173
444 1.7963
445 0.446813
446 0.343149
447 -0.579668
448 0.165176
449 -0.254456
450 0.292082
451 -0.536967
452 -0.37126
453 -0.863981
454 0.603087
455 0.154006
456 0.541969
457 -0.227661
458 0.240787
459 -0.797463
460 -0.984765
461 0.297498
462 -0.472095
463 -1.0186
464 -0.398422
465 0.33535
466 0.124536
467 0.335343
468 -0.404112
469 1.55953
470 -1.23383
471 -0.297541
472 -0.912788
473 -0.823341
474 0.227655
475 0.0764161
476 -0.965928
477 -0.388472
478 -0.247791
479 0.0592107
480 -0.595083
481 0.130122
482 -0.584975
483 0.663724
484 0.0620699
485 -1.36632
486 -1.2872
487 0.46148
488 0.0982939
489 -0.347872
490 -0.636894
491 -0.758521
492 -0.360391
493 -0.0276968
494 -1.35314
495 -0.645028
496 -1.18182
497 -0.740658
498 -1.09791
499 -1.09026
500 0.209666
501 -0.0538176
502 -0.95658
503 -0.944605
504 0.100801
505 -1.77364
506 -0.83948
507 -0.304351
508 -1.35761
509 -0.847893
510 0.0917592
511 -0.464911
512 0.525027
513 -1.11777
514 0.476878
515 -1.36944
516 0.224823
517 -0.441429
518 -0.322434
519 -0.399228
520 -1.84896
521 -0.0977682
522 0.277191
523 -0.0695702
524 -0.896823
525 -0.374692
526 -0.495194
527 -0.710985
528 -0.1512
529 -0.417995
530 -4.41019
531 -1.80294
532 -0.646577
533 -1.17328
534 0.108785
535 -0.0755574
536 0.662327
537 -1.11049
538 -0.759284
539 1.29896
540 -0.0390043
541 -0.827642
542 -0.818535
543 0.449885
544 0.118113
545 -0.825186
546 0.136277
547 -1.47545
548 -0.494688
549 -0.0574614
550 0.27379
551 -0.244721
552 -0.10874
553 -0.830791
554 -1.00579
555 -0.474782
556 -1.7223
557 0.464379
558 -0.0302336
559 -1.35592
560 0.0957057
561 -0.258383
562 -1.39196
563 -0.531517
564 -0.336573
565 0.517874
566 0.522884
567 0.265069
568 -0.33317
569 0.833141
570 0.121154
571 0.00646224
572 -0.55561
573 -1.22394
574 -0.0947734
575 -0.141136
576 -0.144856
577 0.751343
578 -0.133922
579 -0.0409886
580 0.156855
581 -0.405923
582 1.04539
583 -0.680704
584 -0.310444
585 0.226152
586 0.771607
587 0.949501
588 0.0277454
589 -0.281711
590 0.548781
591 -0.438821
592 -0.629089
593 0.447532
594 -1.43564
595 0.693308
596 0.331856
597 0.298841
598 1.29363
599 0.916697
600 -0.941699
601 0.166228
602 0.897872
603 0.116172
604 -0.165751
605 0.29121
606 0.430092
607 0.423776
608 -0.292292
609 -0.120164
610 0.118411
611 0.9953
612 -0.418853
613 0.307689
614 1.3558
615 0.262869
616 0.143299
617 -0.449516
618 -0.11497
619 0.770245
620 2.14646
621 0.393386
622 0.339568
623 0.373324
624 0.062473
625 1.18537
626 0.768791
627 0.281026
628 -0.574523
629 0.442235
630 0.350216
631 0.637084
632 -0.418837
633 0.189592
634 0.11071
635 -1.40425
636 0.530733
637 1.06279
638 0.426811
639 1.53294
640 1.8417
641 -1.6856
642 0.226596
643 -0.666573
644 0.905476
645 0.184339
646 0.515831
647 0.729031
648 0.490991
649 0.772867
650 0.793332
651 -0.231296
652 0.0182336
653 0.385196
654 0.288863
655 -0.872159
656 0.409692
657 -0.0400026
658 -0.779514
659 0.441697
660 -0.392883
661 -0.83776
662 -0.123035
663 1.23246
664 0.0741794
665 0.108758
666 0.962176
667 -0.243174
668 0.675872
669 -0.65405
670 1.09953
671 0.38179
672 0.412423
673 -0.317872
674 0.277413
675 1.51328
676 -0.233998
677 -0.272753
678 0.251213
679 1.16728
680 -0.980343
681 -0.29649
682 0.798679
683 1.0671
684 -0.60636
685 1.11308
686 -0.445774
687 -0.133678
688 0.000642897
689 -0.759989
690 0.726752
691 1.24544
692 -0.709111
693 0.57678
694 0.114857
695 -0.830639
696 -0.949183
697 -1.22951
698 0.349982
699 0.915792
700 1.09169
701 -0.0682047
702 -0.51487
703 -0.516625
704 -1.27
705 0.955949
706 -0.786108
707 1.03876
708 1.38277
709 1.3041
710 1.16771
711 -0.620493
712 0.364372
713 -0.0486588
714 0.513126
715 -0.816736
716 -1.52638
717 0.383028
718 1.43421
719 0.0587068
720 -0.0965166
721 -0.284179
722 0.976821
723 -2.38101
724 1.47112
725 0.632038
726 0.125253
727 -0.0833463
728 0.0595284
729 -1.53519
730 -0.0606628
731 1.10418
732 0.0858031
733 -1.10056
734 -2.20621
735 0.637337
736 0.635239
737 -0.0505994
738 0.941402
739 -1.01652
740 0.818663
741 0.149027
742 -0.567614
743 0.95939
744 0.618159
745 1.2436
746 0.38819
747 -0.330022
748 0.181472
749 -0.0959163
750 0.991816
751 -0.969749
752 0.355148
753 0.572583
754 -0.392486
755 -0.597936
756 -0.106923
757 0.708725
758 -0.119845
759 1.46664
760 1.56999
761 0.118193
762 1.15622
763 -0.178565
764 -0.733634
765 -1.06285
766 -0.174511
767 1.10217
768 -0.229168
769 1.32665
770 1.53612
771 1.57337
772 1.81672
773 0.515559
774 1.24892
775 0.674899
776 0.893709
777 -1.37644
778 -0.992656
779 -1.73232
780 0.166082
781 -0.322981
782 1.09748
783 1.0409
784 -0.33478
785 1.2541
786 -0.105192
787 0.674376
788 0.261418
789 -0.00904537
790 0.23939
791 -0.871445
792 0.126101
793 -0.865018
794 0.742512
795 -0.0146183
796 -1.27847
797 -1.32512
798 -0.717795
799 0.384996
800 -0.755644
801 0.678727
802 -1.41666
803 -1.15268
804 -0.970872
805 -0.701542
806 0.422325
807 -1.41804
808 0.42327
809 0.126929
810 0.72696
811 -0.820701
812 0.636779
813 1.00208
814 -1.00225
815 -0.880592
816 0.949397
817 -0.286981
818 -0.26416
819 0.504553
820 -0.89488
821 0.256586
822 -1.97904
823 -0.0840989
824 -0.307554
825 -0.321744
826 -0.00584407
827 -0.745335
828 0.573911
829 -0.571716
830 -0.209353
831 -0.0531442
832 -1.77472
833 0.604875
834 0.221338
835 -0.151747
836 -1.17117
837 -0.166826
838 -0.616632
839 0.0869962
840 0.379707
841 -0.551404
842 -0.247093
843 -0.0422548
844 -1.03456
845 -1.13426
846 -1.05057
847 -1.86152
848 -0.570745
849 -0.214813
850 -0.156035
851 -2.2718
852 1.14014
853 0.297115
854 -0.346907
855 0.166519
856 -0.206702
857 -1.29835
858 -0.47506
859 -0.21905
860 1.49742
861 -0.392227
862 1.06196
863 0.00671643
864 0.32967
865 -0.802889
866 0.291818
867 -0.801255
868 -0.0468272
869 -1.0175
870 -0.693215
871 -0.271665
872 0.101231
873 -0.480324
874 -0.726332
875 -0.79927
876 0.432844
877 0.125916
878 0.139565
879 0.301154
880 0.851494
881 -0.153772
882 0.0669455
883 1.30716
884 0.354954
885 -0.574158
886 -0.683329
887 -1.15144
888 0.0863274
889 -0.537189
890 1.10565
891 0.436631
892 0.909088
893 0.963567
894 -0.15666
895 -0.0865223
896 -0.733254
897 0.596703
898 -0.180896
899 -0.524482
900 -0.084395
901 -0.878447
902 -0.567361
903 0.151517
904 -0.501659
905 0.10406
906 0.434901
907 0.0854724
908 -0.442881
909 -0.653311
910 -0.373975
911 0.364828
912 -0.394002
913 -0.760708
914 -2.1414
915 -0.635624
916 -2.48097
917 -0.789221
918 -0.136573
919 -1.22657
920 -0.563129
921 -0.452745
922 -0.292993
923 0.337887
924 -1.78981
925 -1.01784
926 -0.60422
927 -1.55583
928 -0.699883
929 -0.589052
930 -0.216523
931 -0.862669
932 0.202004
933 -0.149255
934 0.389273
935 -0.121896
936 -0.506352
937 -0.443146
938 -0.529803
939 0.281446
940 0.138695
941 0.279944
942 -0.857817
943 -0.99762
944 -1.02107
945 -1.52386
946 0.0852532
947 -0.2929
948 -1.01404
949 -0.207059
950 -0.354691
951 -0.715373
952 -0.616245
953 0.693471
954 0.945336
955 0.706561
956 -1.3158
957 -1.80364
958 -0.0505882
959 -0.564063
960 -0.0616248
961 -0.44288
962 -0.494041
963 -0.338156
964 0.474352
965 -0.518037
966 -0.432179
967 0.0131055
968 0.253356
969 -0.0561296
970 -0.380385
971 1.58422
972 0.966647
973 0.205083
974 -0.689401
975 0.421863
976 -0.739667
977 -0.243006
978 0.529162
979 1.25634
980 2.33551
981 0.213304
982 0.964557
983 0.725978
984 -0.383995
985 -0.372352
986 0.743945
987 -0.251097
988 -0.492585
989 1.11564
990 -0.040446
991 -0.106003
992 -1.07486
993 1.07729
994 0.251642
995 -0.258079
996 0.465052
997 0.744503
998 0.864661
999 0.951622
1000 1.22106
1001 0.619892
1002 0.100572
1003 1.04055
1004 -0.0532342
1005 1.4306
1006 0.108934
1007 1.01507
1008 -0.0769967
1009 -0.38316
1010 0.386951
1011 0.871325
1012 -0.380286
1013 0.229011
1014 -0.00142386
1015 -0.324115
1016 -0.445715
1017 -0.112662
1018 0.623749
1019 0.808501
1020 0.43556
1021 0.0816956
1022 0.940939
1023 1.00608
1024 0.427905
1025 -0.0180473
1026 0.813496
1027 0.371447
1028 0.462002
1029 -0.438851
1030 1.4971
1031 0.0488491
1032 0.388932
1033 0.420002
1034 0.412337
1035 0.684312
1036 1.4572
1037 -0.0047085
1038 0.997858
1039 0.453369
1040 0.195776
1041 1.28749
1042 -0.692737
1043 -0.0366413
1044 0.226253
1045 -0.0767652
1046 0.455864
1047 0.626306
1048 0.77864
1049 1.02359
1050 1.59478
1051 1.15282
1052 0.449075
1053 -0.145618
1054 0.646348
1055 1.03436
1056 1.27742
1057 0.46317
1058 -0.083686
1059 0.2743
1060 0.840838
1061 -0.453388
1062 1.43877
1063 1.33341
1064 0.13793
1065 1.17622
1066 0.720584
1067 0.350177
1068 0.630295
1069 0.412152
1070 1.66844
1071 0.391145
1072 1.87218
1073 0.830539
1074 -0.54213
1075 -0.106271
1076 -0.364768
1077 -0.000314912
1078 -0.946492
1079 -0.598096
1080 0.176021
1081 -0.647165
1082 0.128148
1083 -0.885678
1084 -0.324228
1085 -0.233034
1086 0.156619
1087 -1.12108
1088 -0.551315
1089 0.533865
1090 -0.186014
1091 -0.137236
1092 0.406344
1093 0.304878
1094 -0.737567
1095 0.3592
1096 -0.36589
1097 -0.272495
1098 0.546968
1099 -0.329364
1100 0.866111
1101 -0.615719
1102 0.220317
1103 0.0806286
1104 0.35297
1105 0.24303
1106 -0.763727
1107 1.01138
1108 0.592054
1109 0.632101
1110 1.81528
1111 0.221635
1112 1.0972
1113 0.447781
1114 0.835392
1115 -0.170879
1116 -0.516671
1117 -0.17219
1118 -0.534392
1119 -0.272366
1120 0.117642
1121 -0.0499985
1122 -0.850836
1123 -0.36186
1124 -0.399205
1125 -0.183619
1126 -1.41087
1127 -0.81558
1128 -0.0867075
1129 -0.518692
1130 -1.50673
1131 -1.76729
1132 -0.116147
1133 0.0480724
1134 -1.06384
1135 -0.447196
1136 -0.0841068
1137 -0.0880096
1138 -0.475252
1139 -0.348677
1140 0.0421817
1141 0.153758
1142 -0.148164
1143 -0.310329
1144 -0.885704
1145 -0.283047
1146 -0.249941
1147 0.455115
1148 -0.863353
1149 -0.622091
1150 -0.87974
1151 -1.01424
1152 -0.962968
1153 0.332678
1154 0.290827
1155 0.780941
1156 -0.996728
1157 0.638802
1158 -0.0955145
1159 -1.30928
1160 -0.291572
1161 -0.688686
1162 0.030523
1163 -0.389634
1164 -1.24813
1165 -0.638792
1166 -1.06861
1167 -0.199398
1168 -1.24204
1169 -0.367118
1170 -0.654894
1171 -0.227849
1172 -0.503323
1173 -0.249118
1174 -0.775913
1175 0.197663
1176 -0.870089
1177 -1.04618
1178 -0.829053
1179 -0.851863
1180 0.619895
1181 -1.13715
1182 -0.728423
1183 -0.00695154
1184 0.713265
1185 1.14138
1186 0.724456
1187 -0.28608
1188 1.56648
1189 0.622635
1190 1.07641
1191 0.452389
1192 0.374993
1193 1.08767
1194 1.28539
1195 1.12196
1196 1.03537
1197 1.09579
1198 0.105024
1199 -0.070306
1200 0.899407
1201 -0.0664622
1202 0.730635
1203 1.34727
1204 0.24032
1205 1.16443
1206 1.05572
1207 0.933884
1208 -0.395269
1209 0.515773
1210 1.16167
1211 0.850335
1212 1.24173
1213 2.3247
1214 1.19865
1215 0.585538
1216 0.901579
1217 0.86357
1218 1.44875
1219 0.692638
1220 0.541317
1221 1.64276
1222 -1.6617
1223 0.580339
1224 0.693962
1225 0.959952
1226 0.732502
1227 -0.680669
1228 1.08658
1229 0.334571
1230 0.55528
1231 0.310219
1232 0.623435
1233 -0.325298
1234 0.106783
1235 0.984868
1236 1.12144
1237 0.693112
1238 0.650037
1239 -0.072251
1240 1.09142
1241 1.00925
1242 0.417257
1243 0.90423
1244 -0.181469
1245 1.22906
1246 0.044599
1247 1.0805
1248 -0.721895
1249 -0.230027
1250 0.616169
1251 0.422459
1252 0.776372
1253 0.205071
1254 0.521105
1255 0.903641
1256 0.338029
1257 0.75707
1258 0.916278
1259 0.393103
1260 0.330325
1261 -0.159314
1262 0.9184
1263 0.337238
1264 0.795627
1265 0.26267
1266 0.124739
1267 0.590686
1268 0.867774
1269 2.35052
1270 1.46635
1271 0.696972
1272 1.60896
1273 0.396561
1274 0.898941
1275 0.250794
1276 1.125
1277 0.563941
1278 0.281974
1279 1.74256
1280 0.877537
1281 0.49297
1282 1.6375
1283 -0.965598
1284 1.09134
1285 1.03523
1286 0.0681546
1287 1.0677
1288 0.407288
1289 0.518973
1290 1.16747
1291 0.567802
1292 0.353852
1293 0.427892
1294 0.997903
1295 0.670726
1296 0.814146
1297 0.441648
1298 0.493427
1299 0.900531
1300 0.157318
1301 1.35109
1302 1.29492
1303 -0.123097
1304 0.750004
1305 0.993542
1306 1.09391
1307 -0.49901
1308 0.614709
1309 0.376828
1310 0.0800286
1311 -0.28293
1312 0.521551
1313 0.889721
1314 0.698298
1315 0.574146
1316 1.26671
1317 1.46535
1318 0.218057
1319 1.36147
1320 -0.438618
1321 0.2873
1322 0.658531
1323 0.408519
1324 0.514179
1325 0.438472
1326 0.898504
1327 1.54164
1328 0.728784
1329 0.810111
1330 0.43767
1331 1.23938
1332 0.728112
1333 -0.0025035
1334 0.502807
1335 -0.43946
1336 1.33397
1337 1.20617
1338 0.606962
1339 0.371479
1340 1.33482
1341 0.0312699
1342 0.715038
1343 1.16252
1344 0.40038
1345 0.167045
1346 -0.241814
1347 0.336082
1348 0.693078
1349 -0.456738
1350 0.0845859
1351 0.272137
1352 0.852114
1353 0.426895
1354 1.92421
1355 0.476247
1356 1.06357
1357 -1.10604
1358 1.10326
1359 -0.919762
1360 0.989865
1361 -0.736694
1362 0.534745
1363 0.533931
1364 -0.670557
1365 0.871541
1366 -0.0790667
1367 0.611548
1368 -0.387435
1369 0.348737
1370 0.380683
1371 0.464419
1372 1.28272
1373 1.37339
1374 -0.130794
1375 0.185896
1376 -0.547222
1377 0.93114
1378 0.61446
1379 -0.141072
1380 0.129223
1381 -0.541693
1382 -0.227879
1383 -0.151582
1384 1.0915
1385 -0.00549992
1386 -0.497928
1387 0.641526
1388 0.035152
1389 1.35061
1390 -0.427056
1391 1.0313
1392 1.07059
1393 0.743338
1394 -1.00262
1395 -0.28846
1396 -0.785131
1397 -0.693063
1398 0.925937
1399 1.17885
1400 0.0663284
1401 0.149503
1402 -0.00420511
1403 0.300173
1404 -0.857435
1405 0.669149
1406 0.750586
1407 -0.77515
1408 0.559913
1409 -0.00220985
1410 0.32902
1411 1.26604
1412 0.0387382
1413 0.272077
1414 0.00391746
1415 -0.407544
1416 0.713216
1417 1.26217
1418 0.877595
1419 1.07957
1420 1.21184
1421 0.205134
1422 0.369759
1423 -0.167718
1424 0.640756
1425 -0.228766
1426 1.19614
1427 0.26894
1428 0.399219
1429 1.31198
1430 -0.0660511
1431 -0.772726
1432 -1.0264
1433 1.48061
1434 -0.420765
1435 -0.0972554
1436 -0.371999
1437 -0.257955
1438 0.569577
1439 0.66114
1440 -0.358014
1441 0.679473
1442 1.26157
1443 -0.143298
1444 0.94322
1445 -0.475169
1446 -0.0379193
1447 -0.374453
1448 0.168327
1449 -0.558929
1450 -0.0859444
1451 0.369105
1452 0.030157
1453 0.00601523
1454 -0.130398
1455 -0.017068
1456 0.716209
1457 0.643993
1458 0.727726
1459 -0.0785942
1460 0.565207
1461 1.52704
1462 1.08839
1463 1.07831
1464 0.786448
1465 -0.041758
1466 -0.305193
1467 -0.23566
1468 -1.07303
1469 -0.492667
1470 0.00167758
1471 0.300561
1472 -1.07562
1473 -0.643011
1474 -0.100152
1475 -0.232664
1476 -1.07423
1477 -0.243546
1478 0.854628
1479 -1.15467
1480 -0.506389
1481 -0.795294
1482 -0.757431
1483 -1.36051
1484 -0.0542752
1485 0.686852
1486 0.455391
1487 -0.038625
1488 1.51341
1489 0.847287
1490 -0.0201563
1491 -0.771524
1492 -1.82287
1493 -0.960045
1494 -1.95258
1495 -2.92977
1496 -1.39373
1497 -1.69905
1498 -1.4216
1499 -0.55227
1500 -0.917398
1501 -2.95756
1502 -1.34286
1503 -0.587466
1504 -2.67653
1505 -2.768
1506 -0.718491
1507 -5.54067
1508 -3.43554
1509 -1.42774
1510 -1.80454
1511 -3.07399
1512 -2.22116
1513 -1.64247
1514 -0.775249
1515 -1.80169
1516 -1.97932
1517 -1.19411
1518 -1.15235
1519 -0.745967
1520 -3.19081
1521 -2.61141
1522 -6.17703
1523 -3.19909
1524 -1.85645
1525 -3.08694
1526 -3.32016
1527 -1.03625
1528 -2.35715
1529 -2.6668
1530 -1.48142
1531 -1.1032
1532 -2.233
1533 -1.7765
1534 -1.23217
1535 -4.80355
1536 -2.37703
1537 -4.72241
1538 -2.32832
1539 -1.51689
1540 -2.10331
1541 -2.0335
1542 -0.767108
1543 -1.36501
1544 -2.85735
1545 -1.0709
1546 -2.59373
1547 -1.54765
1548 -1.55017
1549 -2.44752
1550 -1.61008
1551 -2.2189
1552 -2.54737
1553 -1.04259
1554 -3.38316
1555 -3.43519
1556 -1.69632
1557 -1.12941
1558 -2.57748
1559 -1.3816
1560 -0.579792
1561 -1.78284
1562 -5.29198
1563 -2.64772
1564 -2.77412
1565 -1.46522
1566 -2.03793
1567 -2.3775
1568 -1.81506
1569 -1.94289
1570 -1.02509
1571 -0.626153
1572 0.620706
1573 0.387527
1574 -0.261343
1575 -0.309786
1576 0.0703165
1577 1.00071
1578 0.357258
1579 0.834672
1580 0.770009
1581 -0.271962
1582 0.719342
1583 1.31662
1584 1.42523
1585 1.61362
1586 -0.0574547
1587 0.459408
1588 0.00682818
1589 -0.0582129
1590 0.259402
1591 -0.270261
1592 -1.29562
1593 -0.919841
1594 -0.322116
1595 0.714685
1596 -5.30886
1597 -1.94501
