1 -1.22696
2 -1.12098
3 -1.58454
4 -0.281112
5 -0.441006
6 -1.57301
7 -1.97187
8 -2.1535
9 -0.0973182
10 -1.07981
11 -3.33684
12 -0.790236
13 -0.984058
14 -1.58828
15 -1.19074
16 -1.12604
17 -1.32744
18 -0.635272
19 1.24217
20 -1.88698
21 -1.07398
22 0.927212
23 0.998305
24 0.0935351
25 0.998761
26 -0.26702
27 -0.228686
28 1.54984
29 -0.0291171
30 1.05044
31 0.215369
32 0.360582
33 1.29176
34 0.0352063
35 0.557716
36 0.305191
37 0.075356
38 0.254133
39 -0.0888207
40 0.364151
41 1.27276
42 0.345244
43 -0.345503
44 -0.368067
45 -0.0798747
46 1.06372
47 -1.4054
48 -0.985547
49 -2.17694
50 -1.23768
51 0.542013
52 0.845074
53 -0.116759
54 1.02106
55 0.331284
56 0.126456
57 0.292545
58 -0.300793
59 -0.50564
60 0.472851
61 0.1073
62 0.706756
63 -0.507254
64 2.34667
65 0.182907
66 0.651804
67 0.306342
68 1.11826
69 0.673284
70 -0.211385
71 -2.57411
72 -0.252191
73 -0.805577
74 -0.820583
75 -1.84494
76 -1.08599
77 -0.800023
78 -0.257762
79 -1.36822
80 -0.801126
81 -0.358846
82 0.197943
83 0.286762
84 -0.272313
85 0.224588
86 -0.240439
87 -0.263825
88 -0.0050859
89 0.0130153
90 -0.687823
91 -0.225968
92 -0.348445
93 0.11746
94 -0.241829
95 -0.9252
96 -0.398338
97 -1.26666
98 -1.65312
99 0.160195
100 -1.29212
101 0.589332
102 -1.31355
103 -0.455267
104 -2.211
105 -0.589587
106 0.0655727
107 -0.645231
108 -0.210698
109 -2.06384
110 -0.454781
111 -0.372644
112 0.341454
113 -1.51838
114 0.380411
115 -1.50015
116 -1.08568
117 0.672472
118 -2.2754
119 -0.669649
120 -1.90638
121 -1.08183
122 -0.648156
123 -0.443659
124 -0.554529
125 -2.29577
126 -1.9861
127 -0.248116
128 -1.04324
129 1.01413
130 -0.718407
131 0.640603
132 -0.483933
133 -0.619684
134 1.25172
135 0.178132
136 -0.547
137 0.300396
138 -0.494751
139 0.154448
140 0.875558
141 0.839287
142 0.676852
143 -1.58396
144 1.41568
145 -0.508084
146 1.07855
147 -0.402555
148 0.899401
149 1.59738
150 1.53525
151 0.454352
152 1.25883
153 1.92774
154 1.21586
155 -0.99343
156 2.16068
157 0.162501
158 1.24011
159 0.928166
160 -0.591289
161 0.122239
162 -0.471359
163 0.911587
164 -0.175993
165 0.176257
166 1.25457
167 0.679583
168 -0.0505801
169 0.183863
170 1.01414
171 0.235374
172 0.724373
173 1.20656
174 -0.4045
175 -0.247789
176 0.731921
177 1.71452
178 1.37555
179 0.377812
180 1.02937
181 0.942566
182 0.330014
183 -0.368065
184 -0.892937
185 1.39353
186 0.455909
187 0.944569
188 1.77559
189 1.59275
190 1.20064
191 0.803047
192 1.60601
193 -1.8037
194 1.37455
195 1.14909
196 -0.0837546
197 -0.493992
198 -0.418507
199 1.89293
200 1.12269
201 0.248765
202 0.826825
203 0.606013
204 0.752579
205 1.03516
206 0.739747
207 0.27678
208 1.54442
209 1.40976
210 -0.404942
211 0.167897
212 1.84789
213 1.57062
214 -0.81278
215 0.760419
216 0.589464
217 0.633516
218 0.289185
219 1.47234
220 0.775548
221 0.803332
222 0.867517
223 1.81493
224 2.22562
225 1.47733
226 2.31178
227 1.82648
228 1.58747
229 1.52388
230 0.509585
231 1.40026
232 1.07057
233 1.75185
234 1.29732
235 0.817718
236 0.733865
237 -0.347482
238 1.25528
239 1.09672
240 0.1912
241 0.448989
242 1.45911
243 0.787532
244 1.01013
245 1.40617
246 0.337271
247 -0.568451
248 -0.516856
249 1.17411
250 0.00548618
251 -0.447792
252 1.51042
253 0.108812
254 1.08689
255 1.46839
256 0.109774
257 0.499407
258 1.37657
259 1.67344
260 1.09779
261 2.02217
262 -0.717157
263 0.786738
264 2.34101
265 1.95419
266 0.379908
267 1.72857
268 1.6685
269 1.73087
270 0.989323
271 1.44925
272 2.6256
273 1.60029
274 1.33766
275 0.905579
276 0.667697
277 0.745717
278 1.02341
279 0.123566
280 0.289973
281 1.04361
282 -0.154791
283 -0.0146648
284 0.101468
285 0.346628
286 0.634047
287 0.413505
288 1.72301
289 -0.0597761
290 0.78045
291 -0.160187
292 0.68981
293 1.45732
294 -0.374673
295 0.23597
296 -0.614169
297 -0.526238
298 0.354873
299 0.74817
300 1.23488
301 0.217397
302 0.714248
303 -2.8712
304 0.388152
305 -0.442773
306 1.4752
307 2.13086
308 1.67321
309 0.663357
310 1.17016
311 0.4132
312 0.874897
313 1.01203
314 1.43599
315 1.25629
316 0.737434
317 -0.547955
318 0.188915
319 0.288329
320 1.09659
321 1.33705
322 1.92472
323 0.40593
324 1.03223
325 -0.573476
326 1.42251
327 1.19673
328 -0.192094
329 0.577385
330 0.0860902
331 0.272662
332 1.39209
333 1.36307
334 0.125875
335 0.609559
336 1.00469
337 0.455833
338 1.17198
339 0.60072
340 0.186511
341 0.464524
342 0.274584
343 1.73868
344 -0.0458565
345 0.193167
346 1.23309
347 0.67092
348 0.00496843
349 -0.0733399
350 -1.81321
351 0.945306
352 0.994123
353 0.129474
354 -2.46351
355 1.32618
356 0.419086
357 -0.115146
358 -0.0923677
359 0.150524
360 0.63711
361 1.3627
362 0.521994
363 1.19201
364 1.35046
365 -0.509193
366 1.07185
367 0.454974
368 0.837493
369 0.99665
370 1.95316
371 2.45898
372 -1.80572
373 0.6445
374 0.135487
375 0.575116
376 -0.346703
377 -0.282695
378 0.00668083
379 -0.347949
380 0.166983
381 0.0586533
382 -0.579135
383 0.586961
384 1.10529
385 0.893424
386 0.0670877
387 0.0697989
388 0.165593
389 0.89753
390 0.244429
391 -0.326591
392 -0.247919
393 -0.42129
394 0.753265
395 0.44798
396 0.0620307
397 0.143042
398 0.905367
399 -0.797673
400 0.56333
401 0.95304
402 0.975361
403 0.779104
404 0.587506
405 0.595331
406 0.749649
407 -1.68614
408 0.138763
409 1.08995
410 -0.604407
411 -1.29447
412 -1.22489
413 0.245417
414 0.922261
415 0.449706
416 -0.385177
417 -0.47762
418 -0.383495
419 0.43771
420 0.84319
421 -0.195754
422 0.153676
423 -0.86489
424 0.548662
425 1.27214
426 -3.72756
427 0.516388
428 0.612517
429 0.748667
430 -0.212324
431 0.708063
432 0.898635
433 0.550471
434 -0.5745
435 0.331969
436 0.8064
437 0.263083
438 -0.199652
439 0.74106
440 -0.0436846
441 0.797764
442 0.434987
443 0.62776
444 0.412374
445 -0.207281
446 1.04793
447 0.142821
448 -0.309715
449 -0.43571
450 1.03204
451 -0.549473
452 0.258243
453 0.376894
454 -0.327785
455 1.11538
456 0.0564062
457 0.562538
458 0.701586
459 0.786897
460 -0.11443
461 -0.960202
462 0.578462
463 0.0598741
464 0.126217
465 1.48518
466 -0.201289
467 -0.0543575
468 -1.87499
469 -0.18602
470 0.463199
471 0.253061
472 -0.0259891
473 0.809031
474 0.137976
475 1.67442
476 -1.48819
477 -1.04704
478 -1.04771
479 -1.7915
480 -2.55081
481 -0.755189
482 -2.05857
483 -2.47803
484 -0.630129
485 -1.313
486 -0.453436
487 -0.227826
488 -1.3961
489 -1.3779
490 -1.02398
491 -0.402799
492 -0.898091
493 -1.04121
494 -2.65749
495 -1.87133
496 -1.73978
497 -2.08629
498 -0.727857
499 -1.42638
500 -2.20727
501 -1.85147
502 -1.08581
503 -1.57789
504 -2.07142
505 0.353877
506 -0.888951
507 -2.12711
508 -1.27487
509 -1.14626
510 -2.19091
511 -1.50834
512 -1.87245
513 0.266765
514 -0.305912
515 -0.320326
516 -0.874378
517 -3.10523
518 -2.69345
519 -1.00248
520 -0.131312
521 -0.172738
522 0.125741
523 -0.684521
524 -1.50312
525 -1.50414
526 -2.89599
527 -1.84883
528 -0.498175
529 -1.65736
530 -0.0505429
531 -0.646045
532 -1.55694
533 -0.256319
534 -0.710953
535 -0.910354
536 -0.29622
537 -1.99541
538 -1.40136
539 0.602866
540 -0.979649
541 -2.02143
542 -0.260615
543 -0.181226
544 1.43974
545 -1.36063
546 -1.1919
547 -0.753613
548 -1.85094
549 0.525657
550 -0.903962
551 -1.89692
552 -0.513426
553 -0.945884
554 -0.486862
555 -0.709569
556 -0.920692
557 0.966461
558 0.116473
559 -0.909082
560 -0.595663
561 -0.264394
562 -0.603063
563 -0.274455
564 -1.04141
565 -0.221505
566 -0.138718
567 -0.484533
568 -0.847191
569 -0.702485
570 -0.772076
571 -0.935782
572 0.327871
573 -0.230535
574 -0.647133
575 -0.878154
576 -1.22327
577 -0.631161
578 -1.40779
579 -0.203173
580 -0.271259
581 -1.32066
582 0.554753
583 1.01649
584 0.311834
585 0.483036
586 0.796511
587 0.992879
588 0.165055
589 0.558132
590 0.933319
591 0.276172
592 0.481108
593 0.184125
594 -0.0525511
595 0.564503
596 0.484275
597 1.45238
598 0.920595
599 1.3799
600 0.0853625
601 0.779381
602 1.40322
603 -0.0770971
604 0.312994
605 1.13714
606 -0.903235
607 0.674135
608 -0.462111
609 0.232764
610 0.904358
611 1.05315
612 -0.25448
613 0.204359
614 0.935975
615 0.962794
616 0.147797
617 0.276693
618 0.37273
619 0.645838
620 1.41462
621 0.184355
622 0.818199
623 0.145935
624 1.06498
625 0.56107
626 1.2279
627 1.36162
628 0.318738
629 0.750172
630 0.489982
631 -0.0674322
632 -0.314905
633 1.91905
634 1.04286
635 0.253316
636 -0.30774
637 0.602873
638 0.721024
639 1.31142
640 -0.83496
641 0.521286
642 -1.35665
643 0.966268
644 0.802568
645 0.60761
646 0.793841
647 1.34273
648 0.86821
649 1.48843
650 0.966922
651 1.23376
652 1.15094
653 -0.200238
654 1.17999
655 0.425608
656 0.779859
657 -0.174626
658 0.0338026
659 0.169251
660 0.254604
661 0.108392
662 1.03437
663 1.12143
664 1.14644
665 0.901137
666 1.25877
667 0.460243
668 0.588302
669 0.51412
670 1.12237
671 0.848954
672 0.341806
673 0.554928
674 0.86756
675 1.57813
676 0.731234
677 1.39078
678 1.09552
679 0.881259
680 0.128848
681 0.289937
682 1.33979
683 1.989
684 -0.262882
685 0.472694
686 0.888177
687 -0.340582
688 0.690131
689 0.335826
690 0.254623
691 -0.28938
692 0.862817
693 1.60338
694 1.4774
695 -0.2008
696 1.34741
697 -0.746738
698 0.758392
699 1.68677
700 0.418211
701 0.394281
702 -0.10138
703 0.611106
704 0.971259
705 -0.713478
706 0.375862
707 1.09503
708 0.860767
709 2.20495
710 1.92929
711 1.11187
712 -2.2977
713 0.00960703
714 -0.208194
715 0.25313
716 0.183583
717 -0.0010281
718 -0.0604736
719 1.30742
720 -0.506337
721 -0.17446
722 -0.0157089
723 0.869955
724 0.58616
725 0.343208
726 0.666837
727 -0.0851794
728 0.683012
729 -2.70084
730 0.546585
731 0.448635
732 1.13625
733 -0.513737
734 -0.165085
735 -0.485996
736 0.408001
737 0.837281
738 0.239597
739 0.14908
740 0.0830936
741 -0.55753
742 1.15653
743 0.924901
744 1.75861
745 -0.0133661
746 0.700017
747 0.621133
748 0.509446
749 -0.452788
750 1.17649
751 0.586853
752 0.349926
753 0.476227
754 1.12178
755 -0.911861
756 0.0593802
757 0.346471
758 -0.692972
759 0.435877
760 1.02986
761 0.903822
762 1.27836
763 1.08371
764 0.288769
765 1.08571
766 0.592219
767 0.202866
768 1.49721
769 1.35907
770 0.333733
771 -0.067316
772 -0.303568
773 0.76422
774 0.149872
775 0.575406
776 0.441562
777 0.459488
778 0.465583
779 0.693963
780 0.0129779
781 -2.41622
782 -0.943612
783 0.829895
784 -0.162563
785 1.22899
786 0.272143
787 -0.584754
788 0.496811
789 0.0680193
790 -1.69255
791 0.135774
792 -1.27572
793 -0.110249
794 0.101577
795 -0.529846
796 -0.445768
797 -0.98321
798 0.439831
799 -0.0601089
800 -0.766542
801 0.194982
802 -0.123015
803 -0.521544
804 0.357324
805 -0.115257
806 1.09288
807 -0.643229
808 -0.0308625
809 -0.535819
810 0.0981452
811 -0.545951
812 -1.28233
813 -0.658726
814 -1.02822
815 -1.09933
816 -1.08118
817 -0.0717074
818 0.468602
819 0.873912
820 -0.191605
821 0.960193
822 0.654122
823 0.787984
824 -0.328326
825 -0.383111
826 0.0367241
827 -0.238457
828 0.562856
829 0.0828195
830 0.350509
831 -0.0150714
832 -0.957883
833 -1.10698
834 0.00923051
835 0.692022
836 0.365506
837 -0.418627
838 -0.784452
839 -1.26123
840 -0.263142
841 -0.793852
842 -0.0549806
843 0.317014
844 -0.370828
845 -1.75405
846 -0.435308
847 -0.498736
848 -1.02127
849 -0.636848
850 -0.351884
851 -0.244149
852 -0.74379
853 -1.38012
854 -3.63387
855 -0.52765
856 -0.695289
857 -1.00884
858 -0.784798
859 -0.472467
860 -0.889926
861 -0.586169
862 -0.433099
863 -0.315395
864 -0.448751
865 0.676279
866 -0.570726
867 -0.858609
868 -2.83529
869 -0.0116916
870 0.612887
871 -0.262292
872 -0.340153
873 -0.676853
874 -0.0388886
875 -0.844764
876 -0.304279
877 -0.0137811
878 0.297098
879 0.224402
880 -2.13357
881 -0.48602
882 -0.69695
883 -0.399139
884 -0.120108
885 -0.0519838
886 -1.27771
887 0.351135
888 -1.42378
889 -1.11911
890 0.424494
891 0.61917
892 -0.649225
893 0.055109
894 -0.446667
895 -0.969333
896 -0.915523
897 -0.223372
898 0.178232
899 -1.56316
900 0.248853
901 -0.101872
902 -0.260402
903 -1.44817
904 -0.430122
905 -0.38131
906 0.499151
907 0.599758
908 0.323489
909 -1.32425
910 -1.1976
911 0.467665
912 -0.677877
913 -1.38412
914 0.136582
915 -0.247066
916 0.170641
917 -1.43588
918 0.578304
919 0.0565624
920 -0.726843
921 -1.93126
922 -1.19316
923 -0.709174
924 0.463589
925 -0.206773
926 -0.461626
927 -0.265097
928 -0.764039
929 -0.184466
930 -0.633999
931 0.905853
932 -0.447948
933 -1.14352
934 -0.455791
935 -1.89746
936 0.552868
937 -0.239699
938 0.500683
939 0.306742
940 -1.6592
941 -0.139676
942 -0.494477
943 -0.601265
944 -1.87162
945 -0.211359
946 -0.417618
947 0.178165
948 -1.07802
949 -1.70968
950 -1.5862
951 -0.411107
952 -0.790772
953 -0.324946
954 -0.327394
955 -0.546038
956 0.84787
957 -0.301724
958 0.293016
959 -0.097735
960 -0.0592699
961 -0.770128
962 -0.976132
963 0.242734
964 0.037451
965 0.549669
966 -0.446877
967 -0.3713
968 -0.367341
969 -1.66246
970 -0.831912
971 1.54353
972 2.10109
973 0.403108
974 0.468599
975 -0.529977
976 0.201261
977 1.41558
978 -0.873567
979 -1.43058
980 0.664549
981 -1.81395
982 0.00506158
983 1.2969
984 0.552607
985 1.05025
986 0.0127997
987 -2.58945
988 0.29803
989 -2.90246
990 0.701344
991 -0.442389
992 0.822745
993 -0.0509537
994 0.274634
995 -2.12327
996 0.0766569
997 1.09815
998 0.884484
999 -0.334085
1000 0.642375
1001 0.177445
1002 0.469185
1003 -1.42468
1004 0.0424349
1005 1.66792
1006 0.273634
1007 0.223987
1008 0.770765
1009 0.793338
1010 -1.45837
1011 -1.73918
1012 0.598298
1013 -0.598434
1014 0.523543
1015 -0.460077
1016 1.10851
1017 -0.70477
1018 -1.2999
1019 -0.045552
1020 -0.766627
1021 1.22912
1022 -0.1734
1023 -0.867408
1024 -1.3649
1025 -0.803836
1026 0.695066
1027 0.730987
1028 0.368652
1029 0.330833
1030 0.41504
1031 -0.892055
1032 -1.0245
1033 0.0791033
1034 -1.06344
1035 -0.772575
1036 -0.709148
1037 -1.00451
1038 -0.64554
1039 -1.26004
1040 -0.909192
1041 0.215911
1042 -0.435592
1043 -1.53741
1044 -0.490349
1045 0.120629
1046 0.591837
1047 -2.78867
1048 -1.16957
1049 -0.754084
1050 -1.47172
1051 -0.69214
1052 -0.63569
1053 -0.43235
1054 0.216672
1055 -0.285565
1056 0.640072
1057 -2.73025
1058 -0.918997
1059 0.0168024
1060 0.146745
1061 -2.49919
1062 -0.108672
1063 -1.11443
1064 -0.323471
1065 -0.191511
1066 0.00150821
1067 -1.22529
1068 -0.506233
1069 0.254962
1070 -2.34972
1071 -1.05543
1072 -0.621817
1073 -0.519587
1074 -0.0685238
1075 -0.050057
1076 -0.53687
1077 -0.0500559
1078 0.113076
1079 -0.885107
1080 0.48793
1081 -0.390629
1082 -1.51762
1083 -0.901129
1084 -0.517733
1085 -0.479231
1086 0.41701
1087 -0.163069
1088 -0.310998
1089 -0.0611488
1090 -0.65064
1091 -0.674396
1092 1.19886
1093 0.528947
1094 -0.0936705
1095 -1.04882
1096 -0.62897
1097 -0.468012
1098 -0.409911
1099 -0.957565
1100 -0.803272
1101 -1.75915
1102 -0.496328
1103 -0.174129
1104 -0.229579
1105 0.315993
1106 0.513442
1107 -0.21124
1108 -0.614434
1109 0.900152
1110 0.264854
1111 -0.609661
1112 1.1809
1113 -0.58645
1114 -1.38223
1115 -0.92143
1116 -1.13294
1117 -0.649946
1118 -0.403047
1119 -1.04583
1120 -0.415723
1121 -0.73742
1122 -0.57991
1123 -0.792506
1124 -1.37465
1125 -0.512411
1126 -0.0846147
1127 -2.40871
1128 0.223515
1129 0.0459529
1130 -0.191587
1131 -0.510705
1132 -0.501104
1133 0.348946
1134 -0.739539
1135 -0.76952
1136 -2.04371
1137 -1.98321
1138 -2.27372
1139 0.560443
1140 0.021469
1141 -0.438202
1142 -1.07637
1143 -0.171068
1144 -1.62317
1145 -0.72375
1146 0.467312
1147 -0.251621
1148 -1.09713
1149 -0.544529
1150 0.250814
1151 0.102791
1152 -0.0191933
1153 -0.385341
1154 0.332973
1155 0.98309
1156 -0.309317
1157 -1.08284
1158 0.383676
1159 0.221814
1160 -1.28223
1161 -0.325904
1162 -0.336188
1163 -1.67696
1164 -2.68536
1165 -2.14516
1166 -1.15817
1167 -0.837205
1168 -1.15061
1169 -1.85675
1170 -1.66953
1171 -1.86746
1172 -2.4055
1173 -1.76714
1174 -1.8227
1175 -1.85504
1176 -2.12782
1177 -0.831939
1178 -1.10006
1179 -1.15372
1180 0.211308
1181 -0.689238
1182 -1.35526
1183 0.190871
1184 -0.402097
1185 0.917745
1186 0.72653
1187 -1.09765
1188 0.00949627
1189 -0.377702
1190 -0.85556
1191 -1.47482
1192 0.515868
1193 1.26424
1194 1.35377
1195 -0.372324
1196 1.05608
1197 0.431896
1198 -0.675856
1199 -0.285412
1200 0.536505
1201 1.60269
1202 0.787202
1203 1.00599
1204 0.147573
1205 1.50161
1206 0.580055
1207 1.0782
1208 0.375668
1209 -0.623372
1210 -0.411799
1211 0.575698
1212 1.22912
1213 -0.612159
1214 1.39844
1215 0.83686
1216 1.12423
1217 0.801606
1218 1.6705
1219 0.191745
1220 -0.420272
1221 1.5073
1222 -0.0932087
1223 -0.880706
1224 0.693466
1225 1.19943
1226 0.119069
1227 0.0253869
1228 0.778101
1229 0.852544
1230 0.389747
1231 1.0743
1232 0.27944
1233 -0.79197
1234 -0.572376
1235 1.22451
1236 0.558553
1237 0.923481
1238 0.13914
1239 0.301081
1240 0.629461
1241 1.34248
1242 -0.514205
1243 -0.233872
1244 0.820281
1245 1.00596
1246 -1.94544
1247 1.7944
1248 0.68381
1249 -0.418065
1250 -0.139723
1251 0.126717
1252 -0.291258
1253 -0.205813
1254 -0.765903
1255 0.55833
1256 0.125381
1257 1.08899
1258 1.06362
1259 -0.308637
1260 -0.0991692
1261 0.470149
1262 0.787309
1263 -0.718669
1264 0.150186
1265 0.653069
1266 -0.544745
1267 0.105155
1268 0.48902
1269 -0.235594
1270 -0.190521
1271 0.868631
1272 1.24606
1273 -1.0837
1274 -0.484874
1275 -1.52592
1276 -1.63174
1277 -1.01731
1278 -0.732768
1279 0.428284
1280 0.633694
1281 0.683903
1282 0.427842
1283 -0.262747
1284 2.34234
1285 0.87274
1286 0.245492
1287 0.9918
1288 -0.0328264
1289 -0.606542
1290 0.206389
1291 -0.712249
1292 -0.0933401
1293 1.22859
1294 0.684135
1295 0.360442
1296 0.662038
1297 1.03971
1298 0.14155
1299 0.978721
1300 2.17613
1301 -0.0249857
1302 0.433038
1303 2.11922
1304 -0.486237
1305 0.198079
1306 0.857648
1307 0.302466
1308 0.6849
1309 0.31247
1310 -0.479573
1311 -0.582031
1312 -1.05992
1313 0.0514064
1314 0.792544
1315 -0.182758
1316 0.289896
1317 0.0252664
1318 -1.25828
1319 -0.359836
1320 0.0639052
1321 0.0692416
1322 -0.880839
1323 -0.78524
1324 0.497718
1325 0.449517
1326 0.709029
1327 -0.92012
1328 0.79826
1329 -0.320486
1330 0.0957597
1331 -1.03262
1332 -0.938345
1333 0.375463
1334 0.0713623
1335 1.27537
1336 0.972819
1337 0.794693
1338 1.17632
1339 1.05163
1340 0.747227
1341 -0.729125
1342 1.07951
1343 0.912652
1344 1.00186
1345 -0.312444
1346 0.698051
1347 0.828858
1348 -0.645488
1349 1.20468
1350 -0.450243
1351 -0.0965783
1352 0.716186
1353 0.650384
1354 0.185961
1355 0.126975
1356 0.794643
1357 0.280521
1358 -0.688766
1359 2.05979
1360 0.784469
1361 0.235617
1362 0.219377
1363 0.834149
1364 0.326537
1365 1.60027
1366 0.542781
1367 0.405826
1368 -0.15084
1369 1.05147
1370 -0.227226
1371 0.287927
1372 0.959949
1373 -0.268607
1374 -0.0867714
1375 0.48924
1376 0.623775
1377 0.199771
1378 0.73375
1379 1.79974
1380 -0.885975
1381 -0.0693561
1382 0.901182
1383 0.742886
1384 -1.22888
1385 -0.4645
1386 0.60593
1387 0.115672
1388 0.0245665
1389 1.09657
1390 -0.113031
1391 0.664423
1392 0.737042
1393 0.367552
1394 0.647934
1395 0.413412
1396 0.678066
1397 -0.649892
1398 0.530158
1399 0.578098
1400 0.361516
1401 1.67043
1402 0.623544
1403 0.689685
1404 0.614309
1405 1.04379
1406 0.0180806
1407 0.174481
1408 0.382362
1409 1.42118
1410 1.07464
1411 -0.26853
1412 0.0909654
1413 -0.159049
1414 0.142052
1415 0.70381
1416 -1.25545
1417 0.869745
1418 0.39239
1419 1.41937
1420 0.900843
1421 0.0330893
1422 0.232744
1423 -0.181264
1424 0.807905
1425 0.607297
1426 -0.0137384
1427 -0.191276
1428 -0.593207
1429 0.213144
1430 0.410319
1431 0.51171
1432 0.173581
1433 -0.908135
1434 0.909843
1435 1.45802
1436 0.613778
1437 -0.034415
1438 0.837445
1439 -1.37531
1440 0.176322
1441 1.111
1442 -0.550644
1443 0.67277
1444 1.08155
1445 -0.422372
1446 0.786525
1447 0.185652
1448 1.37224
1449 0.708838
1450 0.729888
1451 0.702326
1452 0.366139
1453 0.914237
1454 0.831768
1455 1.10469
1456 0.822929
1457 0.127227
1458 0.31893
1459 0.849658
1460 0.685436
1461 0.832854
1462 0.964418
1463 1.65143
1464 0.237439
1465 0.589738
1466 0.516624
1467 1.78683
1468 0.727176
1469 0.885747
1470 0.473534
1471 0.335581
1472 1.40915
1473 0.867517
1474 0.791311
1475 0.754364
1476 0.260025
1477 0.052114
1478 1.10687
1479 1.04005
1480 0.032266
1481 -0.2299
1482 0.917838
1483 -0.450493
1484 0.405144
1485 0.557008
1486 0.317686
1487 0.824479
1488 0.190958
1489 -0.384168
1490 0.655213
1491 -0.0980329
1492 -0.824664
1493 -0.808334
1494 -0.13585
1495 0.0311926
1496 0.277719
1497 -1.10892
1498 -1.48208
1499 -0.653512
1500 0.00320752
1501 -0.163175
1502 -1.93179
1503 -0.296319
1504 0.173209
1505 0.377488
1506 -0.910505
1507 -0.270142
1508 0.75192
1509 0.550887
1510 0.11844
1511 0.580893
1512 -0.578701
1513 -0.354472
1514 0.39286
1515 1.42793
1516 -0.551377
1517 -0.139784
1518 -0.808306
1519 -1.96819
1520 0.474776
1521 0.175981
1522 0.967844
1523 0.742979
1524 -1.48062
1525 0.258449
1526 -0.771143
1527 0.563658
1528 -0.690916
1529 -0.0866041
1530 -0.440658
1531 -0.633084
1532 1.01808
1533 -1.81942
1534 -3.2435
1535 0.379448
1536 -0.227981
1537 0.579089
1538 -2.5501
1539 -0.492548
1540 -0.211578
1541 -1.31224
1542 -0.461101
1543 0.276164
1544 -1.5315
1545 -0.278775
1546 -0.263206
1547 0.762158
1548 -0.773602
1549 0.301188
1550 -0.760734
1551 -1.49613
1552 0.45698
1553 -0.244073
1554 -0.159375
1555 0.372913
1556 0.277726
1557 -0.306815
1558 -1.62035
1559 -0.36492
1560 -0.0253436
1561 -0.952633
1562 0.70745
1563 -0.791191
1564 -0.646638
1565 -0.180341
1566 0.0865378
1567 -1.35266
1568 -0.464335
1569 0.0958559
1570 0.983649
1571 -1.06457
1572 0.175354
1573 -0.327583
1574 -1.05956
1575 -0.169397
1576 0.289787
1577 0.464002
1578 -0.877747
1579 0.305699
1580 -3.11942
1581 -1.60398
1582 -0.364278
1583 0.137764
1584 0.636001
1585 0.343945
1586 -1.59599
1587 -0.545634
1588 -0.743819
1589 -0.391075
1590 0.79648
1591 -2.29001
1592 -0.361499
1593 -1.27753
1594 -0.980712
1595 1.11441
1596 1.45003
1597 -0.361919
