1 1.94981
2 0.488589
3 -0.0391311
4 0.922307
5 2.28521
6 0.822536
7 2.16941
8 1.27589
9 -0.12254
10 0.140141
11 2.30219
12 0.0610848
13 -0.804735
14 1.4933
15 0.931556
16 0.617574
17 0.889991
18 1.40938
19 1.078
20 -0.0555389
21 -1.20827
22 -0.595955
23 0.0992144
24 -0.943758
25 -1.14563
26 -0.11106
27 0.902755
28 -1.34755
29 -2.07968
30 -0.958637
31 -0.387047
32 1.47415
33 -1.07077
34 0.612442
35 -0.786532
36 0.494219
37 0.816867
38 0.911415
39 -0.0288351
40 -1.65106
41 -1.26784
42 0.108818
43 -1.10779
44 -0.42649
45 0.148294
46 -0.478765
47 0.0719352
48 -2.07805
49 -0.0977062
50 -0.396182
51 0.470355
52 -0.534928
53 0.369185
54 0.915417
55 -0.538472
56 -0.695707
57 -0.12116
58 0.486626
59 0.786813
60 -0.350824
61 0.595449
62 -1.91128
63 -0.0435643
64 -0.576996
65 0.673017
66 -2.03523
67 -0.794764
68 -0.443574
69 -0.394164
70 -1.61228
71 0.135357
72 0.967671
73 1.12428
74 -0.529456
75 1.24238
76 -0.211395
77 1.05295
78 0.580913
79 2.62749
80 1.16911
81 0.391272
82 0.967347
83 -0.931115
84 -3.61152
85 1.39506
86 0.830777
87 1.98225
88 0.311901
89 -2.16031
90 1.05347
91 0.0688729
92 1.16632
93 0.560971
94 -0.0288525
95 1.48251
96 1.99658
97 0.653916
98 -0.371688
99 0.945299
100 -0.180582
101 1.26659
102 0.205407
103 1.17936
104 0.984768
105 0.41338
106 0.877694
107 -0.683457
108 -0.273043
109 1.48431
110 2.2722
111 1.18845
112 0.969937
113 1.74274
114 -0.598425
115 0.918089
116 -1.29816
117 0.755455
118 0.277903
119 1.48694
120 0.455668
121 0.72303
122 0.302855
123 0.955509
124 -0.524761
125 0.0776903
126 -0.0539866
127 0.976682
128 0.801822
129 0.0574906
130 0.356591
131 -0.207474
132 0.574439
133 -1.66265
134 -2.32941
135 0.655317
136 -2.07732
137 -1.21352
138 0.621787
139 -1.32589
140 -0.528419
141 -2.14952
142 0.995973
143 0.394859
144 -0.54799
145 0.885831
146 -0.612059
147 -2.13565
148 0.13921
149 0.322203
150 -0.874531
151 -1.69681
152 -0.284492
153 1.15584
154 1.04163
155 -0.941605
156 0.876687
157 -0.547753
158 0.26049
159 -0.776677
160 -0.489961
161 0.395017
162 -1.1521
163 -0.465574
164 1.61857
165 0.66467
166 -1.62904
167 -0.435965
168 0.885943
169 1.51349
170 0.47445
171 0.934198
172 0.397631
173 -0.947932
174 0.882978
175 -1.40771
176 0.46676
177 -4.09554
178 -1.96353
179 -0.718203
180 -1.19171
181 -2.50625
182 -0.931228
183 -0.260415
184 -1.30206
185 -0.398382
186 -0.224565
187 -0.868098
188 -0.765694
189 -0.96718
190 -0.915223
191 -1.87946
192 -1.33181
193 0.4026
194 0.140484
195 -0.514441
196 -0.989956
197 1.13684
198 -1.34471
199 0.16436
200 -0.32096
201 0.390503
202 0.789433
203 -1.34599
204 0.399304
205 -1.07712
206 -1.95975
207 -0.399048
208 -2.0763
209 -0.226619
210 -0.156993
211 -1.53577
212 0.255447
213 -0.703119
214 0.719656
215 -1.46398
216 -0.357036
217 0.123016
218 0.346485
219 0.646878
220 1.24969
221 -0.317467
222 -2.35659
223 -1.15765
224 0.286046
225 -1.64458
226 -0.37102
227 -0.997607
228 -0.492218
229 0.402491
230 -0.391634
231 -0.464525
232 -0.496984
233 -1.44686
234 0.198866
235 -0.49484
236 -0.978698
237 -3.40605
238 -1.67634
239 0.669664
240 0.445401
241 -0.975106
242 -0.0654634
243 -0.176787
244 -0.30856
245 -0.633356
246 -2.43683
247 0.195002
248 0.477189
249 -1.19177
250 0.682526
251 -0.764134
252 0.992268
253 0.810586
254 -0.558728
255 1.33303
256 0.169523
257 -0.710989
258 -3.01134
259 -0.237151
260 -1.76933
261 -0.598764
262 0.270295
263 0.270373
264 -0.289315
265 0.370992
266 1.40335
267 0.470465
268 -0.645094
269 -0.724883
270 -0.438392
271 -0.970534
272 -0.712921
273 -0.883335
274 1.38579
275 0.11583
276 0.393669
277 0.00867145
278 -0.817311
279 -0.42255
280 1.21999
281 1.7173
282 0.2449
283 -1.63716
284 -1.58725
285 -0.891784
286 -1.13162
287 -0.0629552
288 0.830897
289 -0.0268569
290 -2.25199
291 -2.83377
292 -1.38457
293 -0.552305
294 -0.727919
295 -0.858663
296 0.220605
297 -0.230446
298 0.576467
299 -0.819917
300 -1.00387
301 1.2824
302 -1.07383
303 0.300843
304 -1.06523
305 1.33748
306 -0.329177
307 -1.70859
308 0.935118
309 0.815551
310 0.341567
311 -0.528498
312 -1.23034
313 0.66203
314 -0.77301
315 -0.158137
316 0.598686
317 -0.568401
318 -0.162495
319 0.192549
320 0.135557
321 -0.827017
322 -1.52156
323 0.460751
324 0.211111
325 1.14555
326 -1.21157
327 1.00756
328 -0.755419
329 -0.562597
330 0.326515
331 0.834137
332 -1.51561
333 -2.33301
334 0.797073
335 0.107071
336 -1.45734
337 -1.67122
338 0.392792
339 -1.27721
340 -0.393679
341 1.19512
342 -0.602358
343 -1.59152
344 -0.627581
345 1.78314
346 -0.581975
347 -0.695063
348 -0.693591
349 0.497307
350 -0.951027
351 -0.0890312
352 -0.333615
353 -2.44155
354 -0.380821
355 0.890595
356 -0.382733
357 1.13292
358 -0.722001
359 -2.24045
360 -0.522546
361 0.278254
362 -1.26562
363 -0.400474
364 0.611793
365 0.129854
366 -0.905363
367 0.327655
368 -0.924245
369 -0.135805
370 0.971184
371 -0.298403
372 0.95876
373 -0.922681
374 0.259924
375 -1.08189
376 0.82913
377 -1.39186
378 0.804105
379 -0.126218
380 0.784298
381 -1.94245
382 -0.616064
383 -0.509021
384 -0.640505
385 -1.00729
386 -0.924076
387 0.285742
388 0.457737
389 0.818567
390 0.641136
391 -0.573348
392 0.68618
393 -0.416947
394 -0.179098
395 -2.77981
396 -0.96997
397 -1.08409
398 -2.83595
399 -0.0777586
400 -0.862691
401 0.832161
402 0.381503
403 -0.25361
404 -0.12462
405 0.210768
406 0.499368
407 -1.04001
408 -0.0360765
409 -1.21115
410 0.305119
411 -0.438039
412 0.839147
413 -0.555986
414 0.573088
415 0.081876
416 0.538287
417 -1.09105
418 -0.745299
419 0.550656
420 -0.89862
421 0.33986
422 0.0922752
423 0.411669
424 0.114557
425 -0.282753
426 1.62687
427 -0.332751
428 0.682982
429 1.69612
430 -1.83056
431 -2.29614
432 0.327325
433 0.804617
434 -0.453617
435 0.0998261
436 0.530697
437 -0.609504
438 1.05497
439 -0.128291
440 1.48776
441 0.861401
442 0.337044
443 0.510515
444 -0.992164
445 0.959365
446 -0.164025
447 0.316101
448 1.37483
449 0.264288
450 -1.61089
451 0.295438
452 -0.793749
453 -0.961736
454 -0.843997
455 -1.0395
456 -1.86726
457 -2.23717
458 0.464243
459 -0.0857411
460 -0.124594
461 0.189225
462 -0.857673
463 -1.68775
464 -0.978317
465 -1.2084
466 -1.78129
467 0.946658
468 -0.297049
469 -0.534803
470 1.17621
471 -0.922878
472 0.579875
473 -1.59298
474 0.655247
475 0.511848
476 -0.46874
477 0.355939
478 0.708832
479 -0.684023
480 1.16749
481 0.137858
482 -0.125888
483 -0.19376
484 0.918357
485 1.16505
486 0.742855
487 0.0842974
488 1.06441
489 0.269023
490 0.00956181
491 -0.672553
492 -1.31127
493 0.634766
494 0.383481
495 0.985633
496 0.904066
497 0.789601
498 -0.148567
499 0.879676
500 1.02797
501 -0.447311
502 1.32784
503 -1.20386
504 0.0872581
505 1.32108
506 -0.18768
507 2.02012
508 0.361185
509 -0.499527
510 -0.490175
511 1.39486
512 0.185257
513 0.7731
514 0.218013
515 -0.629502
516 1.17868
517 -1.18236
518 0.795473
519 -0.942032
520 0.586227
521 0.946759
522 0.21303
523 1.17906
524 -1.00795
525 0.352475
526 -0.160948
527 -0.482614
528 1.15631
529 0.712122
530 -1.27533
531 1.01406
532 0.618008
533 -1.13749
534 1.20524
535 -0.0854844
536 1.32456
537 0.68763
538 -0.0842449
539 -0.285064
540 -1.8137
541 -1.16645
542 0.238911
543 -1.85099
544 -0.558543
545 -1.63431
546 1.3158
547 1.26621
548 -1.12826
549 1.48046
550 -2.08115
551 0.731158
552 0.690128
553 0.478172
554 1.67096
555 0.814771
556 1.21846
557 -0.859553
558 0.18113
559 1.87838
560 0.982423
561 0.894567
562 1.07073
563 1.24594
564 1.15631
565 0.272449
566 -0.136974
567 0.676515
568 -0.265774
569 -1.92597
570 1.10649
571 0.17094
572 1.22478
573 1.12716
574 1.03291
575 -0.302798
576 1.41048
577 1.30471
578 0.745955
579 0.748689
580 1.29054
581 1.40381
582 0.305787
583 -0.298716
584 -2.51036
585 -0.879555
586 0.604621
587 -0.348727
588 -0.795045
589 0.490306
590 -1.72919
591 0.866302
592 -0.104631
593 -0.879681
594 1.08966
595 -1.42523
596 -1.04324
597 -0.814091
598 -0.661264
599 0.161034
600 -1.03196
601 0.907701
602 -0.960806
603 0.132332
604 -1.0554
605 0.942068
606 -2.19822
607 -0.372511
608 1.13329
609 0.845388
610 0.039221
611 0.860646
612 0.765475
613 0.51827
614 0.103852
615 -1.43576
616 -1.8177
617 -0.191575
618 -0.611824
619 0.468267
620 -0.406321
621 0.979789
622 0.40731
623 0.869401
624 0.484772
625 -0.981238
626 -0.641701
627 -0.983044
628 0.519677
629 0.192089
630 0.532749
631 0.17923
632 -0.86394
633 -0.0861976
634 0.612891
635 0.88613
636 -0.385143
637 1.298
638 -0.370203
639 -0.859984
640 0.0807856
641 -0.647479
642 0.93921
643 0.509656
644 -0.320593
645 1.10726
646 -0.441244
647 -1.36725
648 1.18745
649 -1.78782
650 -0.0232191
651 -0.222107
652 -1.45689
653 -1.22533
654 0.119382
655 0.1643
656 -0.771143
657 0.143384
658 -1.71004
659 0.707327
660 -1.1028
661 -0.0956315
662 1.12793
663 -0.538715
664 -1.28245
665 -0.432176
666 0.965362
667 0.314006
668 -2.17635
669 -1.75768
670 -0.753752
671 -2.24312
672 -1.5584
673 -0.00955657
674 -0.0749674
675 -0.651118
676 1.1151
677 -3.54379
678 -0.195737
679 -0.375631
680 -1.51304
681 1.07637
682 -1.25502
683 1.08387
684 0.982877
685 -0.723942
686 -1.24066
687 1.62753
688 -2.56191
689 -1.3679
690 -0.913453
691 -0.188408
692 0.141645
693 0.288358
694 -0.708239
695 -0.107764
696 -0.127744
697 -0.0115762
698 0.0823333
699 -1.06498
700 -0.891959
701 -0.526959
702 -0.0131475
703 -0.432227
704 -0.423371
705 0.149536
706 0.805838
707 -1.04568
708 -0.589969
709 0.170282
710 1.45032
711 -0.24333
712 -0.345727
713 0.636652
714 0.739762
715 0.717499
716 -0.0284137
717 -0.997771
718 1.15133
719 -1.07331
720 0.899199
721 -0.234849
722 -0.959386
723 0.292983
724 -0.647089
725 0.416992
726 -1.45565
727 -1.72527
728 -0.836653
729 0.809394
730 1.32757
731 -1.13195
732 -0.469852
733 1.50099
734 -0.206461
735 -0.143097
736 -0.355968
737 0.869029
738 0.822781
739 -0.340771
740 -0.727579
741 -0.712974
742 -0.0334327
743 0.534716
744 0.778368
745 0.75166
746 0.797223
747 1.47253
748 -2.13794
749 -0.762779
750 1.10281
751 0.654244
752 -0.175555
753 -1.27804
754 0.181003
755 0.882396
756 0.726896
757 -0.584349
758 -0.263983
759 0.462089
760 0.4928
761 -1.42397
762 0.324458
763 0.49677
764 0.412027
765 -0.590156
766 -0.907882
767 -0.577194
768 -2.02075
769 -0.818403
770 0.053314
771 -0.424703
772 -0.191444
773 -1.56876
774 1.32246
775 0.212446
776 -0.829259
777 0.257956
778 0.297239
779 -0.543993
780 0.529285
781 -0.168014
782 0.986626
783 -1.20584
784 -1.21456
785 1.27078
786 0.999325
787 -0.151232
788 -0.0773992
789 -0.481839
790 -0.245587
791 1.27587
792 -0.110701
793 0.39649
794 0.288317
795 0.939401
796 0.532144
797 1.41
798 0.522423
799 1.79863
800 -0.802028
801 -0.0532783
802 0.183532
803 0.715746
804 1.39683
805 -1.13666
806 -1.41769
807 -0.205405
808 0.747947
809 -0.448819
810 -0.52878
811 1.10012
812 -2.15206
813 -0.658126
814 -0.128438
815 -2.17773
816 1.6955
817 0.969862
818 -0.576217
819 1.48813
820 1.93103
821 -1.12354
822 0.604055
823 1.06538
824 -1.55182
825 -1.51092
826 1.2616
827 0.511985
828 -1.21586
829 0.570843
830 -1.92457
831 -0.0193966
832 1.35176
833 -0.833788
834 -0.572765
835 0.505981
836 -1.09653
837 0.791201
838 1.11595
839 0.49131
840 -0.386932
841 -0.526463
842 1.26665
843 0.96454
844 1.12525
845 -0.934854
846 1.11407
847 1.32628
848 1.16164
849 0.0970403
850 1.84924
851 1.46773
852 1.50018
853 -0.967034
854 1.15286
855 -0.00439389
856 1.76533
857 1.6405
858 -0.77973
859 -0.847973
860 -0.390865
861 0.290362
862 1.35057
863 1.19465
864 -1.33611
865 1.68783
866 -0.264727
867 1.54396
868 1.5477
869 0.755048
870 -0.294278
871 -1.71481
872 0.756469
873 -0.618464
874 0.0261183
875 1.25764
876 -0.527114
877 -0.567266
878 0.899382
879 1.11448
880 -0.470844
881 1.77959
882 1.14285
883 -0.439303
884 -1.16063
885 -0.0734401
886 1.31337
887 -0.15388
888 -1.05195
889 1.62851
890 0.278403
891 0.0694172
892 -0.0756627
893 -2.20669
894 0.869795
895 -0.21967
896 -0.64857
897 1.07699
898 0.350484
899 -2.0921
900 -0.435641
901 0.361619
902 0.932553
903 0.383254
904 1.47679
905 -0.665489
906 0.947676
907 -1.48711
908 -0.705221
909 1.68119
910 0.0661812
911 -0.807512
912 -0.0664678
913 -0.264692
914 0.103587
915 0.344184
916 -0.916933
917 0.56578
918 -0.694032
919 0.360045
920 1.62816
921 0.339285
922 1.45715
923 -0.730675
924 1.40506
925 0.243618
926 1.33251
927 -0.150634
928 -0.0439042
929 -0.585385
930 0.010784
931 1.97944
932 -0.682216
933 0.434166
934 -0.783445
935 0.91516
936 -2.70747
937 0.0132516
938 1.26739
939 -0.98406
940 -0.298477
941 -0.155235
942 -0.390398
943 1.15399
944 -0.824044
945 1.22957
946 2.11114
947 0.077314
948 -0.0605422
949 -2.97734
950 0.582623
951 0.382776
952 -0.243784
953 0.309631
954 -0.365301
955 1.28255
956 -1.28476
957 0.341738
958 1.29393
959 0.474228
960 1.17664
961 1.15165
962 1.6487
963 0.497015
964 -0.498392
965 -0.199759
966 1.24879
967 -0.802667
968 -0.88258
969 0.910417
970 -0.541039
971 0.403523
972 1.46464
973 0.427849
974 0.134405
975 0.935049
976 1.25121
977 1.12736
978 -0.315865
979 0.606208
980 0.291457
981 0.774832
982 1.14778
983 0.259505
984 -1.01318
985 1.11925
986 -1.75435
987 -0.612258
988 0.311158
989 1.507
990 1.56832
991 1.56684
992 0.395419
993 0.128992
994 0.449604
995 0.823759
996 -0.125132
997 0.0963379
998 -1.65498
999 -1.06875
1000 1.00546
1001 -1.54367
1002 -0.120737
1003 -0.496409
1004 -0.750168
1005 -0.279201
1006 0.465731
1007 1.75536
1008 -0.416663
1009 0.355212
1010 -0.808303
1011 -0.323429
1012 0.35074
1013 0.382696
1014 1.16825
1015 0.567982
1016 0.377618
1017 -1.52825
1018 -0.242329
1019 1.50731
1020 -0.874777
1021 0.923578
1022 1.19268
1023 0.291015
1024 -0.690088
1025 -0.585511
1026 1.43267
1027 -0.591694
1028 -1.13271
1029 1.76666
1030 -0.715953
1031 0.998417
1032 0.0359502
1033 -1.68995
1034 -1.92682
1035 0.703651
1036 0.512205
1037 -1.26853
1038 1.45847
1039 -0.0172272
1040 0.891542
1041 -0.454792
1042 0.396633
1043 1.11201
1044 0.749234
1045 0.468665
1046 0.123206
1047 0.187917
1048 -0.286735
1049 1.43609
1050 -0.235037
1051 -0.111945
1052 0.871046
1053 -0.534739
1054 -0.596884
1055 -0.607062
1056 0.496065
1057 1.78954
1058 -0.819806
1059 0.73759
1060 0.938178
1061 -0.375242
1062 1.17904
1063 -0.324163
1064 -3.61565
1065 1.99726
1066 1.33513
1067 -0.52023
1068 0.320554
1069 -0.977816
1070 0.105775
1071 -0.307669
1072 1.33085
1073 -1.4381
1074 1.34412
1075 1.10065
1076 0.0376253
1077 0.211405
1078 0.443879
1079 -0.515227
1080 0.749483
1081 0.460925
1082 -2.11676
1083 0.875343
1084 -2.20144
1085 0.632584
1086 -0.510304
1087 0.122821
1088 -0.690802
1089 -0.864741
1090 -1.40131
1091 -0.578851
1092 -0.928606
1093 0.178478
1094 -0.509342
1095 1.13323
1096 -0.293456
1097 -0.141399
1098 -0.863231
1099 0.340494
1100 -0.325893
1101 -0.980405
1102 -0.023047
1103 0.234203
1104 1.16646
1105 -1.53255
1106 0.0768774
1107 0.935804
1108 0.945395
1109 0.842646
1110 1.60632
1111 0.764457
1112 -0.65633
1113 -0.993709
1114 -0.988164
1115 0.481431
1116 2.48465
1117 -0.183004
1118 -0.358635
1119 2.15814
1120 -1.14651
1121 -0.614894
1122 0.427593
1123 -0.652458
1124 0.804947
1125 1.12285
1126 -0.403467
1127 -0.983035
1128 0.607384
1129 -0.643285
1130 0.615624
1131 -0.954376
1132 0.855579
1133 0.437544
1134 -0.430828
1135 0.908576
1136 -0.217515
1137 0.935863
1138 1.64377
1139 1.11463
1140 -0.778333
1141 0.661428
1142 0.772455
1143 -0.0862574
1144 -0.0945576
1145 -0.144054
1146 -2.91466
1147 0.761362
1148 -0.388344
1149 -0.195421
1150 1.58652
1151 0.269213
1152 1.07463
1153 1.9885
1154 0.85215
1155 0.138293
1156 0.50875
1157 0.134396
1158 0.39407
1159 0.932321
1160 0.0766215
1161 -1.02217
1162 -0.180939
1163 0.50026
1164 1.3098
1165 -0.163697
1166 0.915536
1167 0.693234
1168 0.563644
1169 -0.606661
1170 1.31705
1171 1.05669
1172 0.870294
1173 0.112864
1174 0.487325
1175 1.45407
1176 1.61888
1177 1.08774
1178 -1.19681
1179 1.57109
1180 -1.42382
1181 1.10258
1182 1.45276
1183 0.316286
1184 0.133523
1185 0.534133
1186 -1.21709
1187 0.639578
1188 0.628289
1189 0.526
1190 0.174165
1191 0.405263
1192 0.749581
1193 -0.656928
1194 -1.52148
1195 0.377753
1196 0.457463
1197 -1.94312
1198 1.76418
1199 -0.00528901
1200 0.656568
1201 0.337451
1202 1.02407
1203 -0.807713
1204 1.40191
1205 0.164516
1206 -1.41161
1207 -1.31074
1208 -1.27439
1209 0.509302
1210 -0.0554378
1211 -1.65128
1212 1.16725
1213 1.39072
1214 -0.0502939
1215 1.44531
1216 0.610294
1217 -0.0523537
1218 1.17011
1219 -0.412521
1220 1.65221
1221 0.959615
1222 -0.239495
1223 -2.90384
1224 1.12098
1225 -0.275381
1226 1.18466
1227 0.665712
1228 -0.276066
1229 0.86078
1230 0.867885
1231 -1.75868
1232 -1.19061
1233 -0.141051
1234 0.109151
1235 0.296785
1236 -0.0410083
1237 -0.800391
1238 -0.0573842
1239 0.793825
1240 -1.05572
1241 0.558632
1242 -0.245061
1243 0.632076
1244 -0.525641
1245 -0.622365
1246 0.67671
1247 -0.583398
1248 -0.415503
1249 0.401417
1250 1.06747
1251 -2.11303
1252 -0.483513
1253 1.18204
1254 -0.0589148
1255 0.997458
1256 -0.553638
1257 0.558652
1258 0.579847
1259 -0.534992
1260 -0.0353975
1261 1.35986
1262 -1.9341
1263 0.539903
1264 -0.101069
1265 0.0802987
1266 0.692036
1267 -0.23636
1268 -0.0324261
1269 0.077697
1270 -0.238368
1271 1.01439
1272 1.80006
1273 1.56409
1274 1.31767
1275 -0.358012
1276 0.301703
1277 0.0046306
1278 1.1097
1279 -0.683964
1280 0.89864
1281 0.476177
1282 -0.0814447
1283 -0.48804
1284 -0.494281
1285 -1.21414
1286 -1.02578
1287 1.69797
1288 1.16931
1289 0.540367
1290 -0.934116
1291 0.417165
1292 0.234724
1293 0.347711
1294 -1.63184
1295 -0.746335
1296 0.835964
1297 -0.14351
1298 -1.6701
1299 -1.14197
1300 0.212465
1301 -0.595396
1302 0.600608
1303 1.25223
1304 -0.387517
1305 -1.06083
1306 -0.58254
1307 1.21609
1308 0.297934
1309 0.0827285
1310 -0.681932
1311 -0.335782
1312 1.01725
1313 1.62446
1314 0.920788
1315 -1.42919
1316 0.647062
1317 -0.783775
1318 -0.902454
1319 1.02058
1320 0.339764
1321 0.304199
1322 1.11788
1323 -1.20778
1324 0.173322
1325 1.01431
1326 0.504171
1327 -0.585936
1328 0.0112995
1329 -0.625898
1330 -0.437752
1331 0.00472625
1332 2.25148
1333 0.502857
1334 -3.00234
1335 -0.423649
1336 -0.802579
1337 -0.974792
1338 0.131241
1339 0.528042
1340 -1.15917
1341 -0.459171
1342 1.18462
1343 0.259004
1344 -0.21534
1345 -0.192339
1346 -1.02016
1347 1.08891
1348 -0.458617
1349 -0.723505
1350 0.472861
1351 -0.574401
1352 0.861901
1353 0.294435
1354 1.43903
1355 1.25006
1356 0.0530918
1357 0.450338
1358 1.61183
1359 -0.356868
1360 -0.656874
1361 0.05981
1362 -1.03481
1363 1.3783
1364 0.779277
1365 1.27204
1366 -0.539818
1367 -0.68977
1368 -0.323099
1369 -0.5523
1370 0.770883
1371 -0.695335
1372 -1.29457
1373 0.847467
1374 -0.155569
1375 -0.18865
1376 0.81315
1377 -0.547504
1378 -1.35437
1379 -3.47162
1380 -0.653387
1381 -0.0674895
1382 0.952749
1383 -0.848431
1384 -0.178932
1385 1.77941
1386 -2.85931
1387 -1.18421
1388 -1.82391
1389 -0.428216
1390 -1.52625
1391 -0.746769
1392 -0.596689
1393 -0.55011
1394 1.13382
1395 0.803066
1396 1.45004
1397 -2.35932
1398 -0.790537
1399 -0.98627
1400 -0.175407
1401 0.151759
1402 0.823405
1403 1.264
1404 0.48405
1405 -0.613761
1406 -0.655341
1407 -1.3791
1408 0.0933579
1409 1.38509
1410 -0.0173528
1411 -0.811023
1412 -0.502755
1413 0.479689
1414 0.225786
1415 -0.822173
1416 -0.54857
1417 -0.694341
1418 0.0894807
1419 -0.460459
1420 0.667878
1421 -0.902415
1422 1.59951
1423 -1.39642
1424 -0.716646
1425 1.11871
1426 0.936305
1427 0.530673
1428 0.44653
1429 -0.909309
1430 0.217636
1431 -1.20994
1432 -0.715121
1433 -0.269719
1434 -1.2144
1435 0.76671
1436 -2.34308
1437 -1.6486
1438 -1.24064
1439 0.972654
1440 -0.17121
1441 -0.68569
1442 1.72283
1443 -2.83534
1444 -1.0848
1445 -1.74597
1446 0.623757
1447 -0.489819
1448 0.741058
1449 -0.104372
1450 0.11838
1451 0.387332
1452 0.856783
1453 -0.614109
1454 -2.50947
1455 -2.29596
1456 -0.79578
1457 -0.16865
1458 0.777685
1459 0.0210229
1460 0.7935
1461 -0.371977
1462 0.619627
1463 -0.825372
1464 -0.425591
1465 0.242303
1466 0.491498
1467 1.5366
1468 -3.16714
1469 -0.636963
1470 -0.887083
1471 0.00682196
1472 -0.166542
1473 1.05544
1474 -0.57645
1475 -0.190404
1476 -1.87631
1477 0.05185
1478 -0.992777
1479 -0.646624
1480 0.923024
1481 0.577427
1482 0.203027
1483 0.402681
1484 0.794669
1485 0.675876
1486 -2.7495
1487 0.72372
1488 0.568995
1489 -0.742913
1490 -1.93445
1491 -0.372389
1492 -0.368816
1493 0.00631388
1494 0.479096
1495 0.219769
1496 0.0596835
1497 -1.08188
1498 -0.611241
1499 1.59187
1500 1.57538
1501 -1.45437
1502 0.0989763
1503 -0.186054
1504 -0.0154217
1505 -0.751807
1506 0.60898
1507 0.335924
1508 1.4163
1509 0.725754
1510 1.41223
1511 1.33095
1512 0.0922586
1513 -1.15119
1514 -0.22942
1515 0.756012
1516 1.15447
1517 -0.522782
1518 0.871397
1519 1.38143
1520 0.237016
1521 1.86553
1522 -0.942986
1523 -1.4397
1524 -0.15848
1525 1.56961
1526 -0.7366
1527 -1.39857
1528 0.173242
1529 0.390043
1530 -0.138815
1531 -0.86058
1532 0.129058
1533 0.105043
1534 0.0444126
1535 0.142714
1536 -1.26664
1537 0.497491
1538 -0.448341
1539 1.49782
1540 0.9092
1541 -0.209457
1542 0.406702
1543 0.0354486
1544 1.56567
1545 -0.412011
1546 0.79975
1547 0.993235
1548 1.40628
1549 1.01326
1550 1.36045
1551 -2.11084
1552 1.0609
1553 -0.000506989
1554 0.335106
1555 -1.62203
1556 -0.516063
1557 -0.324333
1558 0.469842
1559 1.69132
1560 -0.192882
1561 0.109132
1562 -0.499892
1563 0.810893
1564 -1.57705
1565 -0.849981
1566 0.39293
1567 0.0490602
1568 0.951039
1569 1.17403
1570 0.988784
1571 0.613166
1572 1.58585
1573 -0.522652
1574 0.131389
1575 0.619103
1576 1.36098
1577 -0.0477332
1578 1.75433
1579 -1.74927
1580 0.654338
1581 0.715479
1582 -1.09455
1583 0.735975
1584 -0.443842
1585 -0.527115
1586 -0.319313
1587 0.0951062
1588 0.801808
1589 0.352766
1590 -1.00048
1591 0.18954
1592 0.767268
1593 0.478402
1594 -0.294845
1595 -0.22369
1596 0.953344
1597 0.355288
