1 -0.115807
2 -0.0885848
3 0.920769
4 0.72146
5 0.444428
6 0.199845
7 -0.173028
8 -0.504279
9 0.207879
10 0.197325
11 0.309436
12 0.307961
13 0.919008
14 -0.305319
15 0.545914
16 0.48948
17 -0.894842
18 -0.189799
19 -0.0902994
20 -0.582383
21 -0.91867
22 -1.86492
23 0.0766685
24 0.238689
25 -1.2155
26 -0.87076
27 -1.93005
28 -1.37033
29 -2.2327
30 -1.00491
31 -0.0493571
32 1.00817
33 1.22327
34 -0.850834
35 0.102541
36 -0.333381
37 -2.22701
38 0.185979
39 -0.401197
40 -0.824943
41 -1.24315
42 -0.86647
43 0.00214662
44 1.41133
45 -1.12264
46 -0.643004
47 -0.279298
48 0.42451
49 -0.288616
50 0.407168
51 0.806936
52 0.498159
53 -0.958948
54 0.780757
55 1.27241
56 -0.648183
57 1.07309
58 0.533865
59 -0.258229
60 -0.481472
61 -1.17902
62 0.170458
63 -1.94342
64 -1.18537
65 -0.907512
66 1.06869
67 1.39896
68 1.22886
69 -0.304583
70 1.18126
71 0.252883
72 -0.400909
73 0.321841
74 -0.244527
75 -0.641477
76 0.345152
77 0.0767132
78 -0.839801
79 -0.836952
80 0.45326
81 -0.957665
82 0.469773
83 0.871219
84 -0.423813
85 -1.05693
86 0.368265
87 0.447767
88 -1.01108
89 1.52389
90 1.19535
91 0.857081
92 -1.3821
93 1.46256
94 -0.517516
95 -0.141343
96 1.74648
97 1.18637
98 -0.340354
99 0.877028
100 0.116575
101 0.500523
102 0.405683
103 1.35927
104 1.31408
105 -0.790997
106 0.430369
107 1.13158
108 -1.26163
109 1.01982
110 0.818458
111 -0.625952
112 -1.55855
113 -1.44029
114 0.0125683
115 1.24609
116 -1.26823
117 0.488853
118 1.12391
119 0.813634
120 -2.59596
121 0.436039
122 1.12843
123 -0.385691
124 1.2232
125 1.03358
126 -1.50601
127 -0.064387
128 -1.65836
129 -2.38584
130 0.209521
131 0.651245
132 1.09242
133 0.252437
134 0.495914
135 1.86397
136 -1.9177
137 -1.34654
138 1.47329
139 -0.154973
140 0.199578
141 0.931085
142 1.62219
143 0.853271
144 0.659762
145 -0.828322
146 0.0310431
147 -1.41645
148 -0.323587
149 1.70842
150 -1.15944
151 -1.43591
152 0.0860661
153 0.777601
154 1.36026
155 -0.702252
156 -0.621728
157 -0.323771
158 -0.921539
159 -0.18824
160 -1.12863
161 1.03771
162 -0.299064
163 0.189421
164 -0.9343
165 -0.861594
166 -0.737895
167 1.10026
168 0.137251
169 -3.60836
170 -0.274656
171 0.00189141
172 -1.58983
173 -0.906309
174 -0.676516
175 0.37934
176 0.955648
177 -1.55573
178 -0.259015
179 0.330238
180 -1.24659
181 -1.53287
182 0.629277
183 -1.00911
184 0.8392
185 -0.0179225
186 0.472806
187 -0.66401
188 -0.449357
189 -0.845032
190 0.963532
191 0.119783
192 1.2469
193 0.559971
194 -0.529683
195 -0.85576
196 0.532265
197 -0.419187
198 0.458819
199 -1.0866
200 -0.313781
201 1.11727
202 0.767302
203 -1.08354
204 1.37448
205 0.62289
206 -2.40185
207 -0.149236
208 -0.787159
209 0.742502
210 -0.12099
211 -0.235032
212 0.906235
213 -0.503038
214 0.218764
215 -1.46259
216 -1.29069
217 -0.197575
218 0.0466689
219 -0.478713
220 -2.78024
221 -0.875976
222 -1.39594
223 -1.4876
224 -0.0889228
225 0.284806
226 2.5435
227 1.16207
228 0.213875
229 1.27552
230 0.00351518
231 0.445839
232 0.181912
233 -1.23323
234 -0.806313
235 0.860949
236 -2.69579
237 -3.71737
238 -0.540822
239 0.23385
240 1.04501
241 -0.833602
242 2.33216
243 1.15559
244 -0.774191
245 -0.83936
246 -0.851179
247 0.107786
248 0.532155
249 0.97749
250 0.783055
251 0.92801
252 1.14391
253 -2.32603
254 0.612292
255 1.36742
256 0.953282
257 -2.74501
258 0.637435
259 -0.437233
260 -0.248323
261 0.0513893
262 -0.00511613
263 0.293086
264 0.28716
265 0.202391
266 -0.116572
267 -0.489342
268 -0.521845
269 1.85784
270 -1.361
271 0.456394
272 1.56483
273 -1.56736
274 -0.517998
275 0.395562
276 -0.844796
277 0.620451
278 -1.95962
279 1.8349
280 1.31565
281 -2.4663
282 0.740489
283 1.53022
284 0.333155
285 0.697962
286 1.10163
287 0.806572
288 1.12688
289 -0.619388
290 0.04933
291 0.65017
292 0.454911
293 -3.50222
294 0.587864
295 0.401846
296 1.24946
297 -0.589254
298 -0.0249606
299 1.04603
300 1.406
301 0.773599
302 0.766255
303 0.42542
304 0.602529
305 -0.729396
306 -0.878163
307 -1.03342
308 -0.817544
309 -0.324169
310 0.485934
311 -0.576471
312 0.290194
313 -0.899708
314 -0.349204
315 -1.18215
316 -1.0051
317 -0.525117
318 0.373463
319 -1.64137
320 0.582095
321 -1.75751
322 0.931005
323 -0.798216
324 -0.50225
325 0.19908
326 -1.25732
327 0.5463
328 -0.389167
329 -0.919437
330 0.296486
331 1.34251
332 -1.30791
333 -1.32712
334 -0.420834
335 -0.66038
336 0.115635
337 0.738903
338 -0.27448
339 -0.281667
340 -0.58333
341 0.394147
342 -0.274583
343 0.350667
344 1.00809
345 1.3965
346 -2.63407
347 0.100711
348 1.28517
349 -1.04762
350 -1.14127
351 -0.0116844
352 -0.437641
353 0.17379
354 -0.938895
355 -1.50902
356 0.140804
357 -1.06913
358 -2.38107
359 -0.894583
360 0.86777
361 -3.29388
362 -1.54706
363 -1.29055
364 -0.33316
365 0.939297
366 -0.460757
367 -0.147989
368 0.990683
369 1.07376
370 0.587222
371 0.419409
372 0.327904
373 -0.810284
374 -0.620376
375 -1.16118
376 -0.102467
377 0.0709594
378 0.616946
379 0.949399
380 -1.10294
381 0.971161
382 1.25555
383 1.23608
384 -0.912728
385 0.0699616
386 0.561021
387 0.641722
388 1.43546
389 0.488891
390 1.22674
391 0.0332917
392 0.638092
393 1.26608
394 1.00342
395 0.684506
396 0.490446
397 -0.0794604
398 -0.778466
399 -0.368194
400 -0.308247
401 0.726612
402 0.289209
403 1.30573
404 -0.571538
405 -0.589254
406 1.12131
407 -1.08373
408 -1.39006
409 2.43648
410 0.879852
411 1.28891
412 0.482725
413 -3.22149
414 0.240074
415 -0.589709
416 1.09772
417 -1.03482
418 -0.787051
419 0.255164
420 -0.569572
421 -1.28524
422 1.22293
423 0.119554
424 0.730709
425 -0.0543681
426 1.79899
427 -0.753062
428 1.14117
429 1.53136
430 0.824832
431 0.31173
432 -0.884589
433 0.351892
434 -0.403458
435 -1.40062
436 -0.264958
437 -0.876455
438 -0.63468
439 1.01229
440 0.113761
441 0.39193
442 -1.86808
443 0.0210075
444 -0.122635
445 -0.354189
446 0.403956
447 -1.11985
448 0.626997
449 0.426873
450 0.00711888
451 -0.315043
452 0.341631
453 0.806217
454 0.357178
455 -3.09411
456 0.128616
457 -2.42875
458 0.778484
459 -0.212216
460 -0.645255
461 -1.85286
462 -0.20024
463 0.536281
464 -1.46966
465 -0.0112338
466 -0.283424
467 1.15514
468 0.621166
469 1.30613
470 -0.492455
471 1.73842
472 1.36282
473 1.14733
474 1.20942
475 -0.20464
476 0.976507
477 0.79352
478 -0.871888
479 0.246147
480 0.41789
481 0.6495
482 -0.779007
483 1.27995
484 0.774823
485 1.34452
486 -0.0698415
487 -0.78701
488 0.492995
489 -0.433
490 -0.767103
491 -0.0788787
492 1.10856
493 0.244272
494 0.504264
495 -1.92875
496 -0.419467
497 -0.661513
498 -0.0710235
499 0.71657
500 1.01767
501 0.540302
502 0.0364787
503 -1.45403
504 -0.421155
505 0.0800859
506 -0.941107
507 1.80411
508 -2.37606
509 0.568632
510 -1.01374
511 -0.422582
512 -0.22729
513 -0.640911
514 -1.34377
515 0.18781
516 0.143004
517 0.657701
518 0.205167
519 0.779902
520 0.560158
521 -1.98322
522 0.866492
523 0.694751
524 -0.549244
525 0.570422
526 0.764705
527 0.661259
528 0.605552
529 -1.18587
530 0.947707
531 1.10969
532 0.511493
533 0.802941
534 -1.04192
535 -0.76948
536 -0.364874
537 0.144907
538 1.6865
539 0.424069
540 0.540783
541 1.0736
542 -1.68172
543 -0.191859
544 -1.28428
545 0.0922597
546 0.918244
547 -0.822777
548 -0.96608
549 0.525792
550 -1.61693
551 1.43424
552 -2.14803
553 0.131787
554 0.419215
555 0.159782
556 0.345871
557 0.653726
558 0.524613
559 0.352368
560 0.406154
561 0.38426
562 1.29154
563 1.1405
564 -1.20343
565 1.20532
566 0.68817
567 0.358007
568 -0.345495
569 1.01244
570 -1.22275
571 1.01829
572 0.913428
573 0.681178
574 -0.406911
575 0.914095
576 0.429497
577 0.665332
578 -0.333374
579 1.06561
580 0.36673
581 -0.684121
582 0.673265
583 -1.01054
584 0.375358
585 0.072136
586 0.788364
587 1.09895
588 1.29523
589 0.481706
590 0.377089
591 -0.383258
592 -0.668775
593 0.446029
594 -0.102336
595 0.715521
596 0.813427
597 -0.645918
598 0.868935
599 -0.356093
600 -0.529843
601 0.628962
602 0.695437
603 -1.2162
604 -0.0718658
605 0.924905
606 0.823371
607 -0.457435
608 -0.0971925
609 -1.47439
610 1.22623
611 0.41065
612 -0.71297
613 1.32648
614 0.60038
615 1.31676
616 0.61857
617 0.164736
618 0.147869
619 -2.09185
620 -0.264488
621 -0.698924
622 -0.189106
623 0.492132
624 -1.01572
625 0.675252
626 0.519718
627 -1.18092
628 -0.389311
629 -2.42372
630 0.466407
631 1.08076
632 -1.82919
633 -0.765563
634 1.09888
635 0.683499
636 1.84599
637 -3.77817
638 -1.52201
639 0.692156
640 0.0225793
641 1.03275
642 0.558616
643 -0.500093
644 -0.382931
645 0.49815
646 0.365057
647 -0.159951
648 -0.644803
649 0.103543
650 1.69495
651 -0.353886
652 0.417242
653 0.274842
654 0.430663
655 -0.719047
656 0.956188
657 -0.813107
658 -0.313058
659 1.58212
660 0.464783
661 1.58194
662 -1.6157
663 0.903631
664 0.3237
665 0.635906
666 -0.121096
667 -3.76303
668 -1.23341
669 0.14515
670 0.545997
671 -1.2352
672 -0.284035
673 -0.93249
674 -1.02652
675 0.152886
676 0.244604
677 -3.76967
678 0.345341
679 -0.119298
680 -0.146007
681 1.23392
682 0.159984
683 0.0567323
684 -0.199541
685 1.43362
686 0.151197
687 0.459367
688 0.0796701
689 0.0176213
690 0.588426
691 -1.03982
692 -1.17723
693 0.738679
694 -1.11259
695 -1.162
696 -0.525903
697 -0.167663
698 0.556234
699 -1.24498
700 1.38147
701 1.33857
702 -0.0655722
703 0.94714
704 0.364874
705 1.05662
706 1.2633
707 0.139969
708 -1.14857
709 0.00263819
710 1.05781
711 0.275837
712 -0.394229
713 -1.64565
714 1.26641
715 -0.499208
716 -0.949289
717 0.391771
718 1.88501
719 0.389288
720 -1.9976
721 0.031903
722 1.95479
723 0.116904
724 0.998092
725 0.235542
726 -0.816534
727 -0.689607
728 -0.720158
729 0.414362
730 -0.639085
731 -0.822229
732 1.2666
733 0.0654359
734 0.216961
735 0.800768
736 0.965494
737 1.02138
738 0.680066
739 0.668679
740 -0.851886
741 1.78011
742 -0.254198
743 0.0925412
744 0.83711
745 0.908214
746 1.08587
747 -0.449043
748 -0.437091
749 0.753898
750 -1.13577
751 -0.0721757
752 -0.226783
753 -0.0447971
754 -1.54766
755 1.48404
756 0.1381
757 1.25439
758 -0.767824
759 0.393266
760 1.31111
761 0.615522
762 0.318496
763 0.0516892
764 -0.525151
765 0.186653
766 0.417616
767 1.61392
768 1.03533
769 0.852223
770 0.0532548
771 0.317049
772 -0.972958
773 -0.165015
774 0.577004
775 0.219186
776 0.253191
777 0.365689
778 -0.0462578
779 0.438046
780 0.60949
781 2.00527
782 -0.307976
783 0.241882
784 0.822363
785 1.16317
786 -0.324298
787 -0.589263
788 -0.249736
789 0.788363
790 0.0146824
791 0.331194
792 0.975741
793 -0.309454
794 0.0542227
795 -2.16841
796 -1.23346
797 0.729445
798 0.679176
799 0.221073
800 -0.257545
801 0.414644
802 -1.21252
803 0.125241
804 0.680794
805 -1.68111
806 0.475179
807 -0.0811531
808 -0.797667
809 0.583327
810 0.286866
811 0.585162
812 1.46962
813 1.27138
814 0.98633
815 -1.18209
816 0.258411
817 0.673116
818 0.252054
819 -0.714736
820 -0.857484
821 -0.816148
822 -0.0333266
823 -0.491524
824 -1.37338
825 -0.0503833
826 -0.665754
827 -2.44526
828 -1.11664
829 -0.361225
830 0.236612
831 1.13426
832 -0.518118
833 0.599636
834 -0.678787
835 -0.18824
836 -3.50661
837 -0.0613141
838 -0.182708
839 -1.10537
840 0.854813
841 1.35954
842 0.149148
843 -0.733104
844 -0.38347
845 0.635342
846 -0.705302
847 -4.22664
848 1.12059
849 -0.507918
850 -0.136969
851 0.0572176
852 1.09859
853 1.13211
854 0.80527
855 -1.19231
856 -0.152455
857 1.10731
858 -0.928184
859 -0.704514
860 0.296676
861 0.189843
862 -0.499992
863 -1.19384
864 2.09741
865 0.201023
866 -0.224722
867 -0.258363
868 1.20169
869 -2.31553
870 -2.37155
871 0.795103
872 0.516445
873 -0.679032
874 -0.550691
875 1.37553
876 -0.10299
877 0.575572
878 -1.36495
879 1.39561
880 0.636452
881 -2.10985
882 -0.736923
883 -1.00884
884 0.151976
885 -0.0508056
886 -0.206953
887 0.419799
888 -0.0699311
889 -0.0928427
890 -0.676046
891 1.38809
892 1.53922
893 0.997391
894 0.0420259
895 -0.431422
896 1.36214
897 0.790609
898 0.581628
899 0.911135
900 0.7554
901 0.444101
902 0.727853
903 1.13306
904 -1.17496
905 0.0616597
906 0.988872
907 0.719383
908 0.67538
909 -0.219207
910 -0.881077
911 1.17238
912 1.44341
913 0.0172944
914 0.118445
915 1.47568
916 -1.47235
917 1.29522
918 -0.627699
919 0.21835
920 0.946255
921 0.758519
922 0.988912
923 -0.229344
924 0.198745
925 1.50294
926 0.507883
927 -1.11449
928 -1.50566
929 0.816863
930 1.23525
931 -0.511558
932 -0.799087
933 -0.544345
934 0.140974
935 0.453014
936 -0.0462803
937 1.51331
938 0.4896
939 -1.5153
940 0.874933
941 0.760571
942 0.901521
943 0.201404
944 -0.537306
945 0.434554
946 0.768482
947 1.80503
948 1.04133
949 2.20979
950 0.405837
951 0.502159
952 0.983994
953 -0.631904
954 0.849643
955 1.48274
956 -1.0022
957 0.368678
958 0.464096
959 0.545387
960 1.20298
961 -0.259439
962 -0.469592
963 0.721973
964 1.31361
965 1.01661
966 0.942975
967 0.911433
968 -1.63164
969 -1.43377
970 -0.100981
971 -2.44772
972 1.43454
973 0.723801
974 -1.55079
975 -0.19051
976 -1.38083
977 -3.18
978 -0.404913
979 0.593514
980 -1.25863
981 0.886634
982 0.323484
983 0.412626
984 -1.54348
985 0.089005
986 0.112902
987 0.635727
988 -0.537847
989 -0.394018
990 -0.440421
991 0.905643
992 -2.6826
993 1.8247
994 -1.75039
995 0.0136426
996 0.114954
997 0.369839
998 -1.80506
999 -0.202251
1000 -0.853989
1001 -0.472291
1002 -1.10066
1003 -0.619887
1004 -0.272534
1005 1.02695
1006 0.608107
1007 0.433789
1008 -0.74966
1009 -1.04356
1010 -0.621806
1011 -0.325641
1012 -1.60799
1013 0.510691
1014 -1.22231
1015 -1.32798
1016 -0.157304
1017 0.781331
1018 0.643156
1019 0.26846
1020 -0.681101
1021 0.676339
1022 -0.0435462
1023 -0.342724
1024 0.137798
1025 0.899958
1026 0.503177
1027 -0.0437734
1028 1.65724
1029 -1.66028
1030 -0.536055
1031 0.236445
1032 0.389205
1033 0.72197
1034 0.375005
1035 1.08642
1036 0.806178
1037 0.104044
1038 0.16312
1039 -1.79628
1040 -0.139989
1041 -0.562454
1042 0.911732
1043 1.48603
1044 -1.89288
1045 -0.503594
1046 -0.452655
1047 -0.235783
1048 0.310207
1049 -0.187125
1050 1.09457
1051 0.687116
1052 0.644952
1053 0.939519
1054 0.372334
1055 -0.790567
1056 0.914715
1057 0.121586
1058 0.219815
1059 -0.393187
1060 0.985599
1061 -0.122805
1062 -0.323393
1063 -0.526063
1064 -2.88608
1065 1.12613
1066 -0.29272
1067 1.58339
1068 0.571468
1069 -0.0113404
1070 -0.521905
1071 0.219585
1072 0.856712
1073 1.45856
1074 -2.36034
1075 -1.59578
1076 0.502604
1077 -0.243424
1078 0.940141
1079 -0.0181381
1080 -3.27852
1081 0.533273
1082 -0.0595233
1083 1.17411
1084 1.16413
1085 1.40007
1086 0.470423
1087 -0.310409
1088 1.61842
1089 -0.611031
1090 -2.05556
1091 -1.1234
1092 0.0747162
1093 -0.784389
1094 -0.44082
1095 0.0935488
1096 -0.640041
1097 -0.995563
1098 -0.680057
1099 -1.59784
1100 -0.305727
1101 -0.946329
1102 -0.0689803
1103 -1.24749
1104 1.79245
1105 -1.75713
1106 -0.202672
1107 -0.497137
1108 -0.0306076
1109 0.959475
1110 1.42899
1111 -0.7715
1112 1.11268
1113 -0.464932
1114 0.360811
1115 -0.0553113
1116 1.33737
1117 -0.142275
1118 0.17557
1119 -0.19831
1120 0.687586
1121 -1.2363
1122 0.421997
1123 -0.521348
1124 0.415369
1125 0.739637
1126 -0.396486
1127 0.998968
1128 0.627415
1129 -1.31337
1130 0.0955855
1131 0.724839
1132 -1.11816
1133 0.0249203
1134 1.18382
1135 -1.32352
1136 2.0308
1137 1.15563
1138 1.63059
1139 0.966806
1140 -0.570257
1141 -0.833089
1142 0.0310606
1143 1.49032
1144 0.772042
1145 -0.77322
1146 0.0655104
1147 0.500362
1148 0.252058
1149 0.762357
1150 0.141124
1151 1.05827
1152 -0.68777
1153 -0.338928
1154 -0.164692
1155 1.26065
1156 -0.336386
1157 -0.588689
1158 0.300334
1159 0.946638
1160 0.145704
1161 0.934006
1162 -0.996005
1163 -0.294768
1164 0.625199
1165 -1.89164
1166 0.36024
1167 -0.283227
1168 0.987092
1169 0.148339
1170 0.200968
1171 1.61668
1172 0.20945
1173 0.380155
1174 -0.332559
1175 0.976875
1176 0.601298
1177 0.405413
1178 1.31433
1179 1.52419
1180 0.567083
1181 0.679405
1182 1.37854
1183 0.771456
1184 0.0748793
1185 0.75006
1186 -0.18814
1187 -0.221735
1188 1.02632
1189 -0.418918
1190 0.693784
1191 0.10627
1192 -1.21906
1193 0.858158
1194 1.39039
1195 0.20766
1196 -1.94662
1197 -2.31262
1198 -1.06154
1199 0.0152617
1200 -1.4314
1201 0.206077
1202 0.175252
1203 -1.3237
1204 0.0236142
1205 1.19484
1206 -1.31344
1207 0.789467
1208 -0.252161
1209 0.152908
1210 0.236693
1211 0.250608
1212 1.17327
1213 -1.13341
1214 -1.51765
1215 -0.0568109
1216 -1.17239
1217 -1.29754
1218 -0.185226
1219 -4.258
1220 1.12648
1221 -0.0388445
1222 0.776909
1223 0.739717
1224 -0.158143
1225 -1.63
1226 1.71409
1227 -0.536442
1228 -1.31534
1229 -1.87338
1230 0.177528
1231 -0.214295
1232 0.97985
1233 -0.911686
1234 0.528097
1235 0.961464
1236 -0.50851
1237 -0.890419
1238 0.125023
1239 -0.119824
1240 -0.222092
1241 0.124961
1242 -0.112897
1243 -1.81894
1244 -2.29545
1245 -0.964597
1246 0.194096
1247 0.285708
1248 -0.523068
1249 0.769044
1250 0.137055
1251 -1.92417
1252 0.780972
1253 -0.173337
1254 1.12343
1255 -0.745407
1256 0.667787
1257 0.0972586
1258 -1.48642
1259 -0.252249
1260 1.56996
1261 -0.988654
1262 0.546429
1263 1.4688
1264 1.06227
1265 -0.527034
1266 -0.961637
1267 0.914394
1268 -0.186949
1269 -0.329558
1270 0.352735
1271 1.10197
1272 -0.143233
1273 0.519598
1274 0.144802
1275 -1.38522
1276 -0.791699
1277 1.11732
1278 -0.615102
1279 0.781975
1280 0.60809
1281 -0.148594
1282 -1.19175
1283 0.882299
1284 0.0225158
1285 0.446314
1286 0.957604
1287 1.95354
1288 0.143925
1289 0.57262
1290 -1.31113
1291 -0.277064
1292 -1.5976
1293 -0.470852
1294 -0.485363
1295 0.278321
1296 -1.61953
1297 -1.19694
1298 0.838522
1299 0.880718
1300 -1.89893
1301 1.26413
1302 -0.392638
1303 -0.489406
1304 -0.632843
1305 -0.0295194
1306 1.1394
1307 -1.16441
1308 0.360533
1309 0.89399
1310 0.136192
1311 -0.371284
1312 -0.603562
1313 -1.15003
1314 -0.177358
1315 -0.602239
1316 0.650436
1317 0.775257
1318 -1.00022
1319 0.0184377
1320 -1.32252
1321 0.543643
1322 0.144594
1323 1.52509
1324 -0.891473
1325 0.282346
1326 0.958758
1327 -0.737593
1328 0.0636914
1329 -0.628325
1330 -0.358965
1331 -0.253096
1332 -0.381794
1333 -1.21321
1334 -0.311902
1335 0.629435
1336 0.665084
1337 -0.595652
1338 1.28731
1339 -2.88005
1340 1.16553
1341 -1.51857
1342 -2.15999
1343 -0.699467
1344 -0.0612561
1345 0.164393
1346 0.696484
1347 -1.65396
1348 -0.393466
1349 0.746915
1350 -0.406502
1351 -2.15173
1352 -0.881619
1353 1.41392
1354 1.8827
1355 1.37066
1356 1.71272
1357 -0.449812
1358 0.125357
1359 0.0244787
1360 -0.273631
1361 -0.729715
1362 0.548956
1363 -2.75263
1364 -0.425465
1365 0.515054
1366 -1.17611
1367 -1.73396
1368 0.166692
1369 -0.195494
1370 -0.0851099
1371 -0.796491
1372 0.600838
1373 -0.0126237
1374 -2.62676
1375 0.267338
1376 0.175466
1377 -0.67506
1378 -0.422997
1379 0.30042
1380 0.95746
1381 -2.05051
1382 -0.0626794
1383 -0.153741
1384 -1.16847
1385 -2.2585
1386 -1.6046
1387 0.368038
1388 0.435476
1389 -1.39492
1390 -0.520246
1391 0.884428
1392 1.41201
1393 -1.26696
1394 -1.63408
1395 0.0501098
1396 -0.0241857
1397 1.13871
1398 -0.777855
1399 -1.38073
1400 -0.146747
1401 0.423597
1402 -0.307357
1403 -0.261899
1404 -0.294677
1405 0.507926
1406 1.4768
1407 -0.963923
1408 1.26512
1409 0.0401215
1410 -0.000511778
1411 1.07532
1412 0.827045
1413 1.51575
1414 -0.276233
1415 -2.94089
1416 -0.901259
1417 -1.27216
1418 -2.0047
1419 0.465591
1420 0.62434
1421 -0.906707
1422 0.154815
1423 0.733563
1424 0.448467
1425 -1.77885
1426 -0.919863
1427 0.0979112
1428 -0.892829
1429 0.626603
1430 -0.381427
1431 -0.154847
1432 -2.44189
1433 -0.421511
1434 -1.1833
1435 -0.709165
1436 -0.0914071
1437 1.38173
1438 1.34348
1439 0.50629
1440 0.163068
1441 0.745098
1442 -0.190818
1443 -1.16017
1444 -0.887482
1445 1.17475
1446 0.948041
1447 0.320251
1448 -1.33261
1449 -0.05272
1450 -1.1832
1451 -0.966689
1452 -0.385559
1453 -0.125859
1454 -0.0305895
1455 -0.791607
1456 -1.4264
1457 -0.70933
1458 0.627057
1459 -1.80077
1460 0.0712299
1461 -0.400182
1462 -0.988049
1463 1.37051
1464 -1.45061
1465 -0.716574
1466 -0.848975
1467 0.37951
1468 -0.587357
1469 -1.33213
1470 -1.28327
1471 -0.69646
1472 -0.784972
1473 -2.32982
1474 -1.26899
1475 0.69928
1476 0.591921
1477 -0.00741296
1478 -1.24706
1479 -1.38439
1480 -1.50396
1481 -0.716723
1482 -1.76914
1483 1.37455
1484 -2.93901
1485 -0.344599
1486 -0.273206
1487 -0.0582467
1488 0.386858
1489 -0.0402685
1490 -3.79928
1491 0.197183
1492 0.30684
1493 -0.538915
1494 0.862439
1495 0.28726
1496 1.54813
1497 0.996541
1498 1.19701
1499 -0.750535
1500 1.92883
1501 1.60793
1502 0.0015103
1503 0.91312
1504 1.38536
1505 1.05512
1506 1.0626
1507 1.20602
1508 0.6217
1509 1.10717
1510 -0.341086
1511 -3.75175
1512 1.56755
1513 0.33654
1514 0.951485
1515 0.969817
1516 0.980441
1517 1.28208
1518 -0.209309
1519 0.547867
1520 1.2297
1521 1.38466
1522 0.0995006
1523 0.759172
1524 -0.113373
1525 -0.367374
1526 0.170077
1527 0.0404904
1528 1.11827
1529 1.07878
1530 -0.448662
1531 -0.730592
1532 1.87639
1533 0.771515
1534 1.81311
1535 0.159353
1536 1.01695
1537 0.520924
1538 0.776442
1539 1.17955
1540 -0.859842
1541 -0.126091
1542 -0.466951
1543 1.46078
1544 0.0188866
1545 0.750951
1546 1.618
1547 0.683377
1548 0.743923
1549 0.74873
1550 -0.0400299
1551 0.432708
1552 1.23665
1553 1.15134
1554 -0.539906
1555 0.505357
1556 1.83262
1557 1.42356
1558 0.966977
1559 -0.535103
1560 1.80408
1561 0.153327
1562 0.340707
1563 0.915461
1564 0.451223
1565 -1.67947
1566 0.710363
1567 0.0962017
1568 -1.52777
1569 0.107193
1570 -0.0351022
1571 0.605592
1572 0.724214
1573 -0.70889
1574 1.16811
1575 1.15127
1576 -0.352466
1577 0.439882
1578 0.4395
1579 -0.93462
1580 0.439966
1581 0.952755
1582 -0.969655
1583 0.478118
1584 0.917051
1585 1.4027
1586 -0.31669
1587 -0.0133455
1588 0.615118
1589 0.195081
1590 0.719341
1591 0.497937
1592 0.0440472
1593 0.431133
1594 1.10895
1595 0.178338
1596 0.124868
1597 -0.0111473
