1 1.02932
2 -0.0689877
3 0.354398
4 -1.54978
5 -0.364803
6 0.638691
7 -0.300375
8 1.31778
9 0.242143
10 -0.136504
11 0.0319452
12 1.01838
13 0.112382
14 -0.955544
15 -0.791619
16 0.20365
17 0.298422
18 -0.235681
19 -0.236419
20 -0.633351
21 -0.444084
22 -1.23812
23 0.733363
24 0.416775
25 -0.138748
26 0.0358318
27 -2.52375
28 1.06402
29 0.344682
30 -0.597749
31 0.894311
32 -0.143804
33 1.32046
34 0.640303
35 0.464962
36 0.158011
37 -1.00174
38 0.233746
39 -0.00612544
40 0.26786
41 -0.34365
42 0.654168
43 -0.204179
44 1.43083
45 0.979198
46 1.2276
47 -0.562092
48 0.834301
49 0.559403
50 -0.0321097
51 0.481715
52 1.02602
53 -1.71133
54 -2.02805
55 0.645759
56 0.236378
57 0.662548
58 -1.12073
59 0.941672
60 -0.0874124
61 0.779701
62 0.0853509
63 -0.63237
64 0.766658
65 1.13815
66 1.14385
67 -1.50376
68 0.506173
69 1.48862
70 1.20993
71 1.83287
72 1.10833
73 0.0715967
74 0.875775
75 0.753686
76 0.221712
77 -0.509037
78 -0.251469
79 0.000156557
80 1.00935
81 -1.4904
82 -1.22579
83 1.27123
84 -0.98165
85 -0.274891
86 0.237718
87 -0.782408
88 1.59306
89 -0.362339
90 -0.0817081
91 -3.02112
92 -1.97258
93 -2.7042
94 0.646165
95 -0.726955
96 0.487988
97 0.429738
98 -0.270198
99 -0.164415
100 0.788976
101 -1.06906
102 -1.48177
103 0.79827
104 0.296844
105 0.477367
106 0.473429
107 1.32095
108 -0.613527
109 -0.108977
110 0.439401
111 0.507164
112 -0.551162
113 0.321731
114 -0.0758168
115 1.16655
116 0.875659
117 0.545402
118 0.0481753
119 1.62243
120 0.221198
121 0.699622
122 -0.81865
123 0.435452
124 -0.505395
125 -1.77211
126 -0.139853
127 0.35339
128 0.552948
129 -2.12606
130 0.864685
131 0.0603803
132 0.513545
133 0.0437199
134 -1.99251
135 -0.694292
136 1.26813
137 0.410524
138 0.666094
139 0.115577
140 0.446867
141 0.192905
142 1.14356
143 -0.843796
144 -0.535959
145 1.48496
146 0.981386
147 0.168456
148 -4.70667
149 0.0965306
150 -0.459012
151 0.336513
152 1.13348
153 0.433327
154 0.544216
155 1.11126
156 0.810738
157 0.884327
158 1.12783
159 -0.777904
160 -1.13504
161 1.39319
162 0.497406
163 -0.0478583
164 1.19564
165 1.31873
166 -0.105691
167 0.29362
168 0.5031
169 -0.560776
170 -1.95949
171 0.640024
172 -0.0722926
173 2.03513
174 0.968215
175 0.163313
176 1.11778
177 -1.39213
178 -0.535772
179 1.48577
180 -0.192601
181 -2.21908
182 -1.42662
183 0.611486
184 0.897427
185 -2.02448
186 1.5237
187 1.80366
188 0.429143
189 -1.37951
190 -1.40161
191 -0.602083
192 0.25055
193 0.307529
194 -0.385528
195 0.0682768
196 0.255333
197 0.35546
198 0.447067
199 -1.38916
200 1.51082
201 0.387613
202 0.163914
203 0.632711
204 0.693441
205 0.57815
206 1.60663
207 0.141935
208 -1.09584
209 0.000859217
210 0.470385
211 0.65416
212 1.52116
213 -1.21803
214 -0.321878
215 -0.622078
216 0.564841
217 0.777985
218 1.23767
219 -0.0636451
220 1.06513
221 0.788804
222 0.192928
223 0.246043
224 -0.453198
225 -0.246374
226 -0.905747
227 -1.63811
228 0.560712
229 -0.203906
230 -0.315861
231 -0.117018
232 0.80169
233 0.403772
234 -0.597378
235 -1.14317
236 -0.904478
237 0.273284
238 0.715174
239 0.796284
240 0.552793
241 0.474068
242 -0.806157
243 0.409101
244 0.646017
245 -1.42761
246 -0.652626
247 1.07853
248 0.198024
249 0.154094
250 -0.13137
251 1.13872
252 1.66492
253 0.758538
254 -0.771926
255 -0.170765
256 -2.58569
257 -1.5516
258 -1.03859
259 -0.622436
260 0.775293
261 0.786959
262 1.94704
263 -0.357602
264 -0.949924
265 -0.217341
266 -0.658718
267 0.797757
268 0.476778
269 0.2874
270 -0.102241
271 0.0851495
272 1.30406
273 1.48234
274 -0.747483
275 1.53663
276 0.884145
277 0.909366
278 -0.217367
279 1.56674
280 0.862903
281 0.864171
282 -0.545355
283 0.223536
284 0.496124
285 0.971714
286 -1.08068
287 -1.78237
288 -0.127446
289 -0.720085
290 0.332301
291 -0.261578
292 0.45626
293 1.32442
294 -1.23636
295 0.324578
296 -0.157025
297 1.10758
298 1.65239
299 0.661206
300 0.290901
301 -1.00864
302 0.179479
303 0.804401
304 0.0389552
305 -2.419
306 0.461816
307 -0.235234
308 0.506461
309 -0.132999
310 -0.211473
311 -0.0898911
312 -1.577
313 -0.36637
314 1.12618
315 0.2293
316 1.50314
317 -0.958867
318 0.638696
319 1.34216
320 -0.0947052
321 -0.656412
322 0.452791
323 -1.51571
324 -0.445058
325 -1.01116
326 1.05933
327 1.02585
328 1.53309
329 0.921604
330 -1.21779
331 -1.05266
332 1.05363
333 -0.882881
334 -0.211681
335 1.37691
336 -0.418954
337 -0.0154369
338 0.322844
339 0.524869
340 -2.03933
341 0.39607
342 0.8617
343 -0.54138
344 1.12843
345 1.49967
346 0.618473
347 0.594769
348 -1.46833
349 -1.6031
350 -0.679727
351 0.68706
352 -0.354834
353 0.944797
354 0.372531
355 0.333716
356 1.0579
357 0.654712
358 -0.293831
359 0.984247
360 -1.42467
361 -0.249959
362 -0.167537
363 -0.981563
364 0.607411
365 -0.334783
366 0.183326
367 -0.562341
368 0.290127
369 -1.21165
370 0.0290172
371 0.46121
372 -1.4357
373 -1.52738
374 0.554316
375 0.675797
376 2.04376
377 1.50337
378 1.08028
379 0.525335
380 1.67041
381 1.11698
382 0.495677
383 0.215114
384 1.15049
385 -0.104918
386 1.45953
387 0.862425
388 1.54867
389 0.187536
390 -1.58037
391 0.586808
392 0.773895
393 -0.0504601
394 1.19486
395 0.64018
396 -0.797867
397 -0.207463
398 -1.50023
399 1.7846
400 1.00468
401 -0.424775
402 0.575473
403 0.521411
404 -0.0853349
405 0.17722
406 0.400114
407 -1.70977
408 -0.536702
409 0.946653
410 -0.739392
411 0.872413
412 -1.42731
413 -0.338877
414 0.517473
415 0.331486
416 0.310686
417 0.742938
418 0.410468
419 -0.719179
420 1.12585
421 0.0279408
422 0.751956
423 0.591793
424 -0.279041
425 -1.2817
426 -1.73131
427 0.191362
428 0.92217
429 -0.904154
430 -1.05054
431 0.116257
432 0.610745
433 -1.32295
434 -0.9805
435 0.28272
436 0.507505
437 1.10323
438 0.329273
439 1.19561
440 1.10208
441 0.645669
442 0.1145
443 2.18927
444 -1.62685
445 -0.623955
446 -0.566141
447 -0.217341
448 0.897764
449 0.40728
450 0.363062
451 1.18425
452 0.241545
453 -1.76308
454 0.695849
455 -0.378822
456 1.29874
457 1.08672
458 0.107967
459 -2.01686
460 -2.62214
461 0.943366
462 -1.02155
463 -4.0772
464 0.248992
465 0.13477
466 -0.0924204
467 -0.103468
468 -0.0828342
469 -1.13183
470 -0.168917
471 -1.34858
472 0.324379
473 0.629347
474 1.13051
475 0.763913
476 -3.15401
477 0.898519
478 -0.290604
479 -1.19519
480 0.425138
481 0.391738
482 0.652015
483 -0.630539
484 0.466287
485 -2.05207
486 -0.843126
487 0.0561177
488 1.17473
489 -1.08854
490 -1.07624
491 -0.344128
492 -2.01778
493 0.252366
494 0.175115
495 0.0316331
496 -0.287098
497 -0.494962
498 -0.527245
499 0.244305
500 -0.421557
501 -2.30898
502 0.207392
503 1.49939
504 -0.608663
505 -0.0731702
506 1.06879
507 0.250961
508 0.569423
509 0.608023
510 -1.4093
511 0.103199
512 1.57472
513 0.834528
514 -0.370624
515 0.587976
516 0.203208
517 -0.0581869
518 -1.07356
519 -1.61957
520 -1.86792
521 -1.89554
522 -2.94555
523 0.163625
524 -0.837376
525 1.16738
526 1.68339
527 1.8425
528 0.0163349
529 1.3718
530 0.433047
531 0.633756
532 -0.191755
533 0.981373
534 -1.05564
535 -0.307384
536 -1.87659
537 -0.423749
538 0.481532
539 -1.09418
540 -0.816273
541 0.196269
542 0.0656753
543 -0.80149
544 1.85288
545 0.387549
546 -1.15215
547 0.799448
548 -1.54539
549 -1.99583
550 0.656607
551 1.47567
552 0.995091
553 1.41564
554 -0.147653
555 0.254717
556 0.436612
557 -0.335436
558 0.106041
559 0.332104
560 -0.0788894
561 0.408782
562 -0.758503
563 -0.732903
564 0.341491
565 -1.01504
566 -0.746156
567 -1.06033
568 0.907909
569 1.01019
570 -1.29082
571 -1.09085
572 -1.06291
573 0.83118
574 0.264764
575 0.478664
576 0.0900854
577 0.649576
578 -1.8884
579 -0.539698
580 0.959267
581 -0.685938
582 -0.826361
583 0.689429
584 -0.221518
585 -1.5929
586 1.16937
587 0.978084
588 -1.42401
589 0.802541
590 -1.52519
591 -1.72704
592 -0.0261339
593 0.233118
594 -0.0443628
595 0.275887
596 -0.138913
597 -0.592325
598 -0.095371
599 0.505729
600 -0.457708
601 0.42598
602 0.87875
603 0.703172
604 0.129565
605 0.5252
606 0.0874089
607 0.707745
608 -1.52022
609 0.730215
610 0.310045
611 0.949044
612 1.42779
613 -0.226285
614 0.0244568
615 -0.499389
616 -0.209528
617 -1.22728
618 0.263623
619 0.543969
620 -0.891862
621 -1.0591
622 0.364989
623 0.616436
624 -0.16931
625 0.281206
626 0.264155
627 0.589124
628 1.7908
629 -1.52361
630 -0.00204951
631 -0.426435
632 1.35403
633 0.201266
634 0.473527
635 -0.374875
636 -0.988321
637 -0.783832
638 0.0827561
639 -1.30791
640 -0.461661
641 -0.28406
642 1.06781
643 -1.53041
644 -0.830262
645 -0.272436
646 -1.26293
647 0.325905
648 0.368273
649 0.298017
650 1.02862
651 0.0314879
652 0.322117
653 0.210155
654 -1.512
655 -0.0576073
656 0.668226
657 1.08415
658 1.59315
659 1.09973
660 0.197425
661 0.963283
662 0.681767
663 0.298692
664 0.125588
665 0.579243
666 0.993491
667 1.13745
668 0.46064
669 -0.445002
670 0.121226
671 -3.21748
672 0.827278
673 0.0228028
674 0.0248282
675 -0.00306497
676 0.616167
677 0.598206
678 -1.17927
679 0.703038
680 -0.876356
681 -1.34583
682 -1.18551
683 0.8874
684 1.39128
685 0.0438623
686 -0.917943
687 -0.12812
688 0.482473
689 -0.705239
690 -0.516219
691 0.889057
692 1.22008
693 0.696004
694 0.777895
695 0.994424
696 -0.159662
697 0.850629
698 0.203636
699 -0.373821
700 0.0772472
701 1.23087
702 -2.17138
703 1.28327
704 -0.104814
705 0.390994
706 1.53451
707 -0.771706
708 -0.924565
709 0.817396
710 0.852787
711 0.969493
712 -0.804999
713 -0.122126
714 -0.211443
715 0.396259
716 0.0218526
717 0.228425
718 -0.870471
719 0.0459685
720 0.0153127
721 0.36242
722 -1.51293
723 -0.0835109
724 -1.16991
725 0.467259
726 0.603835
727 0.819789
728 -1.31979
729 0.128842
730 -0.863176
731 0.0352974
732 0.0715808
733 -0.133327
734 -1.92904
735 -0.726077
736 0.230002
737 -0.869493
738 -0.355021
739 0.30167
740 -1.46539
741 -1.29078
742 1.36822
743 -1.92477
744 -1.92719
745 1.30598
746 0.878457
747 -1.33979
748 0.13527
749 1.74439
750 1.30957
751 -0.689414
752 -0.583191
753 1.2065
754 -0.471327
755 0.443929
756 -0.453813
757 1.61327
758 1.14514
759 0.620634
760 0.591773
761 -2.026
762 0.176584
763 -0.0133987
764 -1.19087
765 -0.728987
766 1.57947
767 1.36677
768 0.208056
769 0.185749
770 0.472933
771 0.666741
772 -0.783248
773 -2.41912
774 -1.50074
775 -0.0678278
776 1.57944
777 1.43064
778 0.703872
779 0.750513
780 1.20209
781 -0.74868
782 -1.34032
783 0.941789
784 1.10944
785 0.75362
786 0.706257
787 -1.59664
788 0.769448
789 -2.1983
790 -2.03181
791 0.966963
792 -0.749122
793 0.351805
794 -1.29605
795 0.717086
796 0.0638556
797 0.195201
798 -0.517426
799 -1.83378
800 -1.35483
801 1.22115
802 0.149173
803 -1.63772
804 -0.974526
805 -1.7403
806 1.12137
807 -0.712188
808 -1.36016
809 -0.237526
810 -0.0633192
811 0.0323337
812 0.38646
813 0.611147
814 1.03966
815 0.0945199
816 -1.39462
817 0.785766
818 0.829876
819 -0.720772
820 0.0543902
821 -1.69684
822 1.54259
823 -0.421538
824 1.02802
825 1.9104
826 -0.779038
827 -1.3966
828 -0.814345
829 0.555404
830 0.37865
831 -1.53315
832 -1.03149
833 0.0262875
834 -1.0137
835 -0.434333
836 -0.578228
837 -0.265787
838 1.03773
839 -1.57598
840 -0.848308
841 -1.04253
842 0.251123
843 0.00541509
844 -0.819027
845 -0.0458747
846 -0.164606
847 -1.23467
848 -0.0110123
849 0.289207
850 -0.427873
851 -0.111137
852 -1.2925
853 -1.5582
854 0.288418
855 -1.1849
856 0.130236
857 1.04936
858 0.615024
859 1.34116
860 -0.0472468
861 -0.944112
862 -1.06533
863 0.888501
864 -1.16627
865 -1.82882
866 2.37484
867 0.447698
868 -0.173592
869 0.424698
870 0.157352
871 -0.218669
872 0.104613
873 -0.405837
874 0.661446
875 -1.49871
876 0.769886
877 -1.28417
878 -0.54737
879 1.29985
880 0.614248
881 0.337163
882 0.790325
883 0.898706
884 -1.92477
885 -0.616072
886 -1.05832
887 -1.60503
888 0.850148
889 -0.646095
890 1.09932
891 0.411956
892 -0.631701
893 0.239562
894 -0.956905
895 -2.80095
896 -1.42657
897 1.88238
898 -0.0624924
899 -1.08702
900 -1.71164
901 -0.343101
902 -1.30111
903 -0.567952
904 0.389745
905 1.82414
906 -0.739121
907 -0.531252
908 0.565757
909 -0.381161
910 -0.389127
911 -1.2774
912 -0.96077
913 -0.634747
914 -1.60599
915 -0.0585319
916 0.0278931
917 0.912457
918 -1.11974
919 -0.443218
920 -0.0448399
921 -2.72949
922 0.418724
923 -0.35104
924 0.0774499
925 -1.38843
926 -0.324743
927 -0.57518
928 -2.94677
929 1.02948
930 -1.11804
931 0.0413327
932 -1.22523
933 0.798174
934 0.189098
935 -1.33593
936 1.12266
937 -0.568594
938 0.335418
939 0.329705
940 0.567396
941 0.0861119
942 0.223682
943 -0.216963
944 -1.25213
945 -0.731823
946 -0.143651
947 0.436772
948 -2.249
949 -0.787212
950 -1.70801
951 1.36787
952 0.926561
953 -1.23721
954 -2.03157
955 -0.0299818
956 -1.08256
957 0.526512
958 0.597167
959 0.228555
960 -1.38106
961 0.938046
962 0.539969
963 -1.92704
964 1.60198
965 -0.129017
966 -1.94576
967 -0.320355
968 0.409193
969 -0.849291
970 0.451115
971 0.207533
972 -0.0777573
973 -0.473377
974 1.01771
975 0.609965
976 -0.126522
977 -1.64589
978 0.611948
979 -1.14714
980 0.865645
981 -0.115357
982 0.843339
983 1.39326
984 1.25682
985 1.95235
986 1.33572
987 1.43875
988 0.589085
989 1.27617
990 0.639657
991 0.0392693
992 -0.046797
993 1.48589
994 0.428673
995 1.03466
996 -0.0999227
997 0.825649
998 0.858585
999 1.59304
1000 -1.94865
1001 0.75604
1002 -0.142232
1003 0.555705
1004 2.03604
1005 0.0305673
1006 0.647214
1007 -0.454601
1008 0.262082
1009 0.286699
1010 0.326296
1011 0.655377
1012 -0.203226
1013 -1.47825
1014 0.784641
1015 0.765281
1016 -0.65543
1017 0.994423
1018 -0.946147
1019 1.0364
1020 0.40502
1021 0.598678
1022 -1.31583
1023 -0.402158
1024 -1.07464
1025 1.0218
1026 0.824135
1027 0.587821
1028 -0.653189
1029 1.29475
1030 -0.417787
1031 -1.72433
1032 -1.36522
1033 0.433253
1034 -0.323691
1035 0.910707
1036 -1.63153
1037 -0.600223
1038 1.06106
1039 -2.22085
1040 0.432854
1041 0.994495
1042 0.931024
1043 -1.31926
1044 0.542058
1045 0.0126254
1046 -0.290588
1047 1.02005
1048 -0.346495
1049 -0.594001
1050 -0.737237
1051 1.03618
1052 0.67824
1053 1.46722
1054 0.709376
1055 -1.09243
1056 0.50197
1057 -0.162327
1058 1.49494
1059 0.373198
1060 0.403266
1061 -0.538026
1062 -0.938293
1063 -0.790169
1064 -0.106127
1065 -1.17422
1066 -0.632585
1067 0.226273
1068 -1.85147
1069 1.32523
1070 1.43148
1071 0.264703
1072 1.1992
1073 0.355217
1074 -1.72838
1075 0.906476
1076 0.227507
1077 0.170216
1078 0.566548
1079 1.08029
1080 0.387991
1081 -0.229704
1082 -0.635166
1083 -1.3086
1084 -0.291158
1085 -0.757285
1086 -0.185272
1087 -0.324376
1088 -0.884436
1089 -1.22622
1090 0.687943
1091 -0.463487
1092 -1.32694
1093 1.00645
1094 -0.0369145
1095 -0.521186
1096 -0.505585
1097 1.13104
1098 0.244505
1099 0.697589
1100 0.140348
1101 -1.71797
1102 0.935627
1103 0.117695
1104 0.673789
1105 0.344894
1106 0.437901
1107 1.43368
1108 1.06235
1109 -0.144145
1110 1.14613
1111 0.375422
1112 1.73813
1113 0.428596
1114 1.71179
1115 0.955842
1116 -1.19757
1117 1.17657
1118 -1.23122
1119 -0.265963
1120 -1.96363
1121 -1.19689
1122 -1.37095
1123 -1.11083
1124 -1.79958
1125 0.336978
1126 0.944084
1127 1.126
1128 1.33193
1129 0.706095
1130 0.518705
1131 0.320253
1132 0.13203
1133 1.30251
1134 0.87325
1135 -0.0105193
1136 -0.613212
1137 1.14713
1138 0.273897
1139 0.430553
1140 -1.21628
1141 0.596295
1142 -2.1565
1143 -0.642336
1144 0.433405
1145 1.25027
1146 -0.766929
1147 0.083518
1148 -0.877282
1149 0.702713
1150 1.03
1151 -0.695467
1152 0.165916
1153 -1.06705
1154 0.0158968
1155 -1.14527
1156 -0.209176
1157 -1.25366
1158 -0.0912079
1159 0.833644
1160 -0.363049
1161 0.466874
1162 -0.885257
1163 1.09479
1164 -0.541806
1165 1.30665
1166 -0.2212
1167 -0.898347
1168 -0.426097
1169 -0.978726
1170 0.401394
1171 -0.142212
1172 0.481379
1173 0.706893
1174 0.827305
1175 0.984406
1176 -0.257697
1177 0.128085
1178 -0.390043
1179 0.573019
1180 1.10352
1181 0.766212
1182 0.285024
1183 1.71726
1184 1.00288
1185 1.9236
1186 0.450084
1187 1.23376
1188 1.8606
1189 1.91141
1190 1.41546
1191 1.13796
1192 1.82348
1193 0.574098
1194 0.276497
1195 -1.01178
1196 -0.251696
1197 0.739464
1198 1.59914
1199 0.973875
1200 -0.160488
1201 1.04802
1202 1.0075
1203 1.292
1204 1.67183
1205 0.58993
1206 1.36656
1207 0.604305
1208 -1.57689
1209 1.50084
1210 0.418612
1211 1.24042
1212 -1.03765
1213 1.77737
1214 -0.444258
1215 0.842645
1216 0.242953
1217 0.539785
1218 -0.479966
1219 -0.634828
1220 2.54751
1221 1.09868
1222 0.364895
1223 -1.73254
1224 0.317423
1225 0.20549
1226 0.373061
1227 -0.224109
1228 0.588297
1229 -0.459838
1230 0.885812
1231 1.02498
1232 0.20412
1233 1.00971
1234 -0.834417
1235 1.52834
1236 -0.0687989
1237 -1.32983
1238 1.52
1239 -0.449666
1240 0.494473
1241 0.108614
1242 -0.881723
1243 0.520484
1244 0.622985
1245 -1.18446
1246 -0.14786
1247 0.246113
1248 -0.121634
1249 0.0516364
1250 -1.79738
1251 -0.17331
1252 -0.976993
1253 -1.03286
1254 -0.0912105
1255 0.992389
1256 0.328123
1257 0.849439
1258 -0.00563279
1259 1.13761
1260 2.15451
1261 -1.85914
1262 0.83625
1263 -0.171063
1264 0.910979
1265 -0.858173
1266 1.45981
1267 1.31229
1268 0.0329231
1269 -0.485394
1270 -0.850347
1271 -1.9707
1272 1.66374
1273 1.8367
1274 0.122336
1275 0.705207
1276 0.568765
1277 -0.0403521
1278 1.33658
1279 -1.24715
1280 -1.56462
1281 -0.498791
1282 -0.847068
1283 1.09552
1284 -0.0475645
1285 -1.73538
1286 -0.327265
1287 -0.0846021
1288 -0.422018
1289 -0.290196
1290 0.934509
1291 -0.339245
1292 -0.616665
1293 0.225354
1294 -0.419637
1295 0.0718407
1296 1.16943
1297 0.0222183
1298 -1.32691
1299 -0.802204
1300 0.0300402
1301 1.71242
1302 -0.576505
1303 1.12512
1304 0.700218
1305 -1.76409
1306 -1.21323
1307 0.431305
1308 -0.702808
1309 0.693898
1310 -0.375029
1311 -0.672769
1312 -0.0604643
1313 -0.455948
1314 0.761494
1315 1.68065
1316 0.207029
1317 0.687887
1318 -0.268853
1319 -2.40599
1320 -0.121225
1321 0.981575
1322 1.32211
1323 -1.22189
1324 0.250365
1325 -2.8192
1326 0.627112
1327 -1.09144
1328 -0.435302
1329 -1.17434
1330 1.2662
1331 -0.571508
1332 -0.649036
1333 1.08699
1334 -0.753326
1335 -0.0966102
1336 -1.385
1337 -0.730939
1338 0.794324
1339 0.563308
1340 -0.416296
1341 0.485404
1342 -0.633179
1343 0.943333
1344 0.311133
1345 1.4566
1346 0.0447468
1347 1.04001
1348 -0.955719
1349 1.2801
1350 0.151229
1351 -1.30302
1352 -1.06064
1353 -0.569179
1354 -0.763154
1355 0.0508282
1356 -0.41891
1357 -0.151157
1358 -0.107991
1359 0.417233
1360 -0.391102
1361 0.479998
1362 -1.71662
1363 0.878442
1364 -0.666451
1365 -2.08186
1366 -0.116182
1367 1.45866
1368 1.32343
1369 1.17287
1370 -1.19993
1371 -0.274768
1372 -0.338564
1373 -0.111668
1374 -1.168
1375 1.12403
1376 -1.75919
1377 -1.18334
1378 0.734965
1379 0.975389
1380 0.972394
1381 1.21376
1382 -0.443429
1383 -1.20535
1384 -0.349757
1385 -1.33592
1386 -1.42393
1387 1.34822
1388 0.950435
1389 -1.0536
1390 -0.392791
1391 -1.26187
1392 -1.1115
1393 -1.11874
1394 -1.00154
1395 -0.158957
1396 0.896034
1397 -1.99784
1398 0.961697
1399 0.78794
1400 0.196334
1401 0.668631
1402 1.24529
1403 -0.363106
1404 0.907657
1405 0.701088
1406 -1.15085
1407 -1.20868
1408 0.534934
1409 1.15429
1410 0.7393
1411 -1.4199
1412 1.44014
1413 0.826182
1414 0.614145
1415 0.124011
1416 -0.00361928
1417 -1.15587
1418 0.951362
1419 0.529522
1420 1.08394
1421 -1.40863
1422 0.893113
1423 -0.321081
1424 0.932077
1425 0.0066835
1426 -1.44671
1427 0.114467
1428 -0.139563
1429 -1.4348
1430 0.912463
1431 0.795672
1432 0.586772
1433 -0.741969
1434 0.878838
1435 0.916421
1436 0.0624178
1437 -2.29139
1438 0.257536
1439 0.224059
1440 1.22234
1441 0.636057
1442 -0.896376
1443 0.929914
1444 1.43186
1445 0.846999
1446 0.842407
1447 -0.279555
1448 1.49205
1449 -0.134996
1450 0.68452
1451 0.296362
1452 0.430247
1453 0.359071
1454 1.11472
1455 -0.385479
1456 -0.135517
1457 1.21971
1458 -2.68826
1459 0.101318
1460 0.85929
1461 -1.00528
1462 -1.80573
1463 0.690495
1464 0.618023
1465 0.611614
1466 0.212617
1467 0.0804675
1468 -0.139031
1469 -3.06125
1470 0.328437
1471 -0.207818
1472 -2.00813
1473 0.261519
1474 1.17089
1475 -0.792013
1476 -0.566813
1477 0.0865814
1478 0.0569118
1479 0.817032
1480 1.50001
1481 -1.48693
1482 1.21741
1483 0.166592
1484 -0.777986
1485 -2.86258
1486 1.1405
1487 0.594327
1488 0.229757
1489 -1.35886
1490 1.05324
1491 -0.684719
1492 -0.541523
1493 -0.449903
1494 -0.149756
1495 0.305084
1496 1.21724
1497 -0.62342
1498 -1.3347
1499 -0.526297
1500 -2.21089
1501 -2.25155
1502 -0.356182
1503 -0.741756
1504 0.561157
1505 1.09023
1506 -0.6721
1507 0.462338
1508 0.467761
1509 0.917217
1510 -1.80325
1511 0.340135
1512 -2.4986
1513 0.275576
1514 -1.32297
1515 -1.31313
1516 -1.70961
1517 -1.10844
1518 0.96943
1519 -1.04311
1520 0.642591
1521 -0.332363
1522 -0.22474
1523 -0.975182
1524 -0.814954
1525 0.109969
1526 1.45784
1527 0.412556
1528 -1.0973
1529 -1.68871
1530 -1.44509
1531 -1.43086
1532 -1.54998
1533 0.535369
1534 0.654024
1535 0.430123
1536 -0.141557
1537 1.03715
1538 -0.000946621
1539 -0.0494297
1540 0.572337
1541 -0.575169
1542 1.02326
1543 -1.37469
1544 0.528748
1545 0.728734
1546 -1.83945
1547 -1.67452
1548 0.312623
1549 -0.834701
1550 0.69236
1551 0.253352
1552 1.16498
1553 -0.430649
1554 0.178923
1555 -1.76722
1556 1.08136
1557 0.322096
1558 -0.946895
1559 1.04066
1560 -0.166178
1561 0.85058
1562 -0.850535
1563 0.936418
1564 1.54908
1565 0.492984
1566 -0.493338
1567 -0.586645
1568 -0.182337
1569 -0.32995
1570 -0.608888
1571 -1.40265
1572 0.041111
1573 0.698911
1574 0.25408
1575 -3.98296
1576 0.0691411
1577 -1.19983
1578 -0.719958
1579 0.722799
1580 -0.920371
1581 1.10341
1582 -0.285511
1583 -2.9194
1584 0.169306
1585 -1.09267
1586 0.137918
1587 -1.43688
1588 0.433675
1589 1.02056
1590 1.18618
1591 0.558323
1592 0.907659
1593 0.76267
1594 0.680114
1595 0.129854
1596 -0.150894
1597 -1.45975
