1 -0.783843
2 -0.717861
3 -0.274873
4 0.478332
5 -0.313889
6 -0.012707
7 0.745463
8 0.0837209
9 0.59851
10 -0.0160667
11 -0.0964754
12 0.43976
13 -0.789631
14 0.426425
15 0.388284
16 0.32879
17 0.741374
18 0.861236
19 0.505753
20 1.55755
21 0.732122
22 -1.66118
23 -0.443561
24 -0.0172687
25 0.301116
26 -0.398377
27 -2.43713
28 0.758049
29 -0.394482
30 1.10449
31 -1.45188
32 -0.738981
33 0.218778
34 0.0447704
35 -1.94861
36 -0.971079
37 -1.97139
38 -1.17257
39 0.553015
40 0.0632056
41 1.17518
42 -0.642898
43 -0.752455
44 -1.81685
45 0.207552
46 1.03895
47 0.499867
48 -0.734062
49 2.36336
50 0.569992
51 -0.180008
52 1.07246
53 1.86126
54 0.878603
55 -0.114578
56 -0.807062
57 -1.03664
58 -0.807482
59 -3.38715
60 -0.106923
61 0.264474
62 0.848617
63 2.29349
64 0.8726
65 0.44277
66 0.284621
67 1.59056
68 0.132673
69 -0.500971
70 0.85908
71 -0.80481
72 -1.00139
73 -1.18497
74 -0.12263
75 -0.0394148
76 0.627681
77 -0.0614935
78 -1.3968
79 -0.308773
80 -1.44043
81 -1.46511
82 0.135354
83 -0.616422
84 -0.434253
85 0.318683
86 0.626571
87 -0.0877608
88 -1.24619
89 0.226096
90 0.218412
91 -0.275392
92 0.852618
93 1.37938
94 2.21198
95 0.844538
96 -1.49182
97 1.22816
98 -0.107855
99 -1.25862
100 0.300406
101 0.705724
102 -0.726894
103 -0.504172
104 1.24406
105 -1.13782
106 -0.208262
107 1.68162
108 -0.545146
109 0.596737
110 0.15562
111 0.43979
112 0.4351
113 0.45468
114 -1.69108
115 -1.01342
116 -1.30862
117 0.878644
118 0.75348
119 -0.852753
120 -0.065905
121 0.0532638
122 1.01316
123 -0.364639
124 0.541825
125 -0.0300615
126 -1.14408
127 -0.0557896
128 0.208536
129 0.271749
130 0.236868
131 -0.865416
132 -0.395738
133 -0.291813
134 0.0164535
135 1.2141
136 -0.575789
137 -1.43689
138 0.653656
139 -0.546938
140 -0.573367
141 -0.168007
142 -0.448077
143 1.13723
144 -1.42133
145 -2.39076
146 0.249341
147 -0.119024
148 1.54328
149 -0.12016
150 1.26263
151 -0.674316
152 -1.61074
153 -0.365363
154 0.139383
155 -0.437367
156 -0.946434
157 -1.04985
158 0.526805
159 0.22973
160 0.468276
161 -2.03454
162 -0.359745
163 -0.338752
164 1.78585
165 -2.61364
166 1.07915
167 1.4202
168 2.83976
169 -0.595046
170 0.860627
171 -1.58269
172 0.365338
173 -1.29791
174 -1.39424
175 0.03388
176 0.400216
177 0.650048
178 0.826035
179 -0.221236
180 -1.55394
181 0.238331
182 1.07824
183 -0.934822
184 -1.72546
185 -0.536974
186 0.229006
187 -1.15651
188 -1.12286
189 -1.55048
190 -0.130178
191 -1.77883
192 -0.627931
193 0.960509
194 0.640384
195 -0.970335
196 0.117171
197 0.215376
198 0.478652
199 -1.23097
200 -0.16338
201 1.43044
202 1.54551
203 -1.63063
204 1.65076
205 -0.346933
206 0.123344
207 2.35572
208 -0.838191
209 -0.533994
210 0.296227
211 -2.26747
212 -1.65975
213 0.981047
214 -2.16141
215 -0.113579
216 -0.488371
217 0.286733
218 -0.778032
219 0.110715
220 -0.944309
221 -1.55451
222 -0.459579
223 -0.416866
224 -0.118247
225 -0.727184
226 0.436933
227 -1.36913
228 -1.79037
229 -0.344988
230 -0.749717
231 0.256969
232 0.364547
233 -0.68906
234 1.61996
235 1.7498
236 1.11817
237 0.121314
238 1.66794
239 0.935935
240 -1.22977
241 -0.147273
242 1.14611
243 0.525004
244 2.07186
245 -0.615093
246 0.428704
247 -0.507854
248 -0.491489
249 -0.951654
250 0.512554
251 1.4478
252 0.845572
253 -0.511933
254 -0.195612
255 0.935614
256 -1.52366
257 -0.260503
258 0.0392934
259 0.768134
260 1.06251
261 -0.62015
262 0.686156
263 0.0424403
264 0.45978
265 0.173407
266 1.20088
267 -0.00664607
268 0.406974
269 1.24668
270 -1.96415
271 0.271883
272 -1.14283
273 0.677072
274 0.571946
275 -0.332481
276 -0.67522
277 0.804599
278 0.456301
279 -0.48897
280 -0.258532
281 0.481001
282 0.827488
283 0.546066
284 -0.0458006
285 -1.55874
286 -0.132024
287 -0.62499
288 0.98815
289 -0.696102
290 -1.09496
291 1.6342
292 0.668088
293 0.557088
294 1.94781
295 1.10401
296 1.85514
297 -0.30558
298 0.43175
299 0.878266
300 -0.125534
301 0.508844
302 -0.178386
303 -1.59263
304 0.495525
305 0.514885
306 0.295307
307 0.177171
308 -0.551901
309 -2.49208
310 1.46793
311 -0.418648
312 0.356557
313 -0.748373
314 -1.92677
315 -0.965764
316 -1.61376
317 1.23116
318 -2.28187
319 1.74551
320 -1.66107
321 1.04929
322 0.937004
323 0.0177873
324 0.181043
325 0.461052
326 -1.71407
327 0.189202
328 -1.12774
329 0.588116
330 1.42112
331 0.597003
332 -0.0197844
333 -0.194641
334 2.21468
335 -0.503547
336 0.178658
337 0.732913
338 0.82499
339 0.279828
340 0.395944
341 -1.63832
342 -0.443129
343 0.388577
344 -2.54577
345 -1.44286
346 -0.780804
347 -0.636487
348 -0.0225609
349 0.338721
350 -1.77576
351 -0.127089
352 0.456411
353 1.2472
354 0.83068
355 -0.202328
356 -0.955027
357 1.79419
358 0.307805
359 0.525606
360 1.23819
361 0.143467
362 -0.430208
363 -1.83774
364 0.10461
365 1.69639
366 -0.94486
367 -1.05984
368 1.55628
369 1.14151
370 0.049116
371 -0.0286572
372 0.74619
373 0.27945
374 -0.235836
375 1.2834
376 0.327231
377 -1.11549
378 0.33105
379 -0.227826
380 0.425922
381 -0.0855258
382 1.20518
383 0.660581
384 0.00519671
385 0.853653
386 -0.405295
387 -1.89003
388 -2.41324
389 -0.157215
390 -1.33256
391 -1.24839
392 0.134641
393 1.23878
394 -0.306211
395 1.03767
396 1.58363
397 0.531886
398 -1.02358
399 -1.01849
400 -1.59488
401 0.0581777
402 0.473726
403 0.969197
404 1.1185
405 -0.0413297
406 -1.83471
407 2.49242
408 -0.117285
409 -1.34584
410 1.8911
411 0.882163
412 0.478112
413 0.0542371
414 -0.311852
415 0.754708
416 -0.699251
417 1.95566
418 -0.240266
419 0.574193
420 -1.26788
421 0.548104
422 0.674311
423 2.46699
424 1.62841
425 0.235274
426 -0.0250732
427 -0.255489
428 -0.0423772
429 1.64123
430 0.45253
431 -0.973193
432 -1.013
433 0.124098
434 1.86815
435 -1.82622
436 0.869888
437 0.787766
438 0.613422
439 0.338159
440 0.57693
441 1.02608
442 0.232679
443 0.272762
444 0.4599
445 0.634272
446 0.166976
447 0.259887
448 0.036119
449 -2.74102
450 0.695929
451 0.961606
452 1.04974
453 0.123356
454 -0.381249
455 0.0942152
456 0.711594
457 -0.504306
458 1.47794
459 -0.671459
460 -0.41626
461 1.91516
462 -0.783533
463 -0.00539174
464 -0.475432
465 1.14627
466 -1.88349
467 1.39713
468 -1.41993
469 0.51168
470 0.980146
471 -0.352214
472 0.96872
473 0.564851
474 0.45517
475 1.07942
476 -0.947817
477 0.281117
478 0.123619
479 1.92222
480 0.282587
481 -0.0751044
482 -0.220673
483 -0.564563
484 0.725395
485 -0.148985
486 1.39719
487 1.47449
488 0.143705
489 -1.05083
490 0.066444
491 1.24199
492 0.164372
493 0.112641
494 -0.769977
495 1.26499
496 2.11243
497 0.727799
498 -0.53202
499 -0.154732
500 0.971641
501 1.06314
502 0.739469
503 1.45737
504 -0.120338
505 0.284182
506 -2.4795
507 -1.39186
508 -0.453266
509 -1.12383
510 1.81611
511 -1.89714
512 -0.966582
513 -1.08002
514 0.138383
515 -0.598721
516 1.34685
517 0.0335286
518 -0.707025
519 -0.059669
520 1.05217
521 0.0138247
522 0.245314
523 0.0725088
524 0.916726
525 0.747506
526 0.354452
527 1.2398
528 0.356656
529 -1.37586
530 0.363909
531 -1.64367
532 0.597516
533 -0.268319
534 -1.58462
535 1.24429
536 0.0734124
537 -0.291062
538 0.569021
539 1.0482
540 0.237225
541 -0.93538
542 0.660776
543 0.0280628
544 0.32961
545 -0.218712
546 1.12317
547 1.33541
548 1.09893
549 -1.18781
550 1.53496
551 0.138292
552 1.71838
553 0.61695
554 -0.414998
555 -1.6526
556 0.677101
557 -1.09228
558 1.18964
559 -0.599742
560 -1.05205
561 0.722697
562 -0.34329
563 0.313692
564 0.822495
565 0.156324
566 0.712519
567 0.134601
568 0.898574
569 0.902125
570 0.433003
571 1.07656
572 -0.396106
573 -0.309096
574 1.96373
575 0.364034
576 0.134187
577 0.761562
578 1.30292
579 1.46787
580 0.802464
581 1.30404
582 1.95157
583 -0.651798
584 0.275557
585 -0.270798
586 0.366005
587 0.534074
588 -0.641955
589 0.0718199
590 -1.64365
591 -2.32218
592 -0.0477537
593 1.55581
594 0.0378578
595 1.20444
596 0.245011
597 -0.33194
598 2.01809
599 -0.0533646
600 -0.0147077
601 1.81561
602 0.607078
603 0.155471
604 1.03792
605 0.358985
606 0.230993
607 0.132699
608 0.320922
609 0.15046
610 -0.274575
611 -1.04723
612 0.620539
613 1.92327
614 -2.00448
615 -0.532037
616 -0.946634
617 -0.0576429
618 0.510857
619 -0.736854
620 0.693906
621 0.849026
622 0.456519
623 -0.147385
624 0.874946
625 1.98289
626 -0.373695
627 0.258717
628 -0.715811
629 0.698526
630 -1.04038
631 0.366373
632 -0.2075
633 0.227631
634 -0.703602
635 -0.0595049
636 0.54938
637 -0.917191
638 1.27288
639 1.12816
640 -0.525539
641 0.312146
642 -3.04087
643 -0.117829
644 1.10046
645 0.473397
646 0.399554
647 -0.85473
648 -0.97893
649 0.371819
650 2.34422
651 0.166789
652 0.418361
653 -0.969883
654 -0.535501
655 -0.983495
656 -2.4042
657 1.18647
658 -0.169905
659 0.233097
660 -0.236832
661 0.804051
662 0.20303
663 0.458549
664 1.15832
665 1.03603
666 0.835801
667 0.135847
668 2.76717
669 -1.98882
670 -0.478084
671 0.464201
672 0.513587
673 -2.21214
674 -1.30298
675 -1.57035
676 -0.483126
677 0.760449
678 0.32117
679 -1.14913
680 -0.194919
681 0.213355
682 -1.17227
683 -0.291778
684 0.26343
685 1.37988
686 -0.904648
687 1.36743
688 -0.462665
689 -0.635641
690 0.538214
691 0.258115
692 -0.0979288
693 0.036374
694 -1.17744
695 1.48612
696 0.201078
697 0.0790556
698 0.419674
699 1.21276
700 1.37701
701 0.494564
702 0.858303
703 -0.0122554
704 -0.198764
705 0.100975
706 -0.346547
707 0.842142
708 -0.67298
709 0.404686
710 0.698069
711 -0.88874
712 -0.944331
713 -1.35539
714 2.32132
715 0.622924
716 0.503462
717 2.74441
718 0.792861
719 0.632535
720 1.4753
721 -0.430678
722 0.566655
723 0.848543
724 -1.18025
725 1.07052
726 0.957063
727 0.753908
728 1.02152
729 0.433137
730 -0.906903
731 0.39946
732 0.792487
733 0.699648
734 -0.626062
735 1.90282
736 -0.0240043
737 -0.696759
738 0.721714
739 0.165878
740 -0.675013
741 1.68942
742 0.559665
743 0.656158
744 0.335131
745 1.13506
746 0.367411
747 -0.702011
748 0.382831
749 1.78626
750 -0.887707
751 0.878616
752 -0.457971
753 1.33798
754 1.37486
755 -0.0223712
756 -0.264595
757 1.12911
758 0.461892
759 1.03044
760 0.902025
761 -0.402644
762 0.842961
763 -1.68393
764 -0.00685084
765 1.41743
766 -1.04373
767 1.58002
768 0.940256
769 -0.220167
770 -1.51802
771 0.566294
772 1.24038
773 0.873558
774 1.04944
775 0.828934
776 1.98958
777 0.192621
778 -0.224664
779 -0.286329
780 0.185782
781 1.8087
782 -0.111399
783 0.785557
784 0.0712598
785 0.574582
786 0.442724
787 0.250992
788 0.860597
789 0.632717
790 1.14076
791 0.803637
792 -1.60375
793 -0.615747
794 0.269288
795 -1.61076
796 -0.414167
797 1.38272
798 -1.49259
799 0.331225
800 0.974402
801 0.645047
802 -1.09506
803 -0.461686
804 0.480009
805 -0.243674
806 1.17157
807 0.567347
808 -0.609746
809 -0.152393
810 0.920778
811 0.760056
812 -1.00625
813 -1.18886
814 0.669301
815 0.389177
816 0.34143
817 -0.281032
818 0.306946
819 0.242304
820 -1.74997
821 -1.30513
822 -1.35755
823 -0.43376
824 -0.0388379
825 -0.0403857
826 -1.14945
827 -0.0868091
828 0.374002
829 -0.342234
830 -1.19282
831 -0.699299
832 -0.993668
833 1.23464
834 -0.924996
835 -2.43744
836 -0.195956
837 -1.6737
838 0.67522
839 0.668448
840 1.22151
841 1.50275
842 0.909184
843 -0.186186
844 -0.000371014
845 -1.94109
846 -0.367221
847 -1.21475
848 -1.51323
849 0.238496
850 -0.785629
851 -1.59869
852 -1.27905
853 1.25232
854 0.536569
855 -0.235387
856 -0.169562
857 0.454754
858 0.890532
859 0.92743
860 0.584364
861 -0.450093
862 1.16476
863 -0.129055
864 0.655489
865 0.0176558
866 -0.738849
867 -0.89181
868 0.846314
869 -0.657839
870 0.189591
871 0.396029
872 -2.28411
873 0.950702
874 -0.957018
875 -1.88584
876 1.25265
877 0.479044
878 -0.00601613
879 -2.58526
880 1.10181
881 0.62835
882 2.40973
883 1.04727
884 1.17216
885 0.487641
886 -0.179356
887 -3.1338
888 0.201071
889 -0.202834
890 0.941025
891 -0.205534
892 -1.17229
893 0.90911
894 -0.501594
895 0.479746
896 -2.73908
897 -0.676271
898 -0.856427
899 0.825689
900 -2.27136
901 0.900481
902 0.976663
903 0.393989
904 -1.67024
905 -0.378868
906 0.276392
907 0.394111
908 -0.616992
909 0.451027
910 0.430842
911 0.559204
912 -0.335326
913 0.489993
914 -0.229353
915 0.184444
916 0.0321798
917 0.196083
918 -0.118846
919 -0.341739
920 0.8024
921 0.681596
922 0.313269
923 -0.0528715
924 -2.26106
925 -0.0548881
926 -0.384612
927 -0.946725
928 0.512279
929 -1.26463
930 -1.1852
931 0.793652
932 -1.09852
933 0.106471
934 0.157345
935 0.773449
936 -0.379469
937 1.00792
938 0.277536
939 0.633286
940 0.833078
941 0.204513
942 -2.33446
943 0.456317
944 1.05775
945 -1.59395
946 0.751762
947 0.287384
948 0.251441
949 1.18526
950 -1.50196
951 -1.29517
952 0.0752406
953 -1.16529
954 0.0217852
955 0.502188
956 -0.578667
957 -0.706857
958 -1.35195
959 -0.423541
960 -1.10322
961 -0.799336
962 0.941832
963 0.436137
964 0.717478
965 0.296274
966 1.67554
967 -0.242318
968 1.16928
969 1.68534
970 -0.408409
971 0.515356
972 0.0110937
973 -1.22824
974 -0.207558
975 -0.909093
976 0.437532
977 -1.64627
978 1.28746
979 -1.65352
980 -2.11696
981 2.41135
982 0.419317
983 -0.192311
984 1.10968
985 -0.428615
986 -1.51757
987 1.61993
988 -0.51892
989 1.13205
990 -0.356013
991 -1.53364
992 -2.48648
993 -2.06929
994 -1.10085
995 -2.0511
996 -0.716185
997 0.485409
998 -1.0702
999 -0.763324
1000 -2.48444
1001 0.42179
1002 -1.71296
1003 2.42532
1004 0.289058
1005 -1.45365
1006 -0.149418
1007 0.901218
1008 -0.890917
1009 -0.271749
1010 1.45503
1011 -0.852337
1012 -0.423772
1013 1.19775
1014 -0.432403
1015 -0.708118
1016 0.0613015
1017 0.0119373
1018 -0.0640925
1019 -0.353216
1020 -0.491678
1021 -0.714777
1022 1.96729
1023 -0.980478
1024 2.35545
1025 -0.035669
1026 -1.5084
1027 0.54161
1028 -0.232675
1029 -0.207399
1030 -0.142092
1031 -0.822057
1032 -1.73555
1033 -1.48153
1034 0.061295
1035 0.883767
1036 0.113081
1037 0.0499817
1038 1.21126
1039 -1.55374
1040 0.248077
1041 1.22125
1042 -0.914751
1043 2.1713
1044 0.848883
1045 -0.369716
1046 0.136092
1047 0.452793
1048 -1.03851
1049 -0.592765
1050 1.60768
1051 0.061575
1052 -3.87971
1053 -0.386284
1054 0.116359
1055 0.964623
1056 -1.66025
1057 1.90427
1058 -1.74357
1059 -0.375841
1060 -1.13779
1061 0.592662
1062 -0.796646
1063 -1.0572
1064 0.359529
1065 1.62385
1066 -0.480058
1067 1.34677
1068 -0.292599
1069 0.223664
1070 2.22229
1071 0.613854
1072 -1.16155
1073 -1.86028
1074 -1.14483
1075 -0.0588369
1076 -0.0665368
1077 -2.65792
1078 -0.542028
1079 -0.316621
1080 0.43506
1081 -0.313507
1082 0.0697307
1083 -0.915231
1084 0.357111
1085 0.458189
1086 0.709164
1087 -1.79545
1088 0.904455
1089 1.49273
1090 -0.709204
1091 -0.0744263
1092 0.206946
1093 0.411938
1094 -0.551887
1095 -0.24843
1096 0.18352
1097 -1.77145
1098 0.453297
1099 -0.408409
1100 1.42423
1101 -1.6308
1102 -0.0470771
1103 -2.3695
1104 -0.66297
1105 -1.19278
1106 -0.408493
1107 1.1208
1108 -0.704184
1109 -0.682026
1110 0.333126
1111 0.59066
1112 0.542219
1113 -0.711257
1114 -0.222426
1115 -0.755329
1116 -0.284593
1117 -1.87518
1118 -0.494683
1119 1.54654
1120 0.0662977
1121 2.14652
1122 -2.24875
1123 0.673487
1124 -0.457719
1125 -0.0425993
1126 0.7521
1127 0.557598
1128 0.281869
1129 0.124689
1130 -0.412011
1131 0.949403
1132 0.251021
1133 -2.44785
1134 0.626603
1135 -0.839571
1136 -0.746675
1137 1.83532
1138 0.850193
1139 0.141046
1140 0.275549
1141 -1.20469
1142 -0.580057
1143 -0.64541
1144 0.678527
1145 0.357793
1146 0.149825
1147 0.652889
1148 -0.166096
1149 -0.537355
1150 -0.38679
1151 -1.55074
1152 -0.562001
1153 -0.918015
1154 1.0319
1155 -0.0739828
1156 -0.896813
1157 0.691476
1158 -0.228049
1159 -0.992371
1160 -0.366013
1161 0.464952
1162 -2.13252
1163 0.165721
1164 0.764673
1165 0.0599816
1166 0.0703784
1167 0.212718
1168 0.511419
1169 0.773394
1170 0.676741
1171 -0.0544677
1172 0.29579
1173 0.143568
1174 0.0455507
1175 -0.742171
1176 0.187636
1177 -0.807553
1178 1.21953
1179 -1.09499
1180 0.627151
1181 -1.01889
1182 0.0735479
1183 0.267141
1184 -0.788003
1185 -0.430898
1186 0.562559
1187 0.526989
1188 -0.14194
1189 -0.371834
1190 0.518469
1191 -0.0720067
1192 0.417712
1193 -0.489891
1194 0.58127
1195 0.3368
1196 0.292042
1197 -0.268333
1198 0.112409
1199 0.479293
1200 -1.89673
1201 0.270488
1202 1.40558
1203 0.870124
1204 -0.283524
1205 0.268199
1206 1.70933
1207 0.563856
1208 -1.16215
1209 1.22752
1210 -1.36838
1211 0.443632
1212 0.286262
1213 1.54075
1214 -0.054494
1215 -1.36746
1216 0.0057345
1217 -0.161357
1218 -0.633889
1219 -0.146585
1220 1.7194
1221 1.21174
1222 -0.418173
1223 0.394783
1224 0.0866605
1225 1.0395
1226 0.170243
1227 0.324116
1228 0.978455
1229 0.43713
1230 -1.45195
1231 -1.60242
1232 -0.0110833
1233 0.0609929
1234 0.65391
1235 0.401387
1236 0.402807
1237 1.54846
1238 1.02028
1239 -0.602721
1240 1.67332
1241 1.90446
1242 1.4131
1243 2.02035
1244 1.34349
1245 0.0265234
1246 1.23647
1247 -1.51379
1248 -0.447534
1249 0.893318
1250 2.03291
1251 -0.980484
1252 -0.333475
1253 -0.551848
1254 1.75063
1255 0.522513
1256 1.48303
1257 -2.78786
1258 -1.9955
1259 -0.102732
1260 -2.06009
1261 -0.477364
1262 0.223893
1263 -0.601391
1264 -1.53658
1265 -0.523936
1266 1.04024
1267 0.252124
1268 -0.723185
1269 -0.945981
1270 1.86006
1271 -0.174017
1272 0.212973
1273 -0.534752
1274 0.882953
1275 1.19078
1276 -0.0490716
1277 0.0246226
1278 -0.727057
1279 0.941482
1280 0.601985
1281 0.253847
1282 0.383616
1283 0.555298
1284 0.0251332
1285 0.0438793
1286 -0.951918
1287 -0.11424
1288 0.713541
1289 0.198889
1290 -0.47505
1291 -1.02619
1292 -0.503708
1293 0.0566274
1294 1.08306
1295 -0.828214
1296 -0.216395
1297 -0.705365
1298 -0.20513
1299 -1.76066
1300 -0.405854
1301 -1.35956
1302 -1.05744
1303 -0.711133
1304 -1.02273
1305 0.776701
1306 0.446321
1307 -0.349174
1308 0.408751
1309 -0.856743
1310 0.488787
1311 -1.46607
1312 0.218908
1313 0.282688
1314 -0.0271014
1315 1.05015
1316 -0.218743
1317 1.48746
1318 0.321371
1319 -0.511949
1320 -0.102424
1321 0.0508892
1322 -1.85911
1323 0.66638
1324 -1.40729
1325 0.554445
1326 -0.265771
1327 2.05117
1328 -0.45759
1329 1.02578
1330 -1.33433
1331 -1.06379
1332 1.31551
1333 1.02275
1334 -1.37664
1335 -1.08179
1336 -1.23729
1337 1.09015
1338 -1.45592
1339 -0.69897
1340 0.168817
1341 -0.10962
1342 -0.101356
1343 0.696543
1344 0.208381
1345 -0.0879112
1346 -0.138352
1347 -2.24911
1348 2.36569
1349 -1.15045
1350 -0.160961
1351 -0.364269
1352 -1.61683
1353 0.272882
1354 1.38017
1355 -0.158961
1356 -2.57239
1357 0.115142
1358 1.45048
1359 -0.278953
1360 -0.166298
1361 0.886511
1362 1.69617
1363 -0.176548
1364 0.360685
1365 0.667426
1366 0.966255
1367 -0.306268
1368 -0.461448
1369 0.130942
1370 -0.487157
1371 -0.170669
1372 -0.775753
1373 -1.90323
1374 -0.41381
1375 -1.20596
1376 0.578321
1377 1.42895
1378 -0.388559
1379 0.128766
1380 -0.0882824
1381 -0.482265
1382 0.308795
1383 -0.00952367
1384 -1.10986
1385 -0.764868
1386 -0.949499
1387 -1.31655
1388 0.812827
1389 1.35628
1390 -0.47041
1391 0.875924
1392 0.230571
1393 1.1723
1394 -0.80964
1395 -0.287128
1396 0.0854548
1397 -0.389221
1398 1.3416
1399 0.56992
1400 0.150188
1401 -1.23216
1402 0.16871
1403 0.485402
1404 -1.6649
1405 -0.896104
1406 1.09137
1407 0.346446
1408 1.49052
1409 0.691707
1410 -0.724682
1411 0.778214
1412 -2.32492
1413 1.81302
1414 0.218484
1415 -0.432289
1416 0.43259
1417 1.43404
1418 1.93226
1419 -0.756835
1420 -0.164843
1421 0.589706
1422 0.585542
1423 0.117878
1424 1.28065
1425 -0.473657
1426 0.542373
1427 -0.301365
1428 1.61574
1429 -0.596339
1430 0.44559
1431 0.911353
1432 0.59675
1433 -0.868074
1434 -1.60044
1435 -0.365372
1436 -2.0736
1437 -1.85382
1438 0.0213803
1439 -1.4666
1440 -2.6353
1441 -1.65731
1442 -0.90811
1443 -0.572806
1444 -1.29488
1445 -0.451208
1446 -0.42052
1447 -1.57787
1448 -0.440974
1449 0.00370317
1450 -0.181317
1451 -1.44636
1452 -0.573958
1453 0.0293594
1454 0.65895
1455 -0.309036
1456 -0.174518
1457 -1.41058
1458 1.29226
1459 0.463338
1460 1.44227
1461 0.979416
1462 0.710442
1463 0.581451
1464 -1.93046
1465 -1.23036
1466 0.266871
1467 -1.73452
1468 -0.105687
1469 -0.303566
1470 0.595268
1471 -0.423358
1472 -0.214646
1473 -1.14365
1474 -0.756078
1475 0.569683
1476 -0.488468
1477 0.932014
1478 2.03268
1479 -1.25121
1480 0.287372
1481 -0.719359
1482 -0.720141
1483 -1.18184
1484 -1.0951
1485 -1.86433
1486 0.52449
1487 0.128354
1488 1.24753
1489 0.422619
1490 0.716956
1491 0.199641
1492 0.306748
1493 0.493764
1494 -0.52907
1495 -0.0691794
1496 -0.481317
1497 1.16485
1498 0.642235
1499 -1.17058
1500 -0.620346
1501 -0.783836
1502 0.375154
1503 -1.72886
1504 -0.529803
1505 -0.267853
1506 0.253305
1507 0.525359
1508 -0.0433165
1509 -0.00787798
1510 -1.52651
1511 1.10736
1512 0.152479
1513 -1.28535
1514 0.89574
1515 0.160479
1516 -1.48731
1517 -0.635865
1518 -0.117918
1519 -0.0823011
1520 0.0415584
1521 -2.14597
1522 1.52558
1523 -2.04801
1524 -1.08837
1525 -1.09296
1526 -0.0721257
1527 0.00938272
1528 1.15695
1529 -1.36605
1530 -0.872839
1531 0.0356267
1532 0.134461
1533 0.431271
1534 0.978832
1535 -1.1076
1536 -0.735354
1537 -0.123847
1538 -0.782
1539 -0.688177
1540 -1.28058
1541 -0.45316
1542 0.883505
1543 0.727867
1544 -1.13557
1545 1.53547
1546 0.749393
1547 -0.960657
1548 -1.07064
1549 0.27509
1550 -1.26248
1551 0.624752
1552 -2.10536
1553 0.105858
1554 0.477012
1555 -0.144321
1556 -0.84982
1557 1.46956
1558 0.479353
1559 -1.0238
1560 0.538753
1561 1.03961
1562 -0.693622
1563 -1.71067
1564 -1.26676
1565 0.919687
1566 0.824452
1567 1.24005
1568 1.13649
1569 -0.734421
1570 0.150991
1571 -0.060725
1572 0.394041
1573 -0.987498
1574 -0.228673
1575 -1.06177
1576 0.755851
1577 -0.944761
1578 0.372777
1579 -0.0235392
1580 2.02937
1581 1.07523
1582 0.12273
1583 0.572431
1584 0.483328
1585 1.14385
1586 -0.543662
1587 0.908952
1588 0.755339
1589 -0.425667
1590 0.557203
1591 -1.18855
1592 -2.59605
1593 -0.765762
1594 0.592611
1595 0.39917
1596 -0.595424
1597 0.603448
