1 -0.0211187
2 0.0342065
3 -0.294109
4 -0.516245
5 0.479214
6 -2.06485
7 -0.401468
8 0.584899
9 -0.928252
10 -0.0195099
11 -0.0306422
12 -0.247422
13 -0.697948
14 0.474952
15 -2.4194
16 -1.61532
17 0.121304
18 0.163055
19 -0.510845
20 -0.207843
21 -1.66949
22 1.01529
23 -1.04569
24 1.48173
25 0.977897
26 0.158924
27 -0.833442
28 0.735905
29 0.187953
30 -1.40628
31 -1.54056
32 0.264294
33 0.246646
34 0.173687
35 0.176197
36 0.0152421
37 -0.741734
38 1.09808
39 0.590164
40 0.875269
41 0.823753
42 0.94829
43 1.67487
44 -0.36398
45 -0.391434
46 -0.781315
47 -0.451233
48 -0.273838
49 0.519369
50 1.15456
51 1.11214
52 -1.2315
53 1.19918
54 0.30947
55 0.41998
56 0.0707283
57 -0.849256
58 0.573877
59 0.397787
60 0.782419
61 -0.743444
62 -0.0120178
63 0.860193
64 -0.664853
65 0.212125
66 0.778701
67 0.353209
68 -1.12946
69 0.548449
70 -0.384033
71 0.0146649
72 -0.518574
73 -1.12363
74 -0.119826
75 0.511307
76 -0.140249
77 0.634369
78 1.26145
79 0.234773
80 0.767659
81 1.60158
82 -1.34843
83 -0.376485
84 -1.74076
85 -0.494901
86 -0.131764
87 -0.584922
88 0.282113
89 0.50243
90 -0.395929
91 0.648391
92 -0.0597896
93 0.282091
94 0.821316
95 0.168859
96 0.724163
97 0.0515341
98 -1.58203
99 1.37882
100 -1.52267
101 -0.452282
102 -1.49481
103 1.55975
104 1.941
105 0.605899
106 0.589279
107 -1.38965
108 0.976605
109 1.52533
110 0.863288
111 0.866425
112 -0.480367
113 -0.299284
114 -0.0496551
115 -1.02095
116 1.33154
117 0.973056
118 1.26694
119 -1.21952
120 0.82345
121 -0.430398
122 1.83373
123 0.51803
124 0.4739
125 0.0924893
126 0.172985
127 0.612028
128 1.09316
129 0.229201
130 0.783375
131 -0.382513
132 -1.64437
133 0.237937
134 -0.275485
135 -1.37755
136 0.680633
137 -0.837739
138 0.686779
139 -1.70688
140 -2.43584
141 0.0854326
142 -1.16155
143 -0.558047
144 -1.77634
145 0.737668
146 -1.26917
147 -0.338298
148 -0.123704
149 -2.14127
150 0.545178
151 -1.10704
152 -1.46628
153 0.185923
154 -3.41212
155 -0.210575
156 0.926361
157 -0.74632
158 0.0588391
159 0.776815
160 -0.482355
161 -1.2157
162 -1.13301
163 1.14758
164 -1.1868
165 0.0696768
166 -1.05007
167 0.565429
168 0.498208
169 -0.418217
170 -0.687169
171 -1.9181
172 0.486673
173 -1.15843
174 0.476272
175 -0.455779
176 0.424174
177 0.203684
178 0.440337
179 -0.487133
180 -0.0884056
181 0.282852
182 0.979513
183 -2.21644
184 0.646457
185 -0.581175
186 -2.40844
187 -1.04173
188 0.0235777
189 0.764536
190 1.41791
191 0.875376
192 -1.87762
193 -1.94162
194 0.57204
195 -0.628667
196 -1.29207
197 -0.81201
198 0.0380642
199 0.647429
200 -1.52635
201 -1.32064
202 -1.31737
203 -1.58775
204 0.101754
205 0.979056
206 -2.61451
207 0.00633436
208 1.00046
209 -1.41749
210 1.1355
211 -1.99949
212 -1.05496
213 1.5258
214 -0.596021
215 1.13957
216 -1.96999
217 0.651932
218 -0.309091
219 0.448008
220 0.198127
221 -0.971629
222 0.523923
223 -1.07847
224 -2.05112
225 -0.298886
226 0.224522
227 0.484055
228 -0.136445
229 -1.87903
230 0.671864
231 0.554988
232 -0.2514
233 0.662755
234 -0.819723
235 0.227098
236 0.127038
237 -0.307246
238 0.99047
239 1.03117
240 0.767004
241 0.942155
242 0.949947
243 -0.00686351
244 1.79333
245 -0.744912
246 0.345029
247 -0.0651574
248 -0.948169
249 0.779545
250 -0.73107
251 -0.386018
252 0.720209
253 -1.36551
254 -1.41643
255 -1.30874
256 0.322191
257 0.639023
258 -0.680605
259 0.247958
260 0.42215
261 -1.91708
262 0.74488
263 -0.410613
264 -0.611776
265 -0.593903
266 -0.943394
267 0.31149
268 -0.974198
269 1.67261
270 -0.650533
271 -0.0404215
272 -0.789907
273 -1.19556
274 1.3853
275 -0.319947
276 1.46485
277 0.639376
278 0.170308
279 1.01797
280 -1.88143
281 -0.359449
282 1.25527
283 -1.47468
284 -1.67616
285 0.746242
286 -0.220939
287 -0.104806
288 0.274441
289 -0.150368
290 0.831257
291 -0.044174
292 0.865303
293 -0.880741
294 0.520193
295 0.552499
296 1.57417
297 -0.875155
298 0.287807
299 -1.46015
300 -1.5063
301 0.721345
302 -0.862721
303 0.372645
304 -1.38089
305 1.00149
306 -1.33593
307 0.093406
308 -0.143769
309 -0.873885
310 0.169697
311 0.801706
312 -0.799549
313 1.49167
314 -1.29819
315 0.940328
316 1.07695
317 0.573151
318 0.133437
319 0.816728
320 0.0591182
321 -0.353766
322 -0.14571
323 -0.405416
324 0.815108
325 0.492018
326 -0.232532
327 -0.00804536
328 -0.0345674
329 -1.13757
330 -1.04485
331 0.935425
332 0.874355
333 -1.34717
334 0.641524
335 -0.337123
336 -2.36105
337 0.445443
338 -0.117084
339 -1.26228
340 0.479932
341 0.496404
342 -0.340996
343 -0.102709
344 0.343673
345 0.273995
346 0.306571
347 1.0686
348 0.00354103
349 0.98749
350 -1.95597
351 -1.69091
352 -0.256376
353 -0.752664
354 1.56212
355 -0.755996
356 -0.479466
357 0.743328
358 0.580555
359 -1.77422
360 0.216286
361 0.0696186
362 0.426117
363 -0.858884
364 0.247878
365 0.677867
366 -1.3949
367 -0.0704222
368 0.849446
369 -0.803288
370 0.323549
371 0.663565
372 -0.23852
373 0.33452
374 -0.268968
375 0.417166
376 1.49997
377 -1.63718
378 -1.06252
379 -1.86416
380 0.214455
381 -0.370499
382 0.133162
383 -2.06699
384 -0.859308
385 -1.77556
386 -0.734846
387 -0.0857899
388 0.955402
389 -0.101182
390 -1.43711
391 0.0111371
392 0.377356
393 -0.706282
394 -0.764538
395 -0.117258
396 0.527972
397 0.183789
398 -0.0271285
399 0.574201
400 1.21084
401 0.563929
402 -2.2638
403 0.234289
404 -2.48588
405 0.871624
406 -0.482854
407 -1.38698
408 1.17035
409 1.19035
410 0.129065
411 0.330227
412 1.55015
413 -0.331212
414 0.00396007
415 1.0598
416 2.13463
417 1.14382
418 0.578494
419 0.448541
420 -0.727651
421 -4.37439
422 1.39949
423 1.35995
424 -0.476646
425 -3.70256
426 0.522838
427 -0.833055
428 0.927977
429 -0.916774
430 1.01598
431 0.99206
432 1.10693
433 0.539621
434 1.41436
435 -0.35585
436 -1.564
437 -1.13886
438 0.5151
439 -1.35412
440 0.242069
441 0.157516
442 0.310301
443 -0.0117971
444 -1.34495
445 1.02127
446 -0.973902
447 1.48103
448 -2.57618
449 0.159178
450 -0.0382165
451 0.239024
452 0.0226779
453 0.34421
454 0.191442
455 -0.00228631
456 0.5304
457 1.34305
458 -0.0515663
459 -0.0134847
460 0.860651
461 0.906203
462 -0.321858
463 1.43268
464 0.679048
465 0.184696
466 0.409775
467 0.659298
468 1.45397
469 -0.92239
470 1.59794
471 0.211496
472 -0.900124
473 0.597334
474 -0.516466
475 1.29731
476 -0.0762546
477 -0.832225
478 -1.78762
479 1.27779
480 1.07473
481 0.372077
482 1.09916
483 0.88056
484 -1.49338
485 1.51318
486 -0.83547
487 0.487777
488 1.40587
489 -1.09117
490 -0.251167
491 -0.0118653
492 2.52983
493 0.115936
494 0.283339
495 0.501391
496 -0.954717
497 -1.31551
498 0.56958
499 0.244591
500 0.0405014
501 0.140874
502 0.365616
503 0.00465686
504 -0.779244
505 1.00095
506 -0.544946
507 1.02365
508 -1.41247
509 1.46659
510 1.36968
511 0.843203
512 -0.660048
513 -0.345021
514 -0.619769
515 0.549108
516 0.636957
517 0.00638193
518 -1.11233
519 0.216939
520 0.30204
521 -0.644106
522 0.804282
523 0.695512
524 1.46622
525 -1.06172
526 -0.535487
527 -0.283854
528 1.6051
529 -0.822462
530 0.523205
531 0.0135341
532 0.360808
533 -0.979826
534 0.877877
535 0.856811
536 0.553647
537 1.46856
538 1.08689
539 -0.794096
540 0.320417
541 1.06809
542 0.593004
543 -1.16525
544 -0.943145
545 0.187657
546 -1.16112
547 0.360516
548 0.290334
549 -1.71416
550 -0.12309
551 -1.78418
552 -1.65848
553 -0.37532
554 0.325767
555 0.0393458
556 0.343954
557 -0.161011
558 -0.553517
559 0.113048
560 0.589075
561 -0.697035
562 -0.99916
563 -0.183313
564 -0.907462
565 1.38775
566 0.193978
567 1.60401
568 -0.694146
569 -2.63218
570 0.974179
571 -0.570101
572 0.382007
573 -0.290376
574 -0.802342
575 0.0086347
576 0.128394
577 1.22398
578 2.53802
579 -0.35872
580 0.367913
581 0.848108
582 0.589749
583 1.67039
584 0.43206
585 -1.56029
586 -1.4115
587 1.59651
588 -1.65142
589 1.59797
590 -2.56571
591 1.12544
592 0.445055
593 -1.72896
594 0.163498
595 -3.1582
596 -0.962254
597 -0.39364
598 0.393869
599 -0.120716
600 0.190188
601 1.20064
602 0.191508
603 -0.399991
604 -0.599994
605 0.595978
606 0.136539
607 -1.53515
608 0.548396
609 -1.81961
610 -2.2025
611 -0.503683
612 -1.04487
613 0.858801
614 -0.404178
615 -0.605056
616 -0.0284485
617 -3.01015
618 0.181408
619 0.395575
620 -0.641445
621 1.30168
622 0.431984
623 1.16143
624 1.64035
625 1.21397
626 -0.294663
627 -0.145031
628 -0.277749
629 1.03334
630 -1.12762
631 -2.67728
632 -0.0442909
633 -0.21831
634 0.0940748
635 -0.0947937
636 -0.0895499
637 0.181676
638 -1.31833
639 -1.43208
640 -0.611109
641 -0.230687
642 -1.4757
643 0.319157
644 -0.772455
645 -0.41443
646 1.84749
647 -0.9244
648 -0.507505
649 -2.39132
650 -1.94058
651 0.507928
652 0.680007
653 -0.905671
654 0.296659
655 0.636237
656 -0.992502
657 1.67848
658 0.0229763
659 -2.816
660 -0.363927
661 0.633556
662 0.214101
663 -2.1088
664 0.831096
665 0.492745
666 -0.525746
667 0.594064
668 -1.57767
669 -0.735616
670 -1.49368
671 0.524631
672 1.22368
673 -0.557074
674 1.35558
675 -1.57859
676 1.16137
677 -0.194
678 -1.68423
679 0.261617
680 0.735494
681 0.297884
682 -0.669
683 -0.074209
684 -0.0690595
685 -1.01565
686 -0.193454
687 0.445203
688 -2.19264
689 0.706789
690 0.974486
691 -0.923537
692 1.01511
693 -1.77862
694 -0.740141
695 0.25493
696 -1.36761
697 0.57883
698 -1.65043
699 0.671569
700 1.58564
701 -2.04183
702 -0.390953
703 0.281862
704 -0.979894
705 1.08985
706 1.67233
707 0.327131
708 -1.6956
709 0.824461
710 0.734682
711 0.428151
712 1.24422
713 -2.19977
714 0.636525
715 -0.152263
716 1.19174
717 -0.0885109
718 -0.625351
719 1.62319
720 -1.06123
721 -0.459315
722 0.142062
723 -0.254599
724 -1.29707
725 0.387666
726 0.143171
727 -0.98666
728 0.820042
729 -0.533673
730 0.586075
731 0.452552
732 1.36718
733 0.6037
734 -0.238876
735 0.893703
736 -1.82839
737 0.409963
738 0.117922
739 1.16873
740 -1.54887
741 1.28941
742 1.15986
743 -1.21235
744 1.39121
745 1.12558
746 0.830645
747 -2.41421
748 1.17915
749 -0.465979
750 -0.387138
751 -0.617497
752 -1.00329
753 1.64419
754 0.514585
755 -0.367073
756 0.802713
757 1.14408
758 1.37023
759 -2.03442
760 -1.73497
761 0.62703
762 0.0184478
763 0.906488
764 1.00214
765 0.603125
766 0.713656
767 -0.831344
768 -0.723939
769 -1.27508
770 -0.441806
771 1.68766
772 -0.611526
773 0.412153
774 -1.1587
775 0.111835
776 1.19208
777 -0.145945
778 0.738701
779 1.35057
780 1.50989
781 -0.267965
782 0.631882
783 0.110173
784 0.79476
785 0.148234
786 0.741951
787 -0.398411
788 0.43847
789 0.8605
790 -0.268993
791 -1.75946
792 -0.651527
793 0.367905
794 0.897106
795 0.244006
796 -1.47815
797 -0.933823
798 -0.372473
799 0.991761
800 0.500662
801 -0.0671896
802 -0.228452
803 0.933494
804 0.408752
805 -1.53475
806 0.651122
807 -0.395542
808 0.411353
809 -1.47806
810 0.588186
811 0.108444
812 0.312152
813 -0.968973
814 1.23847
815 -0.226746
816 -1.45611
817 -1.35421
818 -0.896663
819 -1.9663
820 -1.46778
821 1.02353
822 -0.463672
823 0.091097
824 0.0331485
825 0.0269569
826 1.14209
827 0.866131
828 0.630477
829 0.143979
830 0.849426
831 -1.18923
832 -0.85454
833 1.16081
834 -1.03258
835 1.1525
836 -1.00008
837 -0.112643
838 0.209012
839 0.483692
840 0.263067
841 0.484198
842 0.626101
843 0.337832
844 -0.459426
845 -1.11473
846 0.408099
847 0.394197
848 -1.01981
849 1.54939
850 -0.742486
851 -0.124161
852 0.132687
853 -1.19673
854 0.890174
855 -0.707537
856 0.354306
857 -0.621637
858 -0.00508465
859 1.65907
860 -0.999501
861 -2.20196
862 -0.312221
863 0.696904
864 -1.2924
865 -0.997553
866 1.66357
867 1.68573
868 -0.720182
869 -3.22391
870 0.395261
871 -0.10337
872 0.936841
873 0.628155
874 0.306354
875 0.564181
876 1.4795
877 -1.33814
878 0.179034
879 -0.0924657
880 0.8719
881 0.0305718
882 0.400008
883 -0.808783
884 0.493778
885 -0.0591815
886 -0.230816
887 0.0628608
888 -1.30427
889 1.47371
890 -0.270994
891 -0.64147
892 -0.728327
893 -0.0591982
894 -0.091352
895 -0.577212
896 0.829503
897 0.444542
898 0.990031
899 -1.47202
900 -0.905432
901 -1.33217
902 -0.423174
903 1.42286
904 0.899857
905 -1.13304
906 -0.820588
907 0.617924
908 -1.78626
909 0.450013
910 1.65428
911 -1.03982
912 -2.15198
913 1.24072
914 1.73829
915 -0.00817792
916 0.40372
917 0.894062
918 1.35943
919 0.438579
920 -0.861482
921 1.08231
922 1.09096
923 -0.424061
924 0.647769
925 -0.301088
926 0.980338
927 1.26248
928 1.82301
929 1.2847
930 0.199581
931 -0.90533
932 1.0041
933 0.29932
934 -0.789461
935 0.830446
936 0.655246
937 -0.557749
938 -1.24627
939 0.220699
940 0.266884
941 0.0492367
942 1.34107
943 0.746852
944 1.11033
945 0.747045
946 -1.44811
947 0.753372
948 0.205768
949 1.45143
950 0.615307
951 -0.355275
952 0.331367
953 0.595626
954 0.516069
955 -1.83565
956 0.775734
957 -0.14049
958 -0.0578313
959 1.08041
960 0.25584
961 -0.470182
962 -0.364669
963 -0.0284838
964 0.668247
965 0.335143
966 -1.9383
967 1.25507
968 -0.228053
969 2.0037
970 0.548823
971 0.028892
972 0.503854
973 0.621491
974 -1.01416
975 -0.270794
976 1.32432
977 0.407572
978 -1.67125
979 -0.960748
980 -0.711648
981 0.445943
982 0.71205
983 -1.58486
984 -0.954091
985 0.676305
986 -0.234186
987 -1.03636
988 -0.0662825
989 -0.787206
990 -1.54609
991 0.55718
992 1.13341
993 0.777027
994 -0.519072
995 -0.430161
996 0.133638
997 0.19405
998 0.13823
999 1.25825
1000 -1.82519
1001 0.720539
1002 -0.211101
1003 -0.240827
1004 0.00161739
1005 0.0117076
1006 -0.436598
1007 -1.81582
1008 0.151155
1009 0.919681
1010 -1.3411
1011 -0.633127
1012 -0.684805
1013 1.15856
1014 0.620379
1015 0.382063
1016 0.558922
1017 0.624434
1018 -0.77491
1019 1.01112
1020 -1.53945
1021 -0.539429
1022 0.477994
1023 -0.924883
1024 0.678234
1025 -0.959533
1026 -1.8542
1027 -0.00273868
1028 -1.33127
1029 -0.807375
1030 -1.66116
1031 0.627367
1032 -1.00315
1033 0.0915805
1034 -0.112121
1035 -1.35756
1036 -1.42157
1037 2.05653
1038 -1.45597
1039 1.33575
1040 1.01241
1041 0.870879
1042 -0.153392
1043 0.732491
1044 1.06121
1045 0.00176196
1046 -0.753123
1047 -0.379056
1048 0.905193
1049 -0.488199
1050 0.0710633
1051 0.780386
1052 -0.87838
1053 0.93827
1054 0.726819
1055 0.625647
1056 -1.90529
1057 2.92957
1058 -1.61414
1059 0.532482
1060 0.273779
1061 -0.402541
1062 -0.927726
1063 -0.721913
1064 -0.405496
1065 0.640875
1066 1.00775
1067 2.08528
1068 1.39985
1069 -0.590575
1070 -0.663702
1071 -0.0496878
1072 -0.873506
1073 -1.94324
1074 1.55449
1075 0.472882
1076 1.5239
1077 1.48901
1078 1.17293
1079 -0.219727
1080 -0.227679
1081 0.570857
1082 -0.278672
1083 0.793738
1084 0.648483
1085 -0.896482
1086 -1.29449
1087 1.03232
1088 1.73173
1089 -1.02909
1090 1.22862
1091 0.945157
1092 -0.997677
1093 0.23227
1094 -0.16898
1095 0.548146
1096 0.281489
1097 0.000403036
1098 0.579867
1099 0.841435
1100 1.47864
1101 0.0272252
1102 -1.56379
1103 1.76025
1104 0.540117
1105 -0.629549
1106 -0.578336
1107 0.45239
1108 0.0517486
1109 -0.270391
1110 -0.607531
1111 1.04549
1112 0.588022
1113 0.936695
1114 -0.538889
1115 0.191891
1116 -1.05029
1117 1.49615
1118 0.0751174
1119 -0.367567
1120 0.170599
1121 1.11085
1122 -0.00899278
1123 0.732408
1124 -0.825368
1125 0.445922
1126 -0.636935
1127 -1.30825
1128 1.29485
1129 0.532153
1130 -1.64816
1131 0.2849
1132 -0.0756706
1133 0.436032
1134 0.528754
1135 0.713035
1136 0.284104
1137 1.93093
1138 -0.464437
1139 0.577557
1140 -1.16477
1141 1.39427
1142 -1.16134
1143 -0.587932
1144 0.296635
1145 1.25329
1146 -1.17168
1147 1.16166
1148 1.14909
1149 0.884293
1150 0.890137
1151 -0.491767
1152 -0.171686
1153 -0.831758
1154 -0.30778
1155 -2.36665
1156 0.757527
1157 -0.210994
1158 0.131763
1159 0.234994
1160 -0.366979
1161 -0.389122
1162 -0.393295
1163 -1.49573
1164 -1.63828
1165 0.8824
1166 -0.464302
1167 -0.84917
1168 0.27524
1169 -0.828621
1170 0.47909
1171 1.41881
1172 1.25218
1173 -0.881854
1174 0.138788
1175 -1.19467
1176 0.302265
1177 -0.615577
1178 -1.15037
1179 0.429969
1180 -0.762441
1181 1.53676
1182 1.12124
1183 0.0681492
1184 -1.77953
1185 -1.30474
1186 -0.0914101
1187 0.903838
1188 -0.480072
1189 0.0607634
1190 -0.819434
1191 -1.53637
1192 0.274999
1193 0.471509
1194 0.899636
1195 -1.33167
1196 0.965144
1197 -2.75327
1198 -0.973471
1199 -0.251639
1200 -1.37124
1201 1.78397
1202 0.754685
1203 1.08203
1204 0.455578
1205 0.371489
1206 1.29074
1207 -1.88582
1208 0.212705
1209 0.905921
1210 -1.49143
1211 -0.0912639
1212 -0.665473
1213 -0.563134
1214 0.540485
1215 0.654453
1216 -0.256435
1217 -0.270495
1218 -1.29009
1219 -1.91882
1220 -0.374818
1221 1.02938
1222 0.98459
1223 -0.141159
1224 -0.260687
1225 0.778229
1226 0.755577
1227 0.231173
1228 -0.932413
1229 0.424184
1230 -2.36274
1231 -1.38641
1232 0.135759
1233 0.503414
1234 0.93279
1235 0.495645
1236 1.49721
1237 1.31728
1238 0.435889
1239 1.31712
1240 1.58898
1241 -2.12388
1242 -0.214994
1243 0.164252
1244 1.40274
1245 -0.982141
1246 0.755257
1247 0.81085
1248 1.03121
1249 1.03159
1250 -1.14819
1251 0.471526
1252 -0.864014
1253 1.22555
1254 1.17637
1255 1.02024
1256 -0.787244
1257 0.00823033
1258 1.28806
1259 0.764403
1260 -0.0691269
1261 1.46402
1262 -0.0163081
1263 0.58898
1264 0.169136
1265 -1.14556
1266 0.710159
1267 0.888443
1268 0.0367522
1269 -0.66127
1270 0.568467
1271 0.67223
1272 -0.229851
1273 -0.981671
1274 0.0488325
1275 1.64222
1276 1.01466
1277 -0.225379
1278 -0.128527
1279 -1.04799
1280 0.583372
1281 1.11334
1282 -0.645258
1283 0.83243
1284 -0.0376289
1285 -1.65648
1286 2.06693
1287 0.797806
1288 0.475499
1289 1.60367
1290 1.96741
1291 1.07694
1292 -0.474008
1293 -1.11161
1294 -0.203768
1295 1.11654
1296 0.853629
1297 0.671595
1298 0.0710692
1299 0.397905
1300 0.537648
1301 -0.780302
1302 0.402531
1303 -0.88567
1304 -0.923487
1305 0.674348
1306 0.714054
1307 1.63083
1308 1.51339
1309 0.00327201
1310 1.47337
1311 -0.153703
1312 0.0902621
1313 0.432971
1314 -0.161957
1315 -0.137296
1316 0.315938
1317 -1.05964
1318 0.629539
1319 -0.472043
1320 1.30976
1321 0.724652
1322 0.144176
1323 0.151249
1324 0.397153
1325 0.756542
1326 0.502252
1327 -0.727346
1328 1.01993
1329 -0.839647
1330 0.567004
1331 -0.292012
1332 -0.361867
1333 0.633059
1334 0.275438
1335 -0.143551
1336 -0.720186
1337 0.543327
1338 0.685041
1339 0.135238
1340 -1.39633
1341 -0.952228
1342 1.07243
1343 -1.20034
1344 0.960203
1345 0.975522
1346 1.25114
1347 0.698441
1348 0.908362
1349 -0.47902
1350 -0.826171
1351 1.52917
1352 1.06578
1353 0.620606
1354 1.50733
1355 1.07455
1356 -1.42314
1357 0.462851
1358 -1.60621
1359 -2.58337
1360 0.2895
1361 1.85516
1362 0.877548
1363 0.834483
1364 1.23597
1365 0.356989
1366 0.731622
1367 1.37961
1368 -0.688319
1369 0.763722
1370 0.540929
1371 0.528295
1372 0.0233484
1373 -0.371106
1374 1.62757
1375 -1.38299
1376 0.21491
1377 -0.438315
1378 -0.119849
1379 0.683311
1380 -2.85105
1381 -0.925836
1382 1.19958
1383 -3.99859
1384 0.193632
1385 -1.02321
1386 0.950579
1387 -0.356914
1388 -2.11859
1389 0.296613
1390 0.835292
1391 1.17086
1392 0.332996
1393 0.707407
1394 -0.280968
1395 0.0941352
1396 0.0119125
1397 -0.180446
1398 0.187966
1399 1.07206
1400 0.89129
1401 -0.850837
1402 1.0774
1403 -0.340594
1404 -1.07787
1405 -1.95134
1406 -0.985495
1407 0.669399
1408 1.37022
1409 0.602366
1410 0.979614
1411 1.21725
1412 1.56071
1413 -0.332802
1414 -1.13173
1415 0.582909
1416 -0.461712
1417 -0.710777
1418 -0.544365
1419 1.14664
1420 -1.40945
1421 -1.3448
1422 -0.277194
1423 0.673225
1424 0.737118
1425 0.416878
1426 0.252144
1427 0.57124
1428 1.64375
1429 -0.800137
1430 1.32992
1431 0.0314751
1432 0.253367
1433 -0.900292
1434 -0.657326
1435 1.27885
1436 0.380358
1437 0.906912
1438 -1.36363
1439 0.430725
1440 0.0121789
1441 -1.13916
1442 -0.804385
1443 1.01449
1444 -1.27105
1445 1.2277
1446 0.242632
1447 0.363565
1448 0.761191
1449 0.1848
1450 -1.1357
1451 1.53061
1452 1.00342
1453 -1.69928
1454 0.869346
1455 0.623516
1456 1.76228
1457 -0.580601
1458 0.1592
1459 1.17273
1460 -3.25444
1461 0.905241
1462 -1.76392
1463 0.712151
1464 1.09035
1465 1.08353
1466 -0.346451
1467 -0.968833
1468 0.61671
1469 -0.0145964
1470 -0.259878
1471 -0.843285
1472 0.586579
1473 1.06977
1474 -0.0898608
1475 0.391941
1476 0.352553
1477 0.552132
1478 0.673373
1479 0.390725
1480 0.63551
1481 0.802808
1482 -0.456256
1483 -1.93557
1484 0.23007
1485 1.23605
1486 -1.2716
1487 0.137676
1488 0.362693
1489 1.71418
1490 -0.486802
1491 -2.30058
1492 -1.6155
1493 0.201089
1494 0.281132
1495 -2.21185
1496 -0.88204
1497 -0.414898
1498 -0.898288
1499 -0.693284
1500 -0.105102
1501 -0.087679
1502 0.884955
1503 1.40105
1504 1.30675
1505 0.957646
1506 -1.39394
1507 0.670307
1508 -0.475434
1509 -0.354593
1510 -1.77045
1511 0.626541
1512 1.20782
1513 -0.0393898
1514 0.322847
1515 -0.997365
1516 -0.264262
1517 -0.252055
1518 -0.474081
1519 -1.12543
1520 0.851006
1521 -1.33193
1522 0.808825
1523 -0.290365
1524 0.670859
1525 -0.206079
1526 0.0746603
1527 -0.566868
1528 1.04425
1529 1.11711
1530 1.10685
1531 0.729512
1532 0.0561587
1533 -0.290039
1534 -0.421735
1535 -1.17272
1536 1.22911
1537 0.577732
1538 0.903798
1539 0.606836
1540 -1.25275
1541 1.7657
1542 -0.918055
1543 0.375207
1544 -1.24596
1545 0.434735
1546 -1.97199
1547 0.544539
1548 0.146878
1549 1.25841
1550 0.480524
1551 0.804187
1552 0.85076
1553 0.712196
1554 -0.718145
1555 -0.16856
1556 1.15614
1557 0.284397
1558 -1.07426
1559 1.54537
1560 1.23117
1561 1.30891
1562 0.852867
1563 0.572134
1564 0.31247
1565 0.280959
1566 0.358874
1567 -0.317354
1568 -1.9039
1569 1.05261
1570 1.33427
1571 0.352496
1572 -1.18108
1573 -1.06281
1574 0.0779623
1575 -1.25855
1576 -1.41036
1577 0.290126
1578 -2.60481
1579 0.606964
1580 -0.599303
1581 -0.247537
1582 -1.65185
1583 -0.612899
1584 -1.62474
1585 -0.576642
1586 -0.496846
1587 -0.867644
1588 0.443835
1589 0.0462058
1590 0.798804
1591 -0.173108
1592 1.09216
1593 0.897951
1594 0.77495
1595 -0.0492877
1596 0.00160334
1597 -0.213036
