1 1.26117
2 -0.176013
3 -0.455638
4 1.24668
5 0.620951
6 0.675053
7 -0.238445
8 -0.463718
9 1.1252
10 0.262962
11 0.245468
12 0.565473
13 0.782288
14 0.113422
15 -1.06468
16 0.0150654
17 0.027713
18 1.1367
19 -0.694654
20 -0.728357
21 -0.0323545
22 -0.2305
23 0.833958
24 0.100621
25 -0.21263
26 -2.3461
27 0.968937
28 0.304197
29 -0.332516
30 -0.1795
31 -0.977608
32 0.373854
33 0.92337
34 -0.266096
35 0.31168
36 -0.845057
37 -1.1443
38 0.603022
39 -1.14063
40 -1.07456
41 1.39559
42 -0.82433
43 -0.532697
44 1.41129
45 -1.12968
46 1.46134
47 1.35826
48 -0.653773
49 -1.07681
50 -0.640251
51 -2.21359
52 0.718773
53 -0.36816
54 -0.171146
55 -0.429198
56 -0.592467
57 -0.716792
58 -0.661878
59 -0.903813
60 -2.64554
61 0.159082
62 -0.0964491
63 0.403066
64 0.586477
65 -2.31406
66 -0.279794
67 -1.0012
68 1.38166
69 -0.833686
70 1.59498
71 0.156907
72 0.606826
73 -1.06244
74 0.689477
75 -0.355492
76 0.712927
77 0.772428
78 0.3012
79 -0.213734
80 0.109024
81 0.984923
82 1.5814
83 0.45082
84 1.04605
85 1.02725
86 1.09625
87 -0.88795
88 0.822741
89 1.02357
90 1.22968
91 0.166261
92 1.08084
93 -0.636842
94 0.472071
95 1.37202
96 0.663165
97 1.1779
98 0.649715
99 0.940609
100 0.713844
101 -2.0864
102 0.234703
103 -0.265333
104 -0.149793
105 -0.713084
106 0.631374
107 1.47215
108 -0.766247
109 0.91804
110 1.60149
111 -0.688618
112 -0.746829
113 0.218393
114 -0.814139
115 1.34588
116 0.45452
117 0.861622
118 0.141918
119 -0.700581
120 0.507634
121 1.13531
122 -0.780555
123 -1.04443
124 -0.840309
125 0.402575
126 0.13936
127 -0.289615
128 -2.27717
129 -0.361406
130 -0.559927
131 -1.08195
132 -0.372292
133 -0.306969
134 0.31857
135 -0.181701
136 -0.205734
137 -0.849193
138 1.07525
139 -0.288549
140 -0.967471
141 0.515569
142 0.703853
143 0.0508917
144 0.337705
145 -1.6257
146 -0.113637
147 0.934201
148 -0.030404
149 -1.86512
150 0.282034
151 -2.01908
152 0.600614
153 -0.464591
154 0.195355
155 0.307124
156 0.886992
157 1.219
158 0.863188
159 -0.430596
160 -1.26485
161 -0.39913
162 0.400977
163 -2.74803
164 -0.948967
165 -0.744352
166 0.311561
167 -0.396002
168 -0.0864517
169 1.52859
170 0.876026
171 -1.26455
172 -1.54791
173 0.0455101
174 0.281008
175 -1.58655
176 -2.30863
177 1.18126
178 0.0816261
179 -0.103759
180 -0.441975
181 -0.847138
182 2.20958
183 0.527012
184 -1.17058
185 -1.19629
186 -0.573349
187 -0.606722
188 -0.601544
189 -0.822063
190 -0.916736
191 -2.96435
192 -1.50057
193 -1.24547
194 0.702454
195 -2.41532
196 0.158124
197 0.445778
198 -1.87574
199 0.407208
200 0.53501
201 -1.0155
202 -0.80401
203 -1.08908
204 -0.922877
205 0.685542
206 0.418323
207 -1.4238
208 -0.877096
209 -0.514143
210 0.539364
211 0.24721
212 0.191786
213 -0.530966
214 -0.861895
215 0.166252
216 -1.34498
217 -3.27842
218 1.02113
219 -1.93275
220 -0.265834
221 -1.09365
222 -0.0534634
223 0.0761799
224 0.255078
225 -0.792426
226 -0.508846
227 -0.415488
228 0.790546
229 2.00053
230 0.856856
231 0.351227
232 0.881478
233 -2.41401
234 0.18463
235 0.109601
236 0.898031
237 -0.380958
238 -0.0274484
239 -1.8068
240 -0.0588688
241 -1.77335
242 0.0940768
243 1.24918
244 -1.06408
245 -1.01104
246 -0.0377302
247 -2.71586
248 -0.697376
249 -0.355146
250 -0.108704
251 0.661287
252 -1.9403
253 -0.227296
254 -0.450705
255 -0.30201
256 0.838032
257 1.55606
258 0.206282
259 1.19949
260 -0.451498
261 0.607512
262 -1.98808
263 -1.14746
264 1.38975
265 -0.351039
266 0.674793
267 -0.784506
268 -1.26924
269 -0.711766
270 0.606319
271 -1.6795
272 -1.44714
273 -0.391398
274 -0.572222
275 -0.358358
276 -0.931768
277 0.116432
278 -0.352494
279 0.225682
280 0.579535
281 1.17857
282 0.36022
283 -0.364062
284 0.164277
285 0.697184
286 -0.319961
287 0.338132
288 -1.5841
289 -0.766504
290 -0.215601
291 -1.52486
292 -2.03922
293 0.636786
294 -1.03615
295 -0.611189
296 0.436104
297 -0.642379
298 -0.189619
299 -1.1699
300 -1.08771
301 0.0150905
302 -0.669493
303 0.037859
304 0.187277
305 -0.617379
306 0.521521
307 -0.67536
308 0.528093
309 -0.267465
310 -0.091373
311 -0.285007
312 0.148484
313 0.507875
314 -0.46436
315 -0.691495
316 0.48166
317 -0.474042
318 -1.0553
319 0.11228
320 -0.0302686
321 -1.64374
322 0.816205
323 -0.332086
324 -1.73292
325 -1.61918
326 0.417082
327 -0.220346
328 0.232101
329 -0.236468
330 0.324582
331 0.4939
332 0.512383
333 0.598007
334 0.491885
335 -3.47861
336 0.414753
337 0.691185
338 -0.27637
339 0.944662
340 -0.654631
341 0.801522
342 0.267536
343 -4.24207
344 -2.49518
345 0.537149
346 -0.726201
347 0.206265
348 1.03471
349 0.892159
350 -0.245527
351 0.085635
352 -0.44959
353 0.181033
354 0.699141
355 -0.378379
356 -1.19026
357 0.109882
358 0.341869
359 -2.60595
360 -0.4316
361 -1.02766
362 -0.180713
363 -1.39008
364 -0.143717
365 0.0437788
366 -1.37667
367 -0.286865
368 0.115881
369 0.369313
370 -0.281486
371 -0.147897
372 0.45604
373 0.912134
374 -1.52565
375 -1.27913
376 -0.600442
377 -1.15156
378 -0.0995316
379 -0.791537
380 1.9038
381 0.954849
382 -0.540552
383 0.290448
384 -0.289949
385 -1.36839
386 0.954506
387 0.243223
388 -0.583919
389 -0.185779
390 -0.841525
391 0.0841042
392 1.13198
393 -0.142314
394 0.619478
395 -1.30548
396 -0.794497
397 -0.0277404
398 -0.860538
399 -0.428589
400 -0.265861
401 -1.10752
402 -0.0383648
403 -0.348315
404 0.530425
405 -0.0523102
406 1.79121
407 -1.14401
408 1.26664
409 0.67444
410 -0.633204
411 0.795994
412 1.38222
413 0.51345
414 0.942483
415 0.35418
416 0.807307
417 -0.192088
418 -0.914425
419 0.750553
420 -0.514812
421 -0.620634
422 -0.308832
423 -1.19738
424 -1.43536
425 0.583683
426 -1.02823
427 -2.97721
428 -2.10539
429 -0.45005
430 -0.952274
431 0.0967294
432 0.141239
433 0.956009
434 1.75046
435 0.848375
436 -0.19153
437 -0.0766024
438 -1.53313
439 0.873562
440 -0.648649
441 -0.653947
442 -0.587224
443 -1.27098
444 -0.156562
445 0.354298
446 -0.675778
447 -1.11277
448 0.814511
449 -0.60115
450 -1.57284
451 0.819792
452 -0.0563217
453 -0.0927475
454 -0.40037
455 0.467552
456 -2.82545
457 -0.212475
458 0.140397
459 1.08858
460 -1.74829
461 -1.06811
462 -0.468656
463 0.565195
464 -0.585212
465 -1.2679
466 -2.00084
467 -0.304119
468 -2.5905
469 -0.973359
470 0.278012
471 0.956043
472 -0.890186
473 -1.71238
474 0.465077
475 -0.430609
476 0.359778
477 0.816115
478 -1.34316
479 -0.640003
480 0.751524
481 -1.98248
482 -1.14043
483 0.561271
484 -0.880788
485 -1.64337
486 0.352931
487 1.54202
488 1.4558
489 -0.508659
490 0.602407
491 1.38166
492 -0.918445
493 -1.99128
494 0.849608
495 0.480898
496 -0.220547
497 -0.646712
498 0.0229716
499 0.522803
500 0.690024
501 0.949876
502 1.8682
503 0.843998
504 -0.620465
505 -0.859375
506 1.24383
507 0.430309
508 -0.580136
509 1.39624
510 -0.31372
511 0.464579
512 1.24895
513 -0.947405
514 -0.555168
515 1.44169
516 0.932847
517 1.30986
518 -0.121316
519 -0.761221
520 -0.107348
521 -1.24345
522 0.248382
523 0.0556938
524 -0.301463
525 -0.343724
526 -0.285343
527 -0.757872
528 -0.683371
529 1.39083
530 1.55135
531 1.94596
532 0.543862
533 0.448928
534 -1.16992
535 -0.31852
536 0.704512
537 -0.533071
538 0.299858
539 0.802377
540 -0.341764
541 0.332564
542 -1.63828
543 0.90871
544 0.378142
545 1.1789
546 -0.754879
547 -0.222672
548 1.73124
549 -1.45889
550 0.732535
551 2.26146
552 1.25413
553 -0.123586
554 -1.11366
555 0.140813
556 -0.719086
557 -1.12421
558 1.56063
559 -0.480219
560 -0.466558
561 1.0382
562 1.87274
563 1.54546
564 1.29285
565 -1.50641
566 -1.56818
567 0.716906
568 0.407435
569 -0.296827
570 -1.30773
571 0.77882
572 1.09589
573 1.22567
574 1.25486
575 0.493755
576 1.29229
577 1.4381
578 1.35861
579 -0.661153
580 2.00446
581 1.30803
582 0.00734357
583 -1.15099
584 0.463105
585 -1.31983
586 -1.89868
587 0.97061
588 -1.49573
589 -1.69144
590 0.983301
591 0.280141
592 -1.27379
593 -1.82781
594 -0.341281
595 -0.824772
596 -0.299988
597 -1.13114
598 0.501577
599 0.79016
600 -0.474863
601 0.32619
602 0.334564
603 1.36911
604 0.234323
605 -0.070752
606 0.357822
607 0.8257
608 -0.535318
609 0.704315
610 -0.254735
611 -1.3837
612 -0.656718
613 0.5427
614 -1.18558
615 0.968123
616 -2.9461
617 -0.226362
618 -1.11186
619 -2.06234
620 -0.278092
621 -0.979808
622 -3.08223
623 -0.153344
624 -0.100149
625 0.0615398
626 0.05037
627 0.00356289
628 -1.38733
629 -2.39831
630 0.523795
631 0.284971
632 -0.450249
633 -0.0639183
634 0.324823
635 -1.60914
636 -0.725719
637 0.138168
638 0.442252
639 -0.786501
640 -0.0334663
641 0.58008
642 -0.6591
643 0.845428
644 -0.423231
645 0.147379
646 -1.01587
647 -2.16051
648 0.0889577
649 0.676468
650 0.752133
651 -0.206247
652 0.745458
653 -0.25968
654 -0.0604528
655 -0.17329
656 0.711089
657 -0.883179
658 -1.72797
659 0.638141
660 -0.660535
661 0.0160148
662 1.02236
663 0.589941
664 -0.512153
665 0.552804
666 -1.70082
667 -0.387389
668 -2.31579
669 0.0219065
670 0.353695
671 -2.34555
672 -2.05268
673 -0.449463
674 -1.05559
675 -1.32127
676 -0.0173565
677 -1.21705
678 -0.219184
679 -0.660706
680 -0.545544
681 1.86984
682 -0.131137
683 -0.329549
684 -0.930147
685 1.55325
686 0.826436
687 0.645515
688 0.502362
689 -0.0547161
690 -0.785607
691 0.92436
692 -0.423982
693 0.672342
694 0.731459
695 1.78473
696 0.655704
697 0.431336
698 -1.20255
699 -0.22562
700 -0.931346
701 -2.82165
702 -0.522432
703 0.0598481
704 -0.461547
705 0.216586
706 0.0940453
707 0.223827
708 0.931023
709 0.859597
710 0.176116
711 0.0840094
712 0.527071
713 0.234678
714 0.638448
715 -0.579244
716 1.06702
717 -0.300149
718 -0.531812
719 1.74443
720 0.664513
721 0.0965365
722 1.21093
723 -1.31546
724 -0.881636
725 0.760516
726 1.22547
727 -0.571528
728 -0.730985
729 0.917741
730 -0.483666
731 0.910465
732 -0.478371
733 0.910245
734 1.22586
735 -0.130839
736 -1.31029
737 0.461054
738 0.0568072
739 -0.0425968
740 -0.984613
741 1.92597
742 0.656548
743 1.00355
744 -0.0115559
745 0.979112
746 0.383755
747 -1.58266
748 1.46003
749 -0.202136
750 0.0152926
751 0.979959
752 0.440486
753 -0.546214
754 -1.48599
755 0.271287
756 -0.835189
757 0.101674
758 0.484024
759 0.396648
760 1.55776
761 0.89819
762 0.606488
763 -0.937603
764 0.940443
765 -1.42667
766 0.494803
767 1.32653
768 -0.28665
769 -0.216315
770 0.991652
771 -1.58744
772 -1.10922
773 0.320892
774 1.61506
775 -2.26347
776 -2.02495
777 0.792171
778 0.783096
779 0.47899
780 -2.03344
781 -0.900206
782 -1.23745
783 0.800303
784 0.644249
785 0.620192
786 0.426043
787 -0.218888
788 1.24532
789 0.135292
790 0.535923
791 -0.0337122
792 0.0107006
793 -2.16957
794 -0.897522
795 -1.14207
796 1.2368
797 1.27036
798 1.48683
799 -0.580888
800 0.523259
801 1.02995
802 -0.227784
803 -0.727385
804 -0.271398
805 1.03547
806 -1.77757
807 -0.0815771
808 1.03532
809 0.800524
810 1.10705
811 -0.28414
812 -1.0749
813 2.29234
814 -1.24568
815 0.416833
816 -0.263008
817 0.849833
818 1.13013
819 1.27727
820 1.41291
821 0.857329
822 1.01156
823 0.590574
824 -0.34291
825 1.23264
826 0.452846
827 0.9888
828 1.24023
829 -0.128362
830 -1.29815
831 0.811352
832 0.033609
833 -0.683193
834 1.09229
835 -0.189418
836 -0.000596763
837 -0.677212
838 -0.00333647
839 -1.16869
840 -0.627241
841 -0.690029
842 -0.973992
843 -0.530883
844 0.295605
845 -0.374269
846 1.84154
847 -1.02104
848 0.328999
849 -2.81797
850 0.593124
851 -0.0132039
852 1.19573
853 2.16267
854 1.39263
855 -0.0253642
856 -1.32246
857 -0.0354734
858 1.27406
859 -0.820022
860 0.27996
861 1.15545
862 -0.556183
863 -0.723186
864 1.62865
865 -0.454327
866 -0.335622
867 -0.997289
868 1.11189
869 -0.594943
870 0.160205
871 0.35835
872 -1.22371
873 0.999934
874 0.0651003
875 0.484752
876 -0.190145
877 0.963208
878 -2.81303
879 -1.70004
880 -0.766921
881 1.85381
882 -0.0988971
883 -1.25897
884 0.416949
885 1.6548
886 0.258355
887 0.483198
888 0.339438
889 0.349636
890 -0.747992
891 -1.45807
892 -0.32409
893 0.520737
894 -0.853933
895 -0.131432
896 1.10501
897 -1.04186
898 1.04458
899 0.79156
900 0.717499
901 0.407813
902 -1.24215
903 0.0417478
904 -1.20077
905 1.71562
906 0.781871
907 -1.71355
908 1.18315
909 -0.193615
910 0.662373
911 1.60672
912 0.408261
913 1.2211
914 -1.06238
915 0.862223
916 0.518394
917 0.857751
918 1.49378
919 0.388037
920 0.911851
921 1.30704
922 1.03458
923 -2.58603
924 1.45192
925 0.275627
926 -0.416725
927 -0.332796
928 -1.50974
929 0.354328
930 -0.296593
931 -2.18114
932 0.11534
933 0.953518
934 2.2446
935 -0.900133
936 0.565659
937 -0.207996
938 0.170173
939 0.0957652
940 1.6364
941 -1.0774
942 1.30178
943 0.356357
944 1.40612
945 -0.999857
946 -0.137319
947 -0.210677
948 1.45884
949 0.714639
950 1.03158
951 0.819933
952 1.56636
953 0.205784
954 0.350514
955 1.33468
956 0.484694
957 0.341636
958 1.22702
959 -1.61879
960 -2.32397
961 0.163138
962 -0.627697
963 0.440182
964 -0.110414
965 -0.52694
966 0.84133
967 0.0185301
968 -1.79616
969 -1.47422
970 -0.332312
971 0.849371
972 -0.7138
973 0.265951
974 1.31658
975 -0.499449
976 -0.0463943
977 0.298597
978 -1.30021
979 0.443243
980 -0.443994
981 -0.00967295
982 1.1486
983 0.619975
984 0.187948
985 -1.47766
986 0.0217672
987 -0.540872
988 -1.50505
989 -0.322715
990 0.742662
991 -0.0799079
992 1.15646
993 0.00302119
994 -1.1477
995 -0.131917
996 -0.300179
997 -0.822228
998 -0.0561546
999 -1.92221
1000 0.292532
1001 -0.819759
1002 -0.462519
1003 -0.743374
1004 -0.723825
1005 1.02222
1006 -0.196478
1007 0.461528
1008 -0.982546
1009 -4.6472
1010 -0.778677
1011 0.564296
1012 -0.886645
1013 -0.838824
1014 0.415384
1015 -0.820243
1016 -0.255235
1017 0.641359
1018 -0.418382
1019 0.519168
1020 -0.81685
1021 0.919689
1022 -1.11544
1023 1.1174
1024 1.31027
1025 0.479052
1026 0.661282
1027 -0.245677
1028 -0.951099
1029 0.821884
1030 1.09346
1031 -0.80759
1032 -2.29965
1033 1.02599
1034 -0.609539
1035 0.635161
1036 -0.584945
1037 0.467454
1038 1.05104
1039 0.693612
1040 1.75961
1041 -0.600704
1042 -0.0788455
1043 0.444501
1044 -0.0102187
1045 -0.242935
1046 0.194381
1047 0.349027
1048 -1.12896
1049 -0.14185
1050 0.814161
1051 -0.212915
1052 -0.318851
1053 -0.943032
1054 0.846432
1055 0.957289
1056 0.432021
1057 0.181897
1058 0.0791605
1059 0.962777
1060 -0.623149
1061 -1.23585
1062 -0.329447
1063 0.85638
1064 0.318439
1065 0.907264
1066 1.52722
1067 0.989018
1068 -0.390812
1069 0.0958879
1070 -0.741025
1071 0.890006
1072 0.840027
1073 -1.29948
1074 0.94118
1075 0.691923
1076 -1.10065
1077 -2.15375
1078 -0.147806
1079 -0.565213
1080 -0.571064
1081 -0.216645
1082 0.144048
1083 -0.627606
1084 -1.81209
1085 -1.06474
1086 1.24413
1087 1.2915
1088 0.323843
1089 -0.504015
1090 0.371866
1091 -0.430498
1092 1.8341
1093 0.852883
1094 -0.689027
1095 -0.423819
1096 0.207695
1097 0.0749195
1098 0.766409
1099 -0.0638749
1100 0.67377
1101 1.1652
1102 0.576954
1103 -0.839457
1104 -0.249405
1105 -0.83342
1106 0.403932
1107 0.30934
1108 -0.451582
1109 0.558252
1110 -1.28054
1111 -2.67637
1112 0.823955
1113 0.155924
1114 -2.27529
1115 0.0561844
1116 -1.39336
1117 0.414177
1118 -0.472701
1119 1.94829
1120 1.74506
1121 1.51049
1122 0.295085
1123 1.30359
1124 0.117203
1125 0.943973
1126 -1.01928
1127 -1.38221
1128 -2.68757
1129 -0.433969
1130 1.30089
1131 -1.87199
1132 -1.19711
1133 0.559638
1134 0.658666
1135 0.211281
1136 -0.296027
1137 -1.10085
1138 -0.833647
1139 -1.11595
1140 1.20653
1141 1.58476
1142 0.991444
1143 0.686824
1144 0.476996
1145 -0.818843
1146 0.301487
1147 1.0007
1148 1.64255
1149 1.06466
1150 -0.700279
1151 0.38974
1152 0.199552
1153 -0.337352
1154 0.463947
1155 0.599405
1156 0.422222
1157 1.89163
1158 1.98493
1159 -0.372554
1160 1.95083
1161 -1.41134
1162 -1.15601
1163 0.88351
1164 0.545393
1165 0.773366
1166 0.547417
1167 1.17576
1168 -0.190029
1169 0.237924
1170 0.601717
1171 -0.0920674
1172 1.64975
1173 0.696528
1174 0.391499
1175 0.131902
1176 0.762185
1177 0.669519
1178 -0.701471
1179 1.58496
1180 0.37156
1181 0.271423
1182 0.594485
1183 0.774131
1184 0.351009
1185 -1.75988
1186 0.539169
1187 0.495976
1188 0.687924
1189 0.996144
1190 0.998501
1191 0.0322065
1192 -0.161964
1193 0.455757
1194 -2.16216
1195 -0.672242
1196 0.626829
1197 1.43177
1198 -0.282834
1199 0.215644
1200 0.139744
1201 -0.618025
1202 0.324021
1203 0.866657
1204 0.578298
1205 0.84691
1206 -0.391818
1207 0.960432
1208 0.445212
1209 -0.132193
1210 -0.326899
1211 0.119546
1212 1.24293
1213 1.11655
1214 0.338775
1215 0.128502
1216 -1.56845
1217 -2.10053
1218 -2.41197
1219 -0.0876948
1220 0.108867
1221 0.511361
1222 -1.52003
1223 -0.727575
1224 0.205341
1225 -0.658992
1226 1.29307
1227 0.00844265
1228 0.478125
1229 0.550363
1230 0.803895
1231 -0.229174
1232 1.60466
1233 0.45071
1234 1.05759
1235 0.5834
1236 0.102699
1237 -0.755317
1238 -0.0264033
1239 0.925182
1240 -1.12643
1241 -1.66756
1242 0.788922
1243 0.814538
1244 1.01884
1245 0.849819
1246 -0.0157631
1247 -1.11711
1248 -0.529927
1249 0.291568
1250 -0.133485
1251 1.48951
1252 1.22381
1253 0.401512
1254 -1.03556
1255 0.427634
1256 0.0135625
1257 1.11405
1258 0.643861
1259 0.498948
1260 0.47351
1261 -2.10272
1262 0.393383
1263 -1.59836
1264 -0.965497
1265 -2.34487
1266 -0.429399
1267 0.620211
1268 -1.33661
1269 0.709315
1270 1.10645
1271 1.03867
1272 -0.0699306
1273 0.214301
1274 -0.0304344
1275 0.728321
1276 -0.158535
1277 -0.143112
1278 0.547974
1279 0.184409
1280 1.22705
1281 0.672762
1282 1.52127
1283 -0.462457
1284 0.932035
1285 1.4666
1286 0.603196
1287 1.39382
1288 -1.52066
1289 0.669584
1290 -0.107498
1291 0.00818986
1292 0.608172
1293 -2.57539
1294 1.19318
1295 0.728508
1296 0.248321
1297 -0.191332
1298 -0.945427
1299 0.3695
1300 0.893933
1301 -1.01665
1302 -0.188249
1303 0.498594
1304 -0.624317
1305 -1.52008
1306 0.93431
1307 -1.56812
1308 -0.00591301
1309 1.23071
1310 -0.527141
1311 0.529997
1312 -1.30295
1313 0.649817
1314 -0.380317
1315 0.765834
1316 0.568275
1317 -1.08711
1318 1.61512
1319 -1.92971
1320 -1.00844
1321 0.817972
1322 0.723781
1323 -0.101789
1324 -0.930383
1325 -0.614694
1326 -0.885214
1327 -0.778593
1328 -0.665168
1329 -0.703595
1330 -2.3748
1331 -0.338473
1332 1.40097
1333 0.290954
1334 -1.32823
1335 0.624627
1336 -0.881486
1337 0.624415
1338 0.985342
1339 1.34026
1340 1.32262
1341 1.32637
1342 0.269174
1343 0.812346
1344 0.309483
1345 -0.268965
1346 0.710905
1347 -1.69161
1348 -0.459924
1349 -0.742553
1350 -0.493545
1351 0.765844
1352 -1.26264
1353 0.213733
1354 -0.504127
1355 1.16995
1356 0.942951
1357 -0.930109
1358 0.284073
1359 -2.33791
1360 -2.23763
1361 -0.794433
1362 -0.270593
1363 -0.708434
1364 0.88064
1365 1.19012
1366 0.702348
1367 -0.204886
1368 0.406257
1369 0.540399
1370 -2.70667
1371 -0.136157
1372 0.0832271
1373 1.43231
1374 -0.447708
1375 -0.00565135
1376 1.2105
1377 1.21223
1378 -0.196888
1379 0.144881
1380 0.172521
1381 -0.315303
1382 0.816271
1383 0.726708
1384 -0.47924
1385 1.20851
1386 0.342712
1387 -0.541974
1388 0.388171
1389 -0.0469262
1390 0.510144
1391 1.10486
1392 -0.458538
1393 1.37179
1394 -0.280767
1395 0.051726
1396 -2.46432
1397 -1.47614
1398 0.933792
1399 0.188963
1400 -2.19888
1401 0.673002
1402 -0.599943
1403 1.27096
1404 -0.0829819
1405 1.61979
1406 -1.64764
1407 -1.10417
1408 1.30249
1409 -0.192629
1410 0.368253
1411 0.661575
1412 1.10979
1413 -0.4142
1414 -0.783832
1415 0.390581
1416 -0.908937
1417 1.46361
1418 0.384361
1419 1.82762
1420 0.45116
1421 1.24517
1422 1.23084
1423 1.33548
1424 -0.854284
1425 -0.255012
1426 1.40758
1427 1.94758
1428 -0.420281
1429 0.981932
1430 0.772813
1431 1.06599
1432 0.504986
1433 -0.38176
1434 -1.11474
1435 0.587025
1436 0.170082
1437 0.104576
1438 -0.814761
1439 -0.884244
1440 0.922792
1441 -0.152345
1442 1.66014
1443 -0.50355
1444 0.0298262
1445 -2.1127
1446 -0.715546
1447 1.50434
1448 -0.0271561
1449 2.30318
1450 0.490311
1451 0.816652
1452 -1.92237
1453 -2.25985
1454 0.545397
1455 0.349036
1456 1.06323
1457 2.28381
1458 0.747384
1459 -1.76319
1460 0.467227
1461 -0.502216
1462 0.911251
1463 -0.800349
1464 -0.599078
1465 -1.93285
1466 -1.22949
1467 -0.545797
1468 -0.308331
1469 -0.224165
1470 -1.2385
1471 -2.37592
1472 0.454501
1473 -1.25842
1474 1.06874
1475 0.639947
1476 -0.880758
1477 1.41515
1478 -1.37852
1479 -0.783371
1480 -1.60281
1481 1.66091
1482 0.894249
1483 0.553713
1484 0.081425
1485 -0.389512
1486 -0.663205
1487 0.778574
1488 -1.17492
1489 1.21607
1490 -0.034659
1491 1.12291
1492 0.732177
1493 -0.64002
1494 1.46187
1495 0.31133
1496 -0.663085
1497 0.459038
1498 1.21228
1499 0.698882
1500 0.778804
1501 -0.378055
1502 -1.02092
1503 1.00711
1504 1.16839
1505 -0.0884068
1506 -2.02886
1507 -0.213893
1508 1.12348
1509 0.219555
1510 0.833881
1511 1.28519
1512 0.364157
1513 0.534182
1514 -0.231264
1515 1.17853
1516 -0.361005
1517 1.66413
1518 0.787059
1519 0.827999
1520 -1.43847
1521 1.30643
1522 1.02784
1523 -1.02458
1524 1.51695
1525 0.88915
1526 0.323775
1527 0.55566
1528 1.16019
1529 0.0856839
1530 -0.421974
1531 -0.724973
1532 0.379477
1533 -0.732911
1534 -0.0660531
1535 1.79164
1536 0.171478
1537 1.2095
1538 1.52598
1539 1.08723
1540 -0.815016
1541 1.41652
1542 -0.434622
1543 1.1487
1544 0.657016
1545 0.648617
1546 -1.25565
1547 0.558584
1548 1.08027
1549 0.741499
1550 1.61847
1551 1.85501
1552 0.02112
1553 1.50371
1554 -1.10837
1555 1.1521
1556 -0.306146
1557 0.00664548
1558 0.503322
1559 1.20428
1560 -1.59877
1561 1.28802
1562 1.12371
1563 -1.36254
1564 0.0540834
1565 1.22656
1566 -0.728059
1567 -0.00884393
1568 1.55846
1569 -0.810173
1570 -0.170691
1571 0.502074
1572 0.324328
1573 1.51661
1574 -0.802257
1575 1.00461
1576 0.319813
1577 0.457116
1578 -0.396549
1579 -0.936692
1580 0.334299
1581 1.20576
1582 1.66077
1583 -0.224849
1584 0.417892
1585 -1.12439
1586 1.2126
1587 -1.91505
1588 1.32485
1589 0.212878
1590 1.07278
1591 1.03568
1592 0.016282
1593 -0.249935
1594 0.580983
1595 -1.41721
1596 1.23728
1597 1.37352
