1 0.841428
2 -0.403896
3 0.214603
4 -0.255355
5 0.361495
6 0.28599
7 -0.584135
8 -0.926144
9 -0.08683
10 -0.2364
11 0.710114
12 -2.09798
13 0.150865
14 -0.334006
15 -2.66971
16 -0.212317
17 0.909754
18 -0.71751
19 0.456966
20 0.910564
21 0.692008
22 -0.200426
23 -0.373443
24 0.54158
25 0.211024
26 0.713199
27 -0.762938
28 -0.266507
29 0.831507
30 0.938481
31 1.22067
32 1.1713
33 0.573752
34 -0.640059
35 0.142883
36 0.164713
37 0.829875
38 0.779111
39 -1.77423
40 0.112055
41 -1.18083
42 -2.45015
43 -0.535363
44 0.641601
45 1.27752
46 0.620476
47 -0.747594
48 -0.408331
49 -0.52814
50 1.37613
51 -0.485121
52 -1.52471
53 0.997414
54 -1.26646
55 -1.1486
56 0.605821
57 0.866626
58 0.991024
59 0.261419
60 1.62452
61 0.0216613
62 0.399461
63 -2.64102
64 -0.497788
65 1.71618
66 1.31488
67 0.394773
68 0.944519
69 -2.29402
70 -2.07133
71 -0.565163
72 0.55171
73 0.459554
74 1.03967
75 0.495444
76 0.456226
77 -0.31343
78 1.52986
79 0.127975
80 -0.63382
81 0.361246
82 -0.81038
83 0.405422
84 0.262728
85 -0.600904
86 -0.578374
87 -0.295495
88 -1.45063
89 1.34703
90 0.419345
91 0.311988
92 1.15225
93 1.01015
94 -1.40326
95 0.0394849
96 0.311877
97 0.889586
98 -0.358701
99 0.361752
100 -2.90266
101 1.71946
102 0.976766
103 -1.15301
104 0.188111
105 1.38728
106 0.794284
107 -1.38623
108 -0.261137
109 -0.860444
110 -1.31998
111 -1.30534
112 -0.517604
113 -0.593617
114 2.06136
115 0.782059
116 0.596113
117 -0.381452
118 -0.60886
119 0.253948
120 0.195183
121 0.161391
122 -0.517861
123 0.378508
124 2.10716
125 0.97249
126 0.184745
127 0.697702
128 -0.766223
129 -0.0921444
130 0.386011
131 0.483535
132 0.945797
133 1.49055
134 0.597406
135 1.12645
136 -1.25041
137 0.206957
138 0.699735
139 1.17623
140 0.650685
141 1.19452
142 -1.68451
143 0.612513
144 0.293577
145 0.485455
146 1.01564
147 0.0262104
148 0.924989
149 1.77396
150 -1.69495
151 0.95097
152 -1.89955
153 1.18438
154 -0.3849
155 0.503907
156 1.26405
157 2.08718
158 1.31596
159 0.879178
160 -1.40275
161 0.37819
162 0.369018
163 0.298459
164 1.04739
165 -0.283242
166 1.25685
167 1.08161
168 -0.0714921
169 0.34035
170 -2.08645
171 0.379975
172 1.69601
173 0.39305
174 0.0664843
175 0.37695
176 -3.13363
177 1.39175
178 1.09051
179 0.94219
180 0.179735
181 1.61481
182 -0.489701
183 -0.240895
184 0.35205
185 0.868531
186 0.223961
187 1.07861
188 1.02784
189 0.387813
190 0.756731
191 0.82015
192 0.896755
193 0.796521
194 0.702422
195 0.346033
196 -0.645844
197 1.07951
198 1.324
199 0.410781
200 1.36038
201 1.05385
202 -1.59402
203 0.421267
204 1.387
205 -0.914956
206 0.576688
207 0.570966
208 1.50349
209 0.930683
210 0.720992
211 0.327105
212 -1.57705
213 1.37203
214 1.91128
215 -1.38799
216 -0.135873
217 0.751685
218 0.466065
219 -0.0464041
220 -0.426116
221 0.6009
222 1.15994
223 0.394741
224 0.662733
225 0.888515
226 1.24772
227 0.0447016
228 -2.01658
229 -1.19386
230 0.148099
231 1.10709
232 0.254106
233 0.106804
234 0.965637
235 0.0968915
236 0.679099
237 -0.15335
238 -1.02021
239 0.0730398
240 0.238505
241 -0.0840456
242 1.4744
243 -0.000228329
244 -0.393416
245 -1.42987
246 0.296126
247 0.314383
248 0.7242
249 -2.5274
250 -1.17712
251 0.838488
252 0.358763
253 1.38395
254 0.0591599
255 -0.341313
256 -0.662164
257 -1.12009
258 -0.192456
259 0.687633
260 0.474957
261 0.367198
262 1.39084
263 -0.585438
264 0.553653
265 0.588426
266 1.49441
267 0.201109
268 0.0527348
269 0.0871645
270 -1.38918
271 0.991299
272 -0.090433
273 0.790346
274 0.888579
275 0.388401
276 1.52761
277 1.21116
278 -0.66584
279 1.00053
280 0.519202
281 1.26109
282 1.45893
283 1.36486
284 -1.00817
285 0.546934
286 -0.431769
287 1.04698
288 -0.358101
289 -1.02603
290 1.25151
291 1.53775
292 -0.914414
293 0.386956
294 0.848903
295 -0.139365
296 -1.25825
297 -1.04908
298 1.51967
299 1.17367
300 0.870095
301 -1.22145
302 1.81595
303 0.579068
304 0.599227
305 2.01503
306 0.677256
307 0.788536
308 0.433574
309 -1.12405
310 0.317832
311 0.447227
312 0.820774
313 1.12956
314 1.8196
315 0.9016
316 1.96883
317 1.31157
318 1.02218
319 -2.37009
320 1.26344
321 1.39286
322 0.39535
323 0.537683
324 -1.8961
325 0.0477777
326 0.309172
327 0.218804
328 0.425415
329 0.313976
330 -0.496775
331 0.123174
332 0.139968
333 -0.161313
334 0.578828
335 1.07947
336 0.251682
337 -1.8027
338 0.443759
339 0.00586928
340 -0.243837
341 0.0170376
342 0.619049
343 0.157689
344 -0.0794494
345 0.642695
346 0.227682
347 0.359602
348 0.636386
349 0.860689
350 -0.245896
351 -0.0831954
352 1.27767
353 0.0359043
354 1.22283
355 1.08709
356 0.115394
357 0.430918
358 1.27929
359 1.34816
360 -1.5777
361 0.991387
362 -0.337479
363 1.17458
364 -0.788233
365 1.09093
366 1.02347
367 1.4575
368 -0.280961
369 -0.621031
370 -2.05166
371 1.34588
372 0.783202
373 -0.113291
374 2.25851
375 0.939015
376 -0.786509
377 0.71935
378 -0.382337
379 0.506566
380 -0.898683
381 -1.32848
382 -1.57783
383 0.585476
384 0.114116
385 0.638328
386 0.483128
387 -1.59895
388 -0.255617
389 0.811097
390 0.743575
391 1.27206
392 -0.372452
393 1.1729
394 0.473781
395 0.0531829
396 1.56544
397 -0.556312
398 1.09664
399 -0.878533
400 -0.219257
401 -1.60078
402 0.615918
403 -2.20285
404 0.390932
405 0.629626
406 0.275112
407 -1.81751
408 1.38929
409 0.223151
410 1.48995
411 -1.32895
412 0.753632
413 -0.612481
414 -0.0973984
415 1.08807
416 1.37761
417 -0.402084
418 -0.00873127
419 0.799401
420 0.729425
421 -0.796009
422 -1.60203
423 1.11771
424 0.94823
425 0.00170795
426 1.40636
427 0.657286
428 1.91388
429 1.0362
430 -1.79858
431 0.925205
432 -3.67556
433 -0.945238
434 -1.09904
435 1.5087
436 -0.926468
437 -0.487428
438 -0.155868
439 0.459786
440 0.672238
441 0.224365
442 -0.223462
443 0.766872
444 0.935966
445 1.12242
446 -0.507156
447 0.709026
448 -0.105382
449 -1.43495
450 1.06108
451 0.509528
452 0.469302
453 0.164291
454 0.767927
455 0.125139
456 -0.103833
457 1.82988
458 0.863376
459 -0.916359
460 0.718844
461 0.471453
462 -0.200705
463 0.368851
464 0.822387
465 1.31291
466 0.00738668
467 0.98725
468 0.452332
469 -1.35112
470 -1.40804
471 0.415285
472 0.291873
473 0.336065
474 1.43813
475 0.258057
476 -0.758305
477 0.829173
478 -0.932755
479 -1.37544
480 -1.94682
481 -0.335758
482 -0.488748
483 -0.836876
484 -1.5226
485 0.310423
486 0.0217217
487 -0.0315916
488 0.0083541
489 -1.20253
490 -0.341033
491 -0.93532
492 -1.29236
493 -1.48475
494 -0.112568
495 -0.1579
496 0.106761
497 -1.51757
498 -1.11442
499 -0.358596
500 -1.52365
501 1.22893
502 -0.248594
503 -0.697463
504 0.0910759
505 0.24568
506 0.84722
507 -1.58618
508 -0.613071
509 0.60369
510 0.308987
511 -0.092941
512 -0.830889
513 0.425108
514 -0.371557
515 -0.0965585
516 -0.514707
517 0.663858
518 1.37741
519 -1.86834
520 -0.247024
521 0.350658
522 0.394842
523 -0.129622
524 0.894378
525 0.26657
526 -0.206591
527 0.264942
528 0.147666
529 -1.28093
530 0.557089
531 0.76729
532 -0.384162
533 -3.53766
534 0.0598241
535 -2.12729
536 0.165987
537 0.209705
538 -0.644989
539 -0.646465
540 -0.581453
541 0.327311
542 -0.543063
543 -0.888063
544 0.325132
545 0.168757
546 1.49044
547 -3.40884
548 0.160918
549 -0.15131
550 -1.30204
551 -0.926866
552 -1.11338
553 0.774282
554 0.267644
555 -0.305001
556 0.203022
557 0.368931
558 -0.560877
559 0.111451
560 0.339877
561 -0.596833
562 0.327645
563 -0.0982032
564 1.72782
565 0.761405
566 -0.118937
567 -0.863562
568 0.456371
569 -0.10374
570 -1.48358
571 0.607542
572 -3.72828
573 0.548101
574 1.73795
575 0.842938
576 -0.0214893
577 -1.3335
578 -0.0764531
579 -1.13664
580 -0.989665
581 0.430973
582 0.87258
583 0.56791
584 1.75181
585 0.0648181
586 1.07761
587 -1.43258
588 -0.325201
589 0.376201
590 0.296789
591 -0.199928
592 0.218286
593 0.749942
594 -3.08712
595 -0.304243
596 0.337382
597 -0.146671
598 1.17066
599 0.780917
600 0.674975
601 -0.764343
602 -1.79907
603 0.0800973
604 1.42772
605 0.315663
606 0.386204
607 0.101617
608 0.917709
609 1.36335
610 -0.506871
611 1.31571
612 -1.41397
613 -1.8158
614 0.802011
615 -1.16751
616 -0.31191
617 0.639967
618 -1.99758
619 0.19146
620 -0.997895
621 1.33614
622 -0.38368
623 0.201574
624 1.36267
625 -1.4812
626 0.940337
627 0.363387
628 -0.918685
629 0.0733159
630 -0.215517
631 0.842467
632 0.374829
633 0.283509
634 -0.281809
635 0.560135
636 -1.07852
637 -1.53446
638 0.641854
639 -1.4517
640 -0.665429
641 -1.01617
642 0.0383861
643 1.05656
644 -0.98834
645 1.16406
646 -0.391693
647 0.0600852
648 0.786734
649 0.703628
650 -0.034084
651 1.19302
652 0.792351
653 0.694402
654 1.37441
655 0.906097
656 -0.198795
657 0.0362948
658 -0.261848
659 -0.254053
660 1.64629
661 0.589357
662 0.00831495
663 0.956394
664 -2.17213
665 0.203064
666 1.14179
667 0.802333
668 -0.72396
669 0.183708
670 1.2379
671 1.03213
672 0.535047
673 -0.994466
674 -0.774768
675 -1.65643
676 0.503043
677 -0.202378
678 0.877166
679 -1.06735
680 0.709647
681 0.561281
682 0.429193
683 -0.845635
684 1.1767
685 -1.63738
686 0.172354
687 -0.451712
688 0.223576
689 0.348768
690 -1.58791
691 1.23715
692 0.920523
693 1.38684
694 0.423059
695 0.762836
696 1.94493
697 0.967525
698 0.854515
699 0.276833
700 0.343376
701 0.643309
702 1.36709
703 0.97167
704 0.36591
705 -0.27143
706 0.463488
707 -1.06511
708 -0.995882
709 1.29907
710 -1.25996
711 -0.927563
712 1.7678
713 0.645832
714 -0.302279
715 -1.1899
716 -0.0207309
717 -0.950759
718 -1.03345
719 0.905558
720 1.085
721 1.3431
722 -0.275248
723 0.78558
724 -0.477862
725 -1.15589
726 -0.573834
727 0.216311
728 0.480047
729 0.423254
730 0.571834
731 0.406786
732 -2.03043
733 1.11065
734 1.02348
735 0.704239
736 -2.05142
737 0.364022
738 -0.90138
739 -0.791116
740 -0.670023
741 0.955941
742 -1.19353
743 0.482797
744 0.767004
745 -1.53576
746 0.311796
747 -0.154131
748 0.22839
749 0.0195363
750 -0.331324
751 -0.487966
752 -0.683191
753 0.703256
754 -0.047892
755 1.08894
756 -0.627308
757 0.26203
758 0.84391
759 0.334666
760 -1.7259
761 0.360342
762 1.45956
763 -0.799061
764 0.0570549
765 0.82067
766 -1.19842
767 -1.46649
768 -1.18668
769 -2.12044
770 -0.983493
771 -1.59102
772 0.942086
773 -0.418655
774 -0.813331
775 -0.132893
776 0.200142
777 -1.1462
778 -0.553567
779 1.26124
780 1.18248
781 0.775552
782 0.354228
783 -0.230009
784 0.0671083
785 -0.409585
786 -0.53452
787 0.498189
788 -0.319678
789 -1.38957
790 -0.287112
791 0.601126
792 2.49435
793 -0.282017
794 0.843689
795 -0.930997
796 0.523933
797 -2.28025
798 -0.235238
799 0.385268
800 -1.81505
801 -1.63686
802 1.48375
803 0.234251
804 1.51373
805 1.07615
806 0.413749
807 -0.843156
808 0.39979
809 1.06042
810 -0.319133
811 1.4621
812 0.483479
813 0.113502
814 -0.805924
815 -1.23667
816 -1.67239
817 -1.26993
818 0.874592
819 -2.31342
820 -0.0689524
821 -1.76086
822 0.31429
823 0.871272
824 0.619159
825 -1.22197
826 -1.33369
827 0.315034
828 0.818921
829 1.04571
830 0.403969
831 1.55896
832 -0.19876
833 -0.770364
834 -1.21142
835 -0.0919667
836 0.0274951
837 0.0546106
838 -1.44627
839 -0.0716244
840 0.972063
841 -1.25198
842 -0.818771
843 0.00450782
844 -0.499396
845 -0.105219
846 -0.290622
847 -0.973023
848 -0.45575
849 -1.03324
850 -0.768354
851 1.70449
852 -1.33008
853 -1.61367
854 0.597992
855 -0.509542
856 -0.0289227
857 0.809612
858 0.781772
859 0.72761
860 0.749653
861 -0.621724
862 0.523946
863 -1.26525
864 1.49571
865 -0.64071
866 0.044165
867 -0.0914827
868 -0.769107
869 1.18915
870 0.216911
871 1.26729
872 -0.305786
873 -1.4892
874 -0.908513
875 0.792117
876 -0.31534
877 -1.5468
878 0.572601
879 0.646933
880 0.493214
881 0.0500778
882 -1.43006
883 -0.653834
884 0.334541
885 -1.42579
886 -2.2566
887 -0.383463
888 0.165187
889 -1.30748
890 -0.985919
891 -0.649246
892 0.739853
893 0.180228
894 -0.82157
895 0.442471
896 -0.724917
897 0.701029
898 -0.276936
899 -0.211772
900 -0.0966309
901 -2.25114
902 1.03925
903 -0.350309
904 -1.71869
905 0.642156
906 -1.01572
907 -1.35699
908 0.671275
909 -0.618872
910 -1.40264
911 -1.3617
912 -2.65158
913 0.063058
914 0.729257
915 0.447408
916 -0.674983
917 -0.806016
918 -1.2491
919 0.226459
920 -0.592296
921 -1.04244
922 -0.714573
923 -2.31417
924 0.739369
925 -0.36709
926 0.627746
927 0.408045
928 -1.38102
929 0.134445
930 -0.55182
931 -0.183935
932 -1.45799
933 0.507192
934 -1.75786
935 -0.108545
936 -1.00686
937 -0.714654
938 0.582163
939 1.25672
940 -1.16086
941 -1.80033
942 -1.30713
943 -1.13101
944 -0.334949
945 -0.826301
946 0.547848
947 -1.70811
948 0.137582
949 0.118713
950 0.0451859
951 -1.32086
952 -0.399529
953 -1.39737
954 -0.280007
955 -1.819
956 -1.77678
957 0.229033
958 -0.487307
959 -0.74336
960 -1.12684
961 1.10067
962 -1.22649
963 0.0543492
964 0.636089
965 0.637058
966 0.041344
967 -2.368
968 1.01769
969 0.485204
970 0.509106
971 0.0859475
972 1.21074
973 -2.20797
974 1.50953
975 -0.352041
976 0.566105
977 -0.643346
978 -0.0720885
979 1.23764
980 0.36814
981 0.515075
982 0.731257
983 0.625386
984 0.332638
985 0.279762
986 1.31527
987 0.176916
988 -2.333
989 1.86625
990 -0.705166
991 -0.020569
992 1.14238
993 -0.471119
994 0.867544
995 0.779175
996 1.17551
997 1.37129
998 0.542719
999 -0.484939
1000 0.0711211
1001 0.560968
1002 0.00188556
1003 0.131862
1004 -0.107914
1005 -0.927742
1006 0.810324
1007 1.2529
1008 2.29138
1009 1.1142
1010 -0.0263574
1011 -0.940729
1012 1.15749
1013 0.613386
1014 1.09826
1015 0.923405
1016 0.650669
1017 -0.527977
1018 1.06097
1019 -0.617415
1020 0.424334
1021 1.07737
1022 -0.0737775
1023 0.920072
1024 -1.17677
1025 -1.22071
1026 0.756641
1027 1.29834
1028 0.577568
1029 -1.31133
1030 0.518533
1031 0.605816
1032 -1.5751
1033 -1.3259
1034 0.353673
1035 -1.16346
1036 -0.707846
1037 -2.4876
1038 0.127615
1039 0.403561
1040 0.660829
1041 -0.1716
1042 0.322033
1043 1.40484
1044 0.0388055
1045 0.778247
1046 1.51346
1047 0.768089
1048 -0.134516
1049 -0.748675
1050 -1.00387
1051 0.932804
1052 0.814113
1053 -2.81396
1054 0.698909
1055 -1.31543
1056 1.31699
1057 -0.381111
1058 0.708062
1059 -1.30722
1060 -1.493
1061 0.175025
1062 -1.04662
1063 -1.00103
1064 1.61047
1065 0.634307
1066 0.791628
1067 -1.28115
1068 0.496289
1069 0.93421
1070 -0.932531
1071 0.969717
1072 1.22334
1073 -2.117
1074 -2.0397
1075 -0.58358
1076 0.579731
1077 0.936852
1078 1.50465
1079 0.34988
1080 1.05074
1081 -1.01009
1082 0.0793101
1083 -0.670318
1084 -0.915515
1085 -1.20611
1086 1.22226
1087 0.486616
1088 -2.19479
1089 -1.29473
1090 -0.888672
1091 -1.20507
1092 1.03322
1093 -0.0729295
1094 0.362823
1095 -1.73108
1096 -1.35346
1097 0.504042
1098 1.07145
1099 -2.60334
1100 -1.03144
1101 -1.79745
1102 -0.326158
1103 0.454464
1104 0.563312
1105 1.25462
1106 0.751089
1107 0.840399
1108 0.868765
1109 0.885177
1110 -1.09377
1111 0.445433
1112 -1.64746
1113 -2.28632
1114 0.471511
1115 1.51833
1116 0.709591
1117 0.197636
1118 -1.58398
1119 -0.622559
1120 0.517806
1121 -1.63711
1122 1.41499
1123 0.235331
1124 1.76952
1125 -0.169579
1126 0.198566
1127 1.57127
1128 -0.823037
1129 0.977578
1130 1.2501
1131 0.682095
1132 0.297172
1133 -0.963148
1134 0.569138
1135 -0.135749
1136 1.38143
1137 -1.86296
1138 0.228937
1139 -0.383864
1140 -1.32043
1141 -1.40398
1142 0.215961
1143 -0.726992
1144 -1.6019
1145 -0.913177
1146 0.310168
1147 -1.07422
1148 -0.397259
1149 0.283617
1150 0.332013
1151 0.487148
1152 0.216395
1153 -1.11587
1154 0.282193
1155 0.377674
1156 0.379785
1157 1.43406
1158 0.830622
1159 -0.278201
1160 -0.459615
1161 -0.0639742
1162 -1.29747
1163 0.722869
1164 0.58776
1165 0.763242
1166 -0.360238
1167 -0.524486
1168 -0.306027
1169 -1.09522
1170 -0.476829
1171 0.707972
1172 0.300761
1173 -1.14808
1174 0.480952
1175 -0.607299
1176 -1.17016
1177 -0.4073
1178 -0.46376
1179 -0.200842
1180 -1.08134
1181 -1.25763
1182 0.993035
1183 -0.256584
1184 -1.25701
1185 0.958182
1186 0.893128
1187 -0.351816
1188 -1.69511
1189 0.727747
1190 0.172274
1191 -0.00380744
1192 0.530199
1193 0.678724
1194 -0.321416
1195 0.594996
1196 -0.187781
1197 0.213862
1198 0.513466
1199 0.578418
1200 0.1931
1201 -0.425625
1202 -1.11696
1203 0.670582
1204 0.0843748
1205 -1.33159
1206 -1.23356
1207 0.266884
1208 -0.0845859
1209 1.10872
1210 0.368388
1211 0.176326
1212 0.976056
1213 -1.12844
1214 -1.21039
1215 0.410926
1216 0.550667
1217 0.988014
1218 -1.21672
1219 0.0438652
1220 -0.762756
1221 -0.661323
1222 0.881759
1223 -1.70254
1224 -0.893273
1225 -0.11522
1226 -1.82078
1227 1.74965
1228 -0.314482
1229 0.453041
1230 -0.925289
1231 0.0521448
1232 -0.0217777
1233 0.234149
1234 1.15537
1235 0.129777
1236 -1.73603
1237 -0.0956373
1238 0.178173
1239 0.315311
1240 1.4368
1241 -1.37107
1242 -0.720429
1243 0.179089
1244 -1.3852
1245 0.344748
1246 0.331545
1247 0.122121
1248 0.627781
1249 0.809869
1250 0.345496
1251 0.374255
1252 -0.366439
1253 0.153923
1254 -0.185768
1255 -0.0939635
1256 0.873126
1257 0.915567
1258 1.07448
1259 1.66727
1260 0.717053
1261 0.523801
1262 0.271076
1263 -0.125891
1264 0.0131145
1265 -2.16225
1266 -0.128694
1267 -0.124176
1268 -0.0683108
1269 -0.0429248
1270 0.813383
1271 0.944709
1272 0.471744
1273 0.283208
1274 0.734333
1275 -1.1228
1276 -0.0966804
1277 -0.856778
1278 -0.152506
1279 1.01623
1280 -0.307961
1281 1.51729
1282 1.41647
1283 -0.559433
1284 -0.0217954
1285 0.615122
1286 0.69931
1287 0.558661
1288 -2.99176
1289 1.4383
1290 -1.59896
1291 -0.753936
1292 -2.10427
1293 1.00595
1294 -0.960012
1295 -0.262894
1296 0.759697
1297 0.161848
1298 0.0160653
1299 -1.93314
1300 0.706123
1301 -1.25348
1302 -0.668022
1303 0.054686
1304 -1.14204
1305 -0.0111976
1306 1.29974
1307 0.754954
1308 0.13909
1309 -0.619251
1310 0.00397683
1311 0.825864
1312 -2.18203
1313 -1.60788
1314 1.20774
1315 -0.654423
1316 0.735892
1317 0.307034
1318 -0.220841
1319 0.398181
1320 0.0188472
1321 0.376333
1322 -1.15797
1323 -2.04549
1324 -1.49111
1325 -3.10503
1326 0.251399
1327 -1.25265
1328 -0.432474
1329 -0.31116
1330 1.53291
1331 -0.80291
1332 -0.930678
1333 0.0642169
1334 1.16284
1335 0.755476
1336 -1.52854
1337 -0.354922
1338 0.0871388
1339 0.358477
1340 -1.80308
1341 0.808326
1342 -0.3995
1343 0.655203
1344 -0.0409942
1345 1.51579
1346 -2.09102
1347 0.702596
1348 -1.04245
1349 -0.603489
1350 0.944528
1351 -0.693085
1352 -1.1956
1353 -0.410654
1354 -0.973825
1355 -0.740508
1356 -0.629615
1357 -2.72306
1358 0.318064
1359 1.30986
1360 -1.09224
1361 1.10213
1362 -1.84088
1363 -0.0873363
1364 -1.65382
1365 -0.436685
1366 0.890432
1367 0.349646
1368 -1.14813
1369 0.414947
1370 0.0920093
1371 0.931623
1372 0.0101504
1373 0.546773
1374 0.864338
1375 0.410639
1376 -0.044591
1377 -1.29946
1378 0.594533
1379 -1.17063
1380 0.943217
1381 0.808551
1382 -0.515939
1383 -0.282565
1384 -0.210572
1385 0.774115
1386 0.314025
1387 0.72223
1388 1.71301
1389 -0.468234
1390 -0.44217
1391 0.576843
1392 0.64819
1393 0.0139713
1394 -0.70018
1395 0.889839
1396 0.433554
1397 0.144996
1398 1.24036
1399 0.691281
1400 -0.614437
1401 0.10443
1402 1.39571
1403 1.65316
1404 1.34622
1405 -1.41969
1406 0.227643
1407 0.635007
1408 0.0733348
1409 0.856555
1410 -0.466374
1411 -0.725026
1412 1.00903
1413 -1.07562
1414 0.341012
1415 1.80847
1416 -0.15705
1417 1.16816
1418 -0.801634
1419 -1.93491
1420 0.21433
1421 1.86556
1422 -1.28531
1423 -0.204577
1424 -1.37529
1425 0.49643
1426 0.0308761
1427 -1.32955
1428 0.621396
1429 -1.73745
1430 -0.360212
1431 0.413551
1432 0.535501
1433 2.30286
1434 -1.87471
1435 0.692132
1436 0.366497
1437 0.258404
1438 -1.7058
1439 0.195318
1440 1.42634
1441 -0.556141
1442 -1.05965
1443 0.976267
1444 0.550796
1445 0.494513
1446 0.565245
1447 -0.930222
1448 -3.17145
1449 0.0344327
1450 0.298494
1451 1.38575
1452 0.544705
1453 0.380131
1454 -0.382268
1455 0.456181
1456 0.864632
1457 1.82244
1458 0.164643
1459 -1.02904
1460 0.0881746
1461 0.827577
1462 0.903295
1463 -1.5224
1464 -0.256658
1465 -0.431099
1466 1.7047
1467 -0.908118
1468 -0.47528
1469 0.461819
1470 -0.165617
1471 0.142775
1472 -0.677408
1473 0.795248
1474 -2.23386
1475 1.0982
1476 -0.85464
1477 0.9286
1478 0.201132
1479 0.354651
1480 -0.47826
1481 -0.0544835
1482 1.15529
1483 -2.16483
1484 -0.161954
1485 0.89751
1486 0.523547
1487 0.590647
1488 -1.61502
1489 0.402374
1490 0.692144
1491 1.04898
1492 0.458933
1493 -0.672656
1494 0.316327
1495 -1.29749
1496 -0.318704
1497 0.709844
1498 -1.57416
1499 -0.922949
1500 -0.0131276
1501 -0.099251
1502 -0.924537
1503 0.865491
1504 -0.382056
1505 -0.657266
1506 -0.095116
1507 0.0828905
1508 0.0351072
1509 -1.21272
1510 -2.0086
1511 0.21528
1512 -0.461462
1513 -1.75885
1514 -1.55731
1515 -1.37733
1516 -1.85999
1517 1.00631
1518 -2.31463
1519 -0.340688
1520 0.308536
1521 1.04033
1522 1.31803
1523 -0.709169
1524 0.959432
1525 0.279512
1526 -0.499646
1527 -0.0601039
1528 -1.18052
1529 -0.500569
1530 -0.858212
1531 1.24195
1532 -0.287966
1533 0.700402
1534 1.52782
1535 0.370036
1536 0.606016
1537 1.22276
1538 -1.00737
1539 0.562
1540 0.064071
1541 0.830115
1542 -1.08421
1543 0.146863
1544 -0.515351
1545 -0.594666
1546 -2.0571
1547 -2.02901
1548 -2.16127
1549 0.580393
1550 1.59937
1551 -1.40273
1552 -0.228499
1553 0.546475
1554 0.477616
1555 -1.45328
1556 0.554945
1557 1.10873
1558 0.798384
1559 -0.316384
1560 0.711767
1561 0.697454
1562 -0.873725
1563 1.7485
1564 0.432641
1565 0.44724
1566 0.027587
1567 -0.663109
1568 -2.14127
1569 0.584624
1570 -0.793442
1571 0.158517
1572 -0.0980148
1573 1.09822
1574 -0.648823
1575 0.611277
1576 1.27972
1577 0.818485
1578 -0.563199
1579 0.667167
1580 0.562978
1581 -1.25094
1582 0.523436
1583 -0.112887
1584 -0.195291
1585 0.587343
1586 -1.18362
1587 0.080466
1588 -0.346224
1589 -0.48657
1590 -0.794079
1591 0.0273184
1592 0.0655521
1593 -0.170435
1594 0.646835
1595 0.547388
1596 -1.27203
1597 0.642894
