1 0.0660241
2 0.216
3 -0.712782
4 0.95768
5 1.31638
6 -0.596313
7 -0.480978
8 -0.896965
9 -0.215417
10 1.20138
11 -0.189509
12 -0.173982
13 -0.770566
14 1.25344
15 0.696474
16 -0.304279
17 -0.280792
18 0.302665
19 -0.92167
20 -0.0165752
21 0.322665
22 1.03252
23 -1.79029
24 0.957658
25 0.820396
26 0.843421
27 0.66031
28 -0.0344976
29 0.7595
30 0.866532
31 0.907064
32 0.525323
33 0.664334
34 0.528794
35 0.214255
36 1.06593
37 0.700995
38 0.967051
39 0.264557
40 -0.589423
41 -0.651382
42 -0.42293
43 0.998247
44 2.27462
45 0.779613
46 1.85937
47 -0.48384
48 0.767985
49 -0.249305
50 1.29923
51 0.669393
52 0.155815
53 -1.91119
54 0.995698
55 1.26385
56 0.353534
57 0.884772
58 -1.26016
59 0.659419
60 0.230844
61 0.443933
62 -1.03424
63 0.406746
64 -0.330046
65 -0.0372833
66 0.489477
67 0.107472
68 1.49552
69 0.398572
70 0.952334
71 -0.340264
72 -3.37056
73 -1.42495
74 -0.0349578
75 -0.0098122
76 0.121857
77 0.905877
78 0.91878
79 -1.6332
80 -1.69587
81 1.1953
82 2.0694
83 -0.677082
84 0.859336
85 0.389309
86 0.867897
87 0.258497
88 -1.44455
89 -0.0163029
90 0.157196
91 -1.16562
92 -2.11043
93 -0.357185
94 -1.94488
95 0.0465243
96 -1.40858
97 -0.284698
98 -0.0455593
99 -0.764468
100 0.829664
101 -1.16873
102 0.600338
103 0.0762124
104 0.263843
105 -0.689633
106 0.498931
107 0.252514
108 0.382138
109 0.378774
110 -1.60143
111 1.17309
112 0.451596
113 1.05692
114 0.560898
115 0.0497915
116 -0.38859
117 -0.108077
118 0.305972
119 -0.492138
120 0.343506
121 -0.0516635
122 0.246267
123 0.140171
124 1.2609
125 -0.52189
126 -0.143495
127 -0.623257
128 -0.168441
129 -1.67577
130 0.500863
131 -0.31605
132 0.777498
133 -0.360269
134 0.409019
135 -0.409342
136 0.178669
137 -1.41242
138 0.106635
139 -0.279716
140 -0.825247
141 -0.166628
142 0.838199
143 -0.220331
144 -0.0461703
145 1.24353
146 -1.2894
147 1.3403
148 0.264994
149 0.874776
150 0.0139813
151 -0.468105
152 -0.0320378
153 0.284704
154 0.805018
155 0.389295
156 -0.142892
157 -1.15737
158 -0.335385
159 -0.718102
160 -0.205698
161 -0.751732
162 0.613716
163 -0.222218
164 1.8982
165 0.252958
166 -0.331643
167 0.800422
168 1.19727
169 0.0265163
170 0.551947
171 0.405398
172 1.78088
173 0.539977
174 0.259914
175 -0.284386
176 -1.39202
177 0.0897077
178 -0.316794
179 0.900979
180 1.25881
181 1.18003
182 0.792094
183 0.474042
184 -0.423112
185 -0.354728
186 0.134267
187 -1.40133
188 2.37724
189 1.01394
190 0.103446
191 1.08697
192 -0.418825
193 1.41428
194 1.07294
195 1.55839
196 1.042
197 0.317042
198 1.17604
199 1.01444
200 0.909132
201 1.34671
202 0.718876
203 -0.998374
204 0.844629
205 -2.23647
206 1.16011
207 0.469296
208 0.325901
209 -0.0819441
210 -2.21369
211 -0.0780041
212 0.37835
213 0.497451
214 -0.0107422
215 0.60266
216 0.516281
217 0.749855
218 1.54661
219 0.630728
220 1.3726
221 -0.988423
222 -0.462699
223 -0.432771
224 -0.323197
225 0.09827
226 1.64823
227 -0.734372
228 -0.976914
229 0.676686
230 1.34746
231 0.932287
232 1.15919
233 1.23463
234 -0.587596
235 0.0918729
236 0.282642
237 -0.458167
238 1.04824
239 0.415774
240 0.759599
241 1.26679
242 -0.202934
243 1.615
244 -1.07596
245 -0.746439
246 0.760574
247 -0.193453
248 1.12006
249 -1.58892
250 -0.334773
251 -0.402057
252 0.123293
253 0.694631
254 -2.58931
255 -1.10745
256 -0.178783
257 -1.80473
258 0.0435543
259 -0.253841
260 0.165855
261 0.144514
262 0.216241
263 -0.547518
264 -0.00326273
265 -0.958702
266 0.746594
267 -0.457957
268 -0.865874
269 -0.517619
270 -0.199201
271 -1.84351
272 -0.655825
273 1.3684
274 -0.857387
275 0.0328933
276 1.12053
277 -0.132908
278 0.809823
279 -0.444886
280 -1.86205
281 -0.776063
282 0.426846
283 -0.116481
284 -0.351699
285 0.803997
286 0.771738
287 0.22343
288 0.804837
289 2.29565
290 0.447223
291 0.202954
292 -0.497765
293 1.03487
294 0.430895
295 0.221783
296 -1.04418
297 -0.987917
298 -0.819558
299 -1.70262
300 -0.275091
301 -1.13545
302 1.30761
303 0.909864
304 0.253754
305 0.808478
306 0.909283
307 0.840492
308 1.1088
309 0.587616
310 0.323023
311 1.72784
312 -0.579978
313 2.02193
314 0.62226
315 1.40837
316 0.429566
317 1.057
318 2.29438
319 -0.114825
320 0.830302
321 -0.455627
322 0.0831398
323 0.397647
324 0.466703
325 -0.799603
326 1.00851
327 -0.0414745
328 1.28727
329 1.24219
330 -0.966848
331 0.606549
332 -1.55454
333 0.475467
334 0.886012
335 0.659519
336 0.921962
337 0.31875
338 0.870539
339 0.969799
340 0.570091
341 -0.242005
342 -1.68549
343 0.676792
344 1.2008
345 -0.399462
346 0.867555
347 0.34227
348 0.118024
349 -0.00151934
350 -0.243221
351 -1.85795
352 1.97184
353 0.544768
354 0.584413
355 1.22005
356 0.366351
357 1.1447
358 0.429777
359 0.373489
360 -1.3389
361 0.257541
362 0.886806
363 -0.488729
364 0.0868126
365 -1.44154
366 0.537429
367 0.528227
368 -1.55468
369 0.45834
370 -0.837169
371 0.518205
372 -0.359438
373 -0.43647
374 1.15586
375 1.17327
376 -1.21443
377 0.191633
378 0.054105
379 -0.266475
380 0.733019
381 -0.449111
382 -0.589702
383 -2.14734
384 -0.0462101
385 0.10266
386 0.541745
387 0.273724
388 0.966287
389 0.972721
390 -1.05445
391 0.0611101
392 0.447725
393 -1.5455
394 0.190991
395 0.975702
396 0.60924
397 -0.657646
398 -1.04452
399 -0.54733
400 1.26679
401 1.53742
402 0.496032
403 0.254628
404 0.48151
405 -0.508871
406 1.55147
407 -0.67756
408 0.743252
409 1.82802
410 -0.389924
411 0.010737
412 0.237943
413 0.302525
414 -0.234959
415 0.722145
416 1.09863
417 0.15858
418 -1.03148
419 0.191909
420 0.92606
421 0.885124
422 1.62853
423 -0.0592393
424 -0.165229
425 1.01712
426 0.518294
427 0.562134
428 0.225255
429 0.442207
430 0.190767
431 0.55708
432 1.88837
433 0.0964589
434 1.79425
435 0.564174
436 -3.88972
437 -1.27166
438 0.399624
439 0.34537
440 -3.31278
441 0.275393
442 -1.53984
443 -0.0402256
444 0.257431
445 -0.532871
446 -1.40293
447 -0.287036
448 -1.02946
449 0.551169
450 -0.438345
451 1.12781
452 -1.52162
453 -2.36478
454 -0.35732
455 1.08643
456 0.13332
457 -0.158955
458 0.199014
459 1.00612
460 -1.05811
461 0.786466
462 -0.512174
463 -0.745957
464 0.0235003
465 0.522259
466 -0.130402
467 -0.642672
468 -0.801447
469 0.571597
470 1.44541
471 -0.664501
472 0.578368
473 -0.545223
474 -1.62382
475 1.01691
476 0.263896
477 0.305293
478 0.182841
479 -1.38214
480 1.00679
481 -0.571717
482 0.587598
483 0.29687
484 -1.87844
485 1.52861
486 0.171915
487 -0.306634
488 0.0779518
489 0.21564
490 -0.50229
491 -0.802956
492 0.954355
493 -1.01678
494 0.303201
495 0.766304
496 0.410562
497 -1.86551
498 -1.59446
499 -1.14104
500 0.311804
501 -0.780976
502 1.23219
503 0.692193
504 1.86498
505 0.805035
506 1.37566
507 0.318596
508 1.14517
509 1.12375
510 -0.521711
511 0.265765
512 -0.843517
513 0.68489
514 0.708922
515 -0.81264
516 -0.529745
517 -0.748846
518 -0.833336
519 1.49844
520 0.208761
521 -1.204
522 -0.60722
523 -1.53823
524 1.11707
525 -0.426675
526 -0.262602
527 0.994293
528 -0.857896
529 1.51946
530 0.38191
531 1.3927
532 -1.25814
533 -0.800037
534 1.39307
535 0.0013939
536 -1.39389
537 -1.066
538 -1.05956
539 -0.655895
540 0.261846
541 0.060617
542 0.606945
543 -0.606083
544 -0.589706
545 -0.608001
546 -1.41781
547 -0.0624653
548 -1.83473
549 -0.549783
550 -1.44348
551 0.572119
552 -0.312574
553 -0.797966
554 0.892231
555 0.771732
556 -1.69824
557 -0.113308
558 -0.494841
559 0.523418
560 0.879092
561 -0.107591
562 -0.58781
563 0.00767414
564 0.860735
565 1.28255
566 0.70321
567 1.03094
568 -1.04994
569 0.598318
570 0.433431
571 0.951148
572 -0.900408
573 0.0270948
574 0.209491
575 0.520019
576 1.11315
577 -1.26927
578 0.705024
579 -0.324614
580 -0.324145
581 0.469662
582 0.736788
583 1.05187
584 0.809544
585 1.60881
586 1.41439
587 -0.83184
588 -1.68265
589 0.335579
590 -0.720953
591 1.26618
592 2.01455
593 -0.244499
594 0.548876
595 -1.776
596 -0.962623
597 0.643649
598 -0.370506
599 0.343871
600 0.9247
601 0.522449
602 0.770174
603 1.28524
604 -0.0359264
605 1.4011
606 0.388444
607 0.996997
608 0.410589
609 0.276593
610 1.74729
611 0.782131
612 0.770679
613 0.837485
614 0.829695
615 0.7862
616 0.537304
617 0.803309
618 0.114538
619 1.6079
620 -1.0033
621 0.591959
622 -0.449172
623 1.25132
624 -0.982076
625 0.744609
626 -0.586914
627 1.06905
628 0.594518
629 1.17092
630 0.653463
631 -0.358192
632 0.678404
633 0.607611
634 0.539727
635 1.60601
636 -0.207197
637 1.33814
638 1.88405
639 1.50465
640 -0.948178
641 1.63356
642 0.195348
643 1.24351
644 2.06422
645 0.453988
646 1.49581
647 0.627964
648 1.61717
649 1.28648
650 0.415433
651 1.26133
652 1.08524
653 -0.763365
654 1.48413
655 1.35467
656 1.8078
657 0.818233
658 1.31272
659 0.969869
660 -1.49552
661 1.43204
662 0.0446858
663 0.513854
664 -1.39829
665 1.28899
666 0.979543
667 0.994032
668 1.53
669 0.786855
670 1.05158
671 0.0887289
672 0.951529
673 -0.812987
674 0.41793
675 0.384296
676 1.14041
677 0.237575
678 0.189825
679 -0.0376427
680 0.286651
681 0.352849
682 -2.16425
683 -1.93998
684 0.0763761
685 -0.832146
686 -1.187
687 -0.770928
688 0.649933
689 -1.3939
690 0.288651
691 -0.714043
692 -0.895667
693 0.887229
694 0.181026
695 1.2008
696 -0.0121457
697 0.400151
698 -2.74466
699 0.158535
700 -1.58629
701 0.47808
702 1.43071
703 0.279381
704 -0.234436
705 -0.733671
706 -0.152063
707 -1.88365
708 -1.24059
709 0.0876021
710 -0.665983
711 1.70288
712 1.07063
713 0.524421
714 -1.05171
715 -0.379805
716 -0.525296
717 -0.00541226
718 -0.754956
719 -1.29557
720 1.34888
721 -0.835882
722 0.725937
723 1.33297
724 -1.54518
725 0.555307
726 -0.687624
727 -1.37236
728 -1.47708
729 -0.382786
730 -0.625852
731 0.733291
732 -1.72503
733 0.168031
734 0.0761559
735 -0.057307
736 -0.310006
737 1.15647
738 0.099952
739 0.541228
740 1.1804
741 -1.28914
742 -0.805681
743 -0.88903
744 1.45248
745 0.157793
746 0.685981
747 -1.11067
748 -2.15079
749 0.393693
750 1.06232
751 -0.257892
752 0.692481
753 0.324446
754 1.01114
755 0.490952
756 -0.902579
757 -3.39308
758 0.49344
759 -1.5075
760 0.943953
761 1.03134
762 0.285923
763 0.714187
764 1.45909
765 -2.48711
766 0.397759
767 -0.546894
768 -1.01502
769 -0.901998
770 2.03832
771 1.30628
772 -0.364553
773 0.0666671
774 -0.977757
775 0.0673722
776 0.940991
777 1.45056
778 -0.639929
779 1.23069
780 -0.703631
781 0.0742291
782 -0.714393
783 -1.0469
784 -0.942656
785 -0.887766
786 -0.140094
787 -1.21974
788 -1.89632
789 -2.6688
790 0.959506
791 -3.00589
792 1.47751
793 0.935687
794 -0.548508
795 0.81908
796 1.38454
797 -1.05416
798 -0.270917
799 0.187582
800 0.429254
801 -1.5086
802 -0.0409603
803 -2.4979
804 -0.91965
805 -1.49916
806 0.332888
807 -0.723049
808 -1.36817
809 0.0165015
810 0.24751
811 0.350234
812 0.454791
813 -0.0897836
814 -2.0749
815 -3.89419
816 0.321809
817 1.45721
818 -2.98496
819 0.699911
820 -0.769656
821 0.884754
822 -0.195715
823 0.0542578
824 1.9385
825 -1.8787
826 -1.27216
827 -1.26536
828 -1.85907
829 -0.789194
830 0.0652434
831 0.992136
832 0.800126
833 0.736981
834 -1.19247
835 -0.656502
836 0.765645
837 -0.513808
838 0.226102
839 -1.37662
840 -0.939808
841 0.353177
842 -0.454035
843 -0.39353
844 0.78958
845 0.873148
846 0.125631
847 0.273853
848 0.432326
849 0.568993
850 1.83603
851 1.09317
852 1.58218
853 1.51493
854 -1.61381
855 -2.47177
856 0.124551
857 0.337853
858 -1.76685
859 0.836467
860 -1.27753
861 0.44275
862 -1.45136
863 1.31055
864 0.939483
865 -0.521031
866 -0.839884
867 -0.778329
868 0.24242
869 0.760668
870 0.749168
871 -0.984056
872 0.976946
873 -0.730243
874 0.350333
875 0.816761
876 0.194631
877 1.04479
878 0.309618
879 -0.442191
880 -1.8246
881 0.39769
882 0.275837
883 -2.04763
884 -1.5626
885 0.600159
886 1.72168
887 -2.22117
888 -0.495726
889 -0.195552
890 0.594454
891 0.71377
892 -0.235564
893 -1.81194
894 1.41264
895 -1.3048
896 -0.374216
897 -0.0938242
898 -0.593038
899 0.55351
900 -0.71125
901 0.836872
902 0.531567
903 0.41377
904 -1.62428
905 0.329866
906 0.00488279
907 0.468023
908 -2.40082
909 0.375875
910 1.31476
911 -1.32226
912 -0.0446763
913 -3.16279
914 0.564041
915 -0.0326112
916 0.89177
917 0.773575
918 -1.26453
919 -0.524702
920 0.381726
921 1.35774
922 0.277084
923 -1.09761
924 -0.703272
925 0.896174
926 0.0756129
927 0.499045
928 0.433044
929 0.168447
930 0.948639
931 -1.06473
932 1.46844
933 -0.131368
934 1.25567
935 0.693851
936 -0.0741305
937 -0.780629
938 -0.908526
939 -1.72756
940 -1.26692
941 0.398571
942 -1.09558
943 0.943608
944 -1.621
945 0.822009
946 -0.245494
947 1.1267
948 -2.31909
949 -0.587513
950 -0.474269
951 -0.567527
952 0.174275
953 -0.196164
954 0.579031
955 0.957418
956 -0.33116
957 0.380189
958 -0.222994
959 1.27961
960 -1.8662
961 0.0386698
962 -0.363128
963 -0.510113
964 -1.48328
965 -0.809993
966 0.114168
967 0.573994
968 1.41757
969 2.15507
970 0.051906
971 0.809951
972 0.573231
973 1.29088
974 -0.46336
975 -2.72759
976 1.11251
977 0.640316
978 -0.0787223
979 0.818034
980 -0.447282
981 -0.111924
982 -0.315522
983 -0.271261
984 2.01015
985 0.309763
986 -1.51389
987 -0.888367
988 0.263689
989 0.872201
990 0.688136
991 0.0954217
992 0.42523
993 -1.71213
994 -0.878631
995 -0.231569
996 -0.990346
997 -0.548237
998 -0.175528
999 0.465678
1000 0.149812
1001 1.7099
1002 -0.176628
1003 -0.508903
1004 0.30823
1005 -0.528612
1006 -0.204197
1007 -1.26508
1008 0.375311
1009 0.831663
1010 1.73816
1011 0.079173
1012 1.16355
1013 -0.696895
1014 0.616862
1015 0.00378729
1016 -0.758654
1017 -1.20439
1018 2.25817
1019 -0.103335
1020 -0.492716
1021 0.211526
1022 -0.589969
1023 -1.09138
1024 -1.21782
1025 -1.21593
1026 -0.31587
1027 0.435172
1028 1.88709
1029 0.180943
1030 -1.80714
1031 0.386295
1032 -0.622491
1033 0.323048
1034 0.0879211
1035 -1.2602
1036 -0.478723
1037 -2.17116
1038 0.100007
1039 -1.89803
1040 0.00896773
1041 -0.962458
1042 0.186098
1043 0.126646
1044 1.22407
1045 -2.01087
1046 1.28579
1047 -1.47992
1048 0.71628
1049 1.91186
1050 -0.949909
1051 -1.12609
1052 -0.600805
1053 -2.01093
1054 0.62402
1055 -0.472119
1056 -0.0529065
1057 -0.400246
1058 0.820105
1059 0.0256883
1060 0.796432
1061 0.779079
1062 -1.34176
1063 -0.865231
1064 0.745599
1065 -0.923212
1066 0.110014
1067 -0.557506
1068 -1.99704
1069 0.037741
1070 -0.661051
1071 -0.778946
1072 -0.662628
1073 -2.5774
1074 0.55598
1075 -0.225704
1076 0.464262
1077 -0.278034
1078 2.21918
1079 1.34717
1080 0.369852
1081 0.799185
1082 1.04169
1083 0.221592
1084 0.151542
1085 -0.725121
1086 0.140524
1087 -0.440542
1088 0.920015
1089 -0.452558
1090 0.098094
1091 -0.318709
1092 -1.26565
1093 0.540693
1094 -0.232226
1095 0.0945195
1096 -0.026965
1097 0.860582
1098 0.226751
1099 0.113773
1100 -0.925149
1101 0.00142551
1102 0.00306582
1103 0.143162
1104 -0.208142
1105 0.181713
1106 -0.257759
1107 -0.198324
1108 0.298024
1109 -0.777101
1110 -0.222591
1111 0.306573
1112 -0.256143
1113 -1.26432
1114 -0.945037
1115 -0.0253923
1116 0.037103
1117 -1.00125
1118 1.00831
1119 -0.402396
1120 1.08855
1121 0.715318
1122 -0.34844
1123 1.32908
1124 1.68359
1125 -0.497399
1126 -0.748023
1127 -0.373658
1128 -0.460002
1129 -0.566286
1130 -0.981249
1131 -0.8858
1132 0.863098
1133 -0.579263
1134 -1.09823
1135 -0.184057
1136 0.64294
1137 0.570287
1138 -0.838737
1139 -0.952152
1140 0.762031
1141 2.13702
1142 -0.361687
1143 -0.947792
1144 0.542733
1145 1.62858
1146 -0.703695
1147 -0.283356
1148 1.38952
1149 -1.33618
1150 1.0422
1151 -2.11115
1152 -0.477166
1153 0.664061
1154 -0.502384
1155 0.0119568
1156 0.140216
1157 -1.6241
1158 0.879784
1159 -1.78954
1160 -0.693395
1161 0.833744
1162 -0.108221
1163 0.919326
1164 0.541685
1165 1.25584
1166 1.04999
1167 0.747349
1168 0.255913
1169 1.33117
1170 0.323449
1171 1.18158
1172 0.643217
1173 0.280896
1174 0.645658
1175 -0.448282
1176 -0.499149
1177 0.960401
1178 -2.00214
1179 0.267197
1180 0.856039
1181 0.367945
1182 0.282339
1183 -1.61021
1184 -0.422039
1185 -1.00512
1186 0.354466
1187 -0.873905
1188 -0.0123228
1189 -1.23391
1190 -2.98788
1191 -2.59468
1192 0.276762
1193 0.158565
1194 -1.48897
1195 0.753579
1196 0.712401
1197 -1.41828
1198 0.0200766
1199 -3.49669
1200 0.149161
1201 -0.187836
1202 -1.07144
1203 0.708676
1204 -1.63403
1205 -1.35144
1206 -0.270246
1207 0.339312
1208 -0.198137
1209 0.824422
1210 0.885338
1211 1.04053
1212 -0.222388
1213 -0.200245
1214 -1.18717
1215 0.36623
1216 -1.28558
1217 -1.65757
1218 0.0292643
1219 -0.865274
1220 -0.66244
1221 -2.30104
1222 0.094332
1223 -0.298488
1224 -0.286163
1225 -0.494295
1226 -1.14328
1227 0.656335
1228 -2.29518
1229 -2.39772
1230 -0.641304
1231 0.685398
1232 -0.540069
1233 -0.550869
1234 -1.50775
1235 -1.43152
1236 0.139654
1237 0.846981
1238 0.243824
1239 -0.0412669
1240 1.37767
1241 0.771901
1242 0.765792
1243 -0.402566
1244 -0.44896
1245 -1.00919
1246 1.01134
1247 -0.569322
1248 0.929694
1249 -0.0610414
1250 0.319769
1251 0.784645
1252 -0.794331
1253 -2.15274
1254 0.557576
1255 -0.257871
1256 -0.319457
1257 1.20314
1258 -1.49871
1259 -2.17261
1260 0.769585
1261 1.0503
1262 -0.568062
1263 1.17255
1264 0.140396
1265 0.826005
1266 0.749653
1267 -2.14539
1268 -2.80215
1269 1.09914
1270 -0.619694
1271 0.55364
1272 -1.23908
1273 -0.673168
1274 -0.0626347
1275 -3.11976
1276 -2.29816
1277 -2.2823
1278 -0.36097
1279 -0.640148
1280 -0.273977
1281 -0.539347
1282 -0.130165
1283 0.905672
1284 0.00782918
1285 -1.3221
1286 0.384459
1287 0.848493
1288 0.807781
1289 0.492141
1290 -0.255296
1291 -0.00047028
1292 1.93819
1293 -0.257997
1294 -0.0729463
1295 0.440473
1296 -0.137896
1297 -0.513857
1298 -0.149543
1299 -1.85632
1300 0.135829
1301 -0.633916
1302 0.0503107
1303 0.352323
1304 1.00478
1305 -0.724541
1306 1.15735
1307 0.710819
1308 -1.13036
1309 1.41572
1310 -1.66927
1311 -0.196588
1312 -0.867148
1313 1.75892
1314 -0.0195273
1315 -0.565512
1316 -2.12684
1317 -1.11675
1318 -0.601623
1319 -0.689414
1320 0.0420834
1321 0.643775
1322 -1.37561
1323 -0.548532
1324 -1.34927
1325 0.704149
1326 -0.258338
1327 -0.83841
1328 -0.653503
1329 0.40543
1330 0.332571
1331 2.27255
1332 -0.38774
1333 0.324184
1334 0.782398
1335 1.20718
1336 0.939852
1337 -0.94035
1338 0.106634
1339 0.61121
1340 0.921515
1341 1.41916
1342 0.207212
1343 1.70459
1344 0.144828
1345 -1.16848
1346 -0.114889
1347 0.848705
1348 1.34082
1349 1.01507
1350 0.381681
1351 0.134828
1352 0.535665
1353 -0.411007
1354 -1.08599
1355 -2.63975
1356 -1.49398
1357 0.515998
1358 -1.25523
1359 1.00855
1360 0.09902
1361 1.05828
1362 0.455827
1363 -1.3965
1364 0.19264
1365 -1.24745
1366 1.57808
1367 0.260054
1368 1.22334
1369 -0.551733
1370 -0.220645
1371 0.582783
1372 0.339345
1373 -0.0373897
1374 -1.53239
1375 0.0480524
1376 -0.620322
1377 -1.5849
1378 -0.452321
1379 0.795743
1380 -0.078897
1381 -1.5245
1382 0.227276
1383 0.145046
1384 -1.86051
1385 -0.0581401
1386 0.264064
1387 -1.59414
1388 -1.25626
1389 -0.208607
1390 0.103057
1391 -0.00148458
1392 -0.855514
1393 1.27414
1394 0.408639
1395 0.894709
1396 0.741751
1397 1.3748
1398 -0.0621405
1399 0.196452
1400 -0.608869
1401 1.61313
1402 0.736929
1403 -0.0919747
1404 0.527715
1405 0.104789
1406 -0.663849
1407 -0.158835
1408 -1.73878
1409 0.000233486
1410 0.0804785
1411 -0.088109
1412 -1.18154
1413 -1.95836
1414 -0.121502
1415 -0.0386205
1416 1.72794
1417 0.467113
1418 0.689048
1419 0.261287
1420 -0.269143
1421 1.05321
1422 0.0189025
1423 1.75681
1424 0.946285
1425 1.22193
1426 -0.602822
1427 0.78907
1428 0.607902
1429 -0.351862
1430 1.31002
1431 0.527939
1432 0.861173
1433 -0.01077
1434 -0.993164
1435 0.799675
1436 -0.414693
1437 0.306375
1438 -1.83326
1439 -0.439464
1440 0.896127
1441 -1.23642
1442 0.594947
1443 1.4816
1444 0.555572
1445 0.354001
1446 1.27164
1447 0.387202
1448 -0.944706
1449 0.899734
1450 0.7805
1451 0.659
1452 0.0338026
1453 1.87772
1454 0.714605
1455 -0.933129
1456 0.156104
1457 -0.500399
1458 -1.27981
1459 -0.24472
1460 -0.992284
1461 -1.43763
1462 0.499588
1463 -0.231588
1464 -0.818279
1465 1.0537
1466 -1.22481
1467 -0.918372
1468 0.535487
1469 -0.0220507
1470 -0.157432
1471 0.780559
1472 0.725329
1473 1.0307
1474 0.231569
1475 0.745345
1476 0.71509
1477 0.278468
1478 -0.313747
1479 -0.893364
1480 0.825744
1481 0.93156
1482 0.343688
1483 0.958706
1484 0.00926178
1485 -0.341714
1486 -0.390175
1487 -0.280158
1488 -1.55041
1489 -0.527321
1490 0.726708
1491 -0.0566815
1492 -1.7337
1493 0.520322
1494 -1.33912
1495 -0.441157
1496 -0.131584
1497 -1.04363
1498 1.53957
1499 0.400655
1500 -1.00397
1501 0.475114
1502 -0.439886
1503 -0.948644
1504 0.285765
1505 -0.889509
1506 -0.0947021
1507 -0.216156
1508 -1.37155
1509 -0.786592
1510 1.68028
1511 -0.237003
1512 0.665607
1513 0.618919
1514 -1.5301
1515 0.513614
1516 -0.148022
1517 0.246669
1518 -1.92659
1519 0.618912
1520 -0.363233
1521 -0.388937
1522 1.57883
1523 -1.2734
1524 1.3355
1525 -1.62348
1526 -1.16319
1527 -1.79482
1528 1.43845
1529 1.67327
1530 -0.0374143
1531 -1.61591
1532 -0.298588
1533 -0.00176038
1534 -0.578639
1535 0.209229
1536 1.89488
1537 1.126
1538 -0.168279
1539 -0.226877
1540 0.83716
1541 -0.639498
1542 0.375005
1543 -0.726426
1544 -1.52272
1545 0.722814
1546 -0.441924
1547 0.423046
1548 -0.434226
1549 -1.18579
1550 0.283473
1551 0.451283
1552 -1.89396
1553 0.340862
1554 -1.51368
1555 1.46414
1556 -1.34641
1557 0.564244
1558 -0.529551
1559 1.381
1560 -0.0104119
1561 -0.339615
1562 0.749402
1563 0.981561
1564 -1.03924
1565 0.111743
1566 -1.6717
1567 -0.639975
1568 -2.02185
1569 0.394003
1570 -0.0529687
1571 0.39573
1572 -0.289963
1573 0.286463
1574 0.147373
1575 0.222263
1576 -1.12827
1577 0.0380423
1578 -1.43988
1579 0.556359
1580 0.499326
1581 0.23896
1582 -0.380559
1583 -3.08851
1584 -1.77656
1585 -0.53626
1586 1.63715
1587 0.112065
1588 -0.993771
1589 -2.67163
1590 -0.748456
1591 0.351556
1592 0.257043
1593 0.749657
1594 0.258956
1595 -2.01612
1596 0.0697751
1597 1.29274
