1 -0.707748
2 -0.638048
3 0.871514
4 -1.08507
5 0.594339
6 0.479609
7 -0.699684
8 1.23367
9 -0.0255755
10 -0.0965535
11 -0.321215
12 0.675752
13 -1.36309
14 -1.10973
15 -1.62002
16 0.249404
17 1.13556
18 -0.544549
19 -1.59615
20 -1.26434
21 0.408996
22 0.687281
23 -0.603449
24 -2.04293
25 0.070466
26 0.894461
27 0.0690516
28 -0.30813
29 0.263438
30 0.525949
31 -0.874641
32 -0.729081
33 -1.39569
34 -0.432167
35 -0.569243
36 0.638212
37 -2.59909
38 0.195621
39 0.124864
40 -0.882141
41 -1.76606
42 -0.941765
43 0.63843
44 0.490163
45 -0.396472
46 -1.26276
47 -1.14147
48 1.91522
49 0.344117
50 0.108453
51 0.279154
52 -2.02965
53 0.976797
54 -0.596676
55 0.526921
56 -0.568751
57 -1.50426
58 0.49302
59 0.891069
60 -0.439327
61 -1.78494
62 0.418481
63 1.22087
64 -1.6913
65 0.321039
66 0.344993
67 0.171949
68 -0.229117
69 0.597865
70 0.170222
71 -0.695761
72 1.12473
73 -0.0518236
74 -0.0135251
75 0.432774
76 0.217321
77 0.414966
78 0.13323
79 -0.0384304
80 -0.108857
81 -0.0492352
82 0.645852
83 -2.51725
84 0.199475
85 -0.205712
86 0.974163
87 0.0925806
88 -1.31983
89 -0.638646
90 -0.190969
91 0.0930431
92 0.348475
93 0.602837
94 -1.34765
95 -0.599068
96 0.613632
97 0.658991
98 -0.173099
99 0.44908
100 0.113076
101 0.130386
102 -1.5116
103 -0.391147
104 -0.514819
105 1.04217
106 -2.4455
107 0.672848
108 1.3278
109 -0.688399
110 -1.17278
111 0.362193
112 0.448945
113 0.0450583
114 0.876437
115 0.185821
116 -0.008415
117 -1.76554
118 0.269513
119 -0.90691
120 -1.44181
121 -1.53283
122 0.451188
123 -0.355733
124 0.751676
125 0.127231
126 0.0189207
127 -0.224706
128 -0.412547
129 -0.0381225
130 -0.171648
131 0.407215
132 -1.13822
133 0.156413
134 -0.670975
135 -1.97452
136 0.228728
137 0.0617715
138 0.316457
139 1.66063
140 -0.116456
141 -0.0240435
142 0.668975
143 0.208501
144 0.777629
145 1.152
146 -2.70251
147 1.03152
148 -0.393501
149 0.846276
150 1.81608
151 -0.111979
152 0.429238
153 0.423422
154 -0.00944268
155 1.31073
156 -1.18398
157 -1.02
158 0.618356
159 -0.340975
160 0.358722
161 -0.469919
162 -0.785782
163 -1.79104
164 -0.0255648
165 0.835576
166 -1.81658
167 0.305512
168 0.623805
169 -0.485186
170 -0.0773005
171 -0.267871
172 -0.445707
173 -1.40917
174 0.13473
175 0.262153
176 0.550647
177 -0.929996
178 -2.1219
179 -0.187629
180 -0.56157
181 -3.26703
182 -2.29265
183 -0.300315
184 0.271972
185 -1.21167
186 -0.997189
187 0.522691
188 0.185459
189 -1.30153
190 -1.42819
191 0.382751
192 -0.370825
193 0.805319
194 0.0868307
195 0.257459
196 -1.36159
197 -1.2344
198 -2.46436
199 0.00500163
200 0.601884
201 0.751283
202 -0.0627986
203 -0.838947
204 -1.79507
205 -0.94766
206 -0.967978
207 -0.0578339
208 0.50151
209 -0.281996
210 -2.70059
211 -0.0883099
212 -0.876588
213 -1.17706
214 0.445868
215 -2.88126
216 1.16847
217 -1.18695
218 -0.950915
219 0.372083
220 0.275829
221 -0.390016
222 -0.307795
223 0.288581
224 0.0792815
225 0.14037
226 1.1582
227 -1.21754
228 0.404415
229 -2.40351
230 0.909821
231 -1.44181
232 1.00094
233 0.450386
234 -1.84396
235 -1.00287
236 1.63087
237 0.331526
238 0.635087
239 0.740081
240 0.277421
241 1.30315
242 -0.0987093
243 -0.472795
244 -0.216753
245 0.747504
246 1.51818
247 0.744739
248 -0.398958
249 0.264913
250 0.961815
251 0.708179
252 -1.04086
253 0.577522
254 0.769754
255 -0.64089
256 0.762298
257 1.80784
258 0.998516
259 0.174904
260 0.962391
261 -0.399492
262 -1.01962
263 -0.438411
264 0.0570911
265 -0.83228
266 1.00121
267 -2.44756
268 0.19784
269 -0.283891
270 0.547408
271 0.726234
272 0.806917
273 -0.597192
274 -1.10433
275 -0.206277
276 -1.51446
277 -0.729893
278 -0.684457
279 -1.08082
280 -0.779345
281 -0.925631
282 -2.43271
283 0.720729
284 0.972913
285 -0.174019
286 0.153969
287 1.09705
288 -0.32316
289 -1.34364
290 -0.454127
291 0.836735
292 -1.18936
293 0.3115
294 0.604054
295 0.348934
296 0.461259
297 -1.13968
298 -0.115418
299 -0.0668161
300 -1.54589
301 -1.34977
302 0.120608
303 0.846424
304 -0.0269565
305 0.955684
306 1.86971
307 0.118864
308 -1.33784
309 0.100687
310 0.358642
311 1.31325
312 1.90638
313 -0.985226
314 0.934475
315 -0.631817
316 1.59303
317 0.943551
318 0.0166493
319 -1.36556
320 1.26264
321 0.198966
322 -1.8557
323 -1.16961
324 -0.673179
325 -1.68167
326 -2.15545
327 -2.45422
328 1.65379
329 -1.83877
330 -1.78833
331 0.513319
332 -1.71448
333 0.763473
334 -0.302043
335 -1.01473
336 0.523168
337 0.456235
338 -0.364513
339 0.586039
340 0.242554
341 1.25626
342 0.758669
343 -0.465894
344 0.957527
345 0.135877
346 -0.752774
347 -0.234132
348 0.704193
349 1.00076
350 -0.0901544
351 -0.109488
352 -2.639
353 0.640614
354 0.509487
355 0.754833
356 -0.0192062
357 -0.53665
358 -1.00392
359 0.477552
360 0.665966
361 -0.98339
362 0.686633
363 -0.782898
364 0.387978
365 1.64565
366 -0.131912
367 -0.542928
368 -0.271342
369 0.0802141
370 -0.286989
371 -0.250338
372 0.806865
373 -0.59134
374 -0.153514
375 0.658266
376 -0.949699
377 1.0977
378 -0.344195
379 1.26555
380 0.150505
381 0.0720791
382 0.572339
383 1.6122
384 -0.301194
385 0.0112284
386 0.32457
387 0.356381
388 -0.234735
389 -2.40998
390 0.79524
391 0.141685
392 0.99443
393 1.07263
394 -1.53804
395 -0.987926
396 0.182584
397 0.833215
398 1.0818
399 1.48038
400 -0.290523
401 -2.54346
402 -0.757497
403 -0.798072
404 0.442336
405 -0.888488
406 -0.155243
407 0.627767
408 -1.00746
409 -1.46719
410 0.0987178
411 0.998462
412 -0.970782
413 0.892517
414 -0.20718
415 -0.501381
416 -0.0852369
417 1.39883
418 -0.265006
419 -1.11167
420 0.0713436
421 -0.257724
422 -0.632112
423 1.61169
424 -0.502505
425 -0.622283
426 0.320073
427 -1.73714
428 -0.953911
429 0.78204
430 -0.858635
431 -0.620635
432 0.0457752
433 0.475623
434 0.824252
435 1.21359
436 0.164191
437 -1.66119
438 0.669938
439 0.482985
440 1.07619
441 0.158275
442 0.376235
443 0.827847
444 0.524672
445 1.29036
446 -0.241291
447 -0.679601
448 -1.2786
449 -0.298076
450 1.1391
451 -0.0594443
452 -0.762593
453 0.544762
454 0.576878
455 -0.219227
456 0.839177
457 0.126646
458 -2.64153
459 -0.36819
460 -1.72914
461 -0.201685
462 -0.25165
463 -0.0946976
464 0.922122
465 -1.66947
466 -2.16652
467 -1.43553
468 0.0575353
469 -0.617879
470 -0.949394
471 0.29787
472 0.465978
473 -0.478358
474 -1.90121
475 -0.915421
476 -0.115444
477 1.06393
478 1.34993
479 -0.1636
480 -0.582211
481 0.932032
482 0.751189
483 -0.833537
484 0.558418
485 1.55593
486 -1.71141
487 0.256357
488 0.495801
489 1.38017
490 -1.19933
491 1.29059
492 0.144328
493 -0.416703
494 1.27036
495 0.738545
496 -0.24965
497 0.942576
498 -0.482138
499 0.057189
500 1.10292
501 1.14654
502 0.843069
503 1.08983
504 -1.45992
505 -0.417756
506 0.475076
507 -1.30009
508 -0.435972
509 0.374582
510 -0.00697681
511 1.02578
512 0.44993
513 0.457456
514 -0.936027
515 -0.253037
516 0.0224165
517 1.28814
518 -1.83377
519 1.55044
520 -0.283544
521 0.749258
522 0.980353
523 1.23548
524 0.534614
525 0.912364
526 1.5396
527 0.860049
528 1.1329
529 0.792128
530 -0.393718
531 0.115474
532 0.777845
533 0.158067
534 1.14533
535 0.738518
536 -0.31907
537 1.75513
538 1.01593
539 1.48621
540 1.01953
541 1.46067
542 0.0526449
543 0.184858
544 1.56781
545 -0.414982
546 1.16163
547 0.421211
548 -1.35179
549 0.1506
550 -0.850411
551 1.76216
552 -0.199664
553 -1.49468
554 -1.05629
555 -0.611271
556 0.203226
557 -0.847166
558 -0.455672
559 -0.178326
560 0.2058
561 0.153113
562 0.695979
563 -0.0136887
564 0.453448
565 0.908955
566 -0.56836
567 0.178055
568 -1.84292
569 -1.56767
570 0.769162
571 -0.53731
572 -0.779343
573 0.3466
574 0.337358
575 0.17303
576 -2.42361
577 1.78249
578 1.15688
579 -0.222884
580 -0.12514
581 0.364397
582 -0.506176
583 -0.811651
584 -0.658105
585 -1.03951
586 0.583217
587 -0.772113
588 0.997674
589 0.340681
590 0.170722
591 -0.388465
592 -0.122443
593 0.472457
594 0.797258
595 1.78399
596 0.386943
597 -0.0283612
598 -0.394763
599 -0.355387
600 0.780622
601 -1.70052
602 -1.77606
603 0.466915
604 -0.374776
605 -4.01984
606 -0.420383
607 -0.783878
608 0.274211
609 -1.93794
610 -0.425143
611 0.879118
612 1.06401
613 0.383971
614 0.590635
615 -0.683173
616 0.536252
617 -1.24458
618 0.298595
619 0.840074
620 -0.883453
621 0.941807
622 0.309383
623 -0.454429
624 -1.15985
625 -1.17693
626 -0.896874
627 0.0308126
628 0.0929058
629 0.105599
630 0.605166
631 -1.60512
632 -2.57041
633 -0.469378
634 0.509978
635 0.379392
636 1.32461
637 1.10897
638 -2.27798
639 -1.35655
640 -0.75606
641 0.134497
642 -1.58554
643 -1.09071
644 -1.06605
645 -0.151666
646 0.166256
647 0.72229
648 -0.916027
649 -1.98716
650 -0.660145
651 0.608136
652 -0.2256
653 -1.0093
654 -0.858392
655 0.438867
656 0.267371
657 0.674537
658 0.939218
659 -0.495124
660 0.181584
661 -0.293244
662 0.382807
663 -2.61297
664 -0.713242
665 -0.747256
666 -0.240111
667 -0.340692
668 0.48753
669 -0.894598
670 -2.54701
671 0.0262777
672 -0.511308
673 1.0114
674 0.457413
675 0.370075
676 -0.87712
677 0.322639
678 1.20864
679 -0.238285
680 -0.438277
681 0.953672
682 -0.617696
683 0.264203
684 0.981661
685 -0.498429
686 1.91285
687 0.636082
688 1.33664
689 0.386068
690 1.10812
691 -1.52707
692 -2.97229
693 -0.526504
694 -1.34937
695 1.64707
696 -0.769037
697 1.16459
698 0.403403
699 0.463168
700 -0.521453
701 0.285201
702 -2.17451
703 -3.77026
704 -1.38526
705 0.512761
706 -0.565553
707 -2.10696
708 0.982147
709 -1.83771
710 0.435811
711 -2.485
712 -0.94901
713 0.762723
714 -1.61284
715 0.448238
716 -0.217623
717 0.806277
718 -1.18003
719 0.707591
720 -0.141764
721 1.59316
722 -1.67098
723 0.0233301
724 -0.0997675
725 0.651926
726 -0.356489
727 -2.15379
728 0.633091
729 -0.444564
730 -0.69722
731 -1.66752
732 0.26509
733 0.172183
734 -1.15552
735 0.679195
736 0.725338
737 -0.52969
738 -1.40799
739 0.0210639
740 0.925027
741 -1.51561
742 -0.776966
743 0.739251
744 -2.37592
745 -0.814171
746 -0.625316
747 0.157143
748 0.38307
749 1.26915
750 0.975987
751 -0.496122
752 -0.271782
753 -2.31042
754 0.218555
755 -0.346347
756 0.412155
757 -0.179891
758 -1.1066
759 0.13679
760 0.213295
761 0.440779
762 0.750508
763 -0.207015
764 -1.57755
765 0.080016
766 1.58362
767 -0.299904
768 -0.144746
769 -0.361562
770 -1.49322
771 0.0687194
772 -1.59919
773 0.874492
774 -1.15822
775 0.125692
776 0.245212
777 0.855296
778 0.11918
779 0.635642
780 0.624005
781 -1.38823
782 1.21607
783 -0.118202
784 -1.26569
785 0.922102
786 -1.19657
787 1.22483
788 0.847998
789 0.838003
790 -0.388751
791 0.778016
792 -1.51429
793 0.502027
794 0.0617412
795 -0.936095
796 0.120896
797 0.389169
798 -2.24715
799 1.0008
800 1.34456
801 0.81505
802 0.128175
803 -0.0230712
804 0.328555
805 -0.761044
806 0.465083
807 0.379248
808 -1.22518
809 -0.92926
810 -0.155141
811 -2.17711
812 1.21572
813 -0.00941646
814 0.749794
815 1.07142
816 0.103068
817 -0.387563
818 0.828948
819 1.59986
820 0.0700526
821 0.243609
822 -1.00538
823 -1.87048
824 1.50289
825 0.359528
826 -0.490038
827 -1.96438
828 0.175519
829 0.682077
830 -0.489565
831 1.7578
832 0.65237
833 0.296309
834 0.341147
835 -0.537361
836 0.707591
837 0.51661
838 0.624074
839 -1.80997
840 0.87856
841 0.316228
842 0.483217
843 1.17455
844 0.72572
845 0.201933
846 -1.06772
847 -1.19173
848 -0.198024
849 -0.81754
850 -0.810888
851 0.295803
852 1.13737
853 0.352356
854 -1.22603
855 -0.466262
856 -0.230807
857 -0.259239
858 1.24101
859 0.546482
860 0.554262
861 1.35065
862 0.345426
863 0.428581
864 -0.260429
865 -0.849811
866 1.31803
867 0.212127
868 -0.45979
869 0.752127
870 -0.585863
871 0.118428
872 -1.44839
873 -1.71209
874 0.678775
875 1.05076
876 0.60282
877 -0.19228
878 -1.06849
879 0.658039
880 1.33841
881 -1.429
882 -1.94763
883 -2.24046
884 0.0789571
885 0.74971
886 1.19351
887 0.0691508
888 1.11047
889 0.952315
890 0.478924
891 0.15802
892 0.254261
893 1.26836
894 1.08685
895 0.887772
896 0.825491
897 2.07693
898 -0.546521
899 -0.477012
900 -0.0182652
901 -0.483974
902 -0.109085
903 -1.83936
904 1.12469
905 -0.294129
906 -0.95563
907 -2.20973
908 0.366276
909 1.45956
910 0.860833
911 -1.14818
912 0.565921
913 0.298675
914 -1.52699
915 0.939622
916 -0.281416
917 1.01594
918 0.790368
919 1.78055
920 1.10277
921 -0.180558
922 1.03933
923 0.698735
924 0.338901
925 -0.248755
926 -0.55119
927 1.33468
928 -0.372694
929 -0.921503
930 1.48248
931 -0.724149
932 0.0949638
933 0.203939
934 0.684202
935 0.794165
936 -0.191007
937 0.903454
938 -0.0152033
939 0.0844902
940 -0.000503339
941 -0.136847
942 0.247746
943 0.79997
944 1.86956
945 1.82867
946 -1.0177
947 -0.584847
948 1.46517
949 0.561844
950 0.178001
951 -1.67332
952 -2.1326
953 -0.0464021
954 1.09508
955 0.495145
956 0.8848
957 1.34847
958 1.12507
959 0.784111
960 1.09985
961 -0.777246
962 1.04278
963 0.316858
964 0.876023
965 0.91745
966 0.929556
967 1.68472
968 0.825223
969 0.591968
970 1.11624
971 0.000761684
972 0.357018
973 -0.488228
974 -1.64543
975 -0.236109
976 0.157631
977 0.153469
978 1.28294
979 0.78831
980 0.0185722
981 1.01131
982 -1.49513
983 -1.44429
984 0.670503
985 -0.111142
986 -0.316305
987 1.69573
988 -0.161602
989 -0.771913
990 0.773536
991 0.891582
992 0.987573
993 -2.17545
994 0.60626
995 0.341054
996 1.88887
997 1.03554
998 -0.0672685
999 -0.596095
1000 0.282526
1001 1.53265
1002 -2.93889
1003 0.684628
1004 0.680266
1005 0.327889
1006 -0.0103256
1007 -0.351064
1008 0.0658909
1009 1.17442
1010 0.438518
1011 0.9727
1012 0.319841
1013 0.598049
1014 0.251364
1015 1.63456
1016 0.318852
1017 0.226583
1018 2.18913
1019 -0.499262
1020 0.219241
1021 -0.169752
1022 -1.15845
1023 0.355363
1024 0.320583
1025 -1.07213
1026 0.888132
1027 0.738966
1028 0.0941192
1029 1.76028
1030 0.234515
1031 0.830626
1032 -0.129977
1033 -1.9118
1034 1.15827
1035 -0.442211
1036 -0.218641
1037 -0.189591
1038 -0.820391
1039 0.309752
1040 1.12325
1041 0.877178
1042 -0.642998
1043 -0.0138175
1044 0.0841742
1045 0.610242
1046 -2.53297
1047 -1.70169
1048 0.606421
1049 -0.573804
1050 1.49075
1051 0.658993
1052 -0.259317
1053 0.433625
1054 -0.701106
1055 1.22761
1056 -1.86378
1057 1.70071
1058 -0.340509
1059 0.723217
1060 1.51089
1061 -0.576481
1062 -0.970827
1063 0.384395
1064 -0.0495698
1065 -1.6614
1066 0.68896
1067 -0.0628593
1068 -3.16253
1069 0.284308
1070 1.78649
1071 1.16979
1072 0.848323
1073 -2.18026
1074 0.978529
1075 0.158413
1076 -1.26032
1077 1.35726
1078 0.027424
1079 -1.90817
1080 0.419446
1081 0.444803
1082 0.0872247
1083 0.73643
1084 0.489128
1085 1.06749
1086 -1.54983
1087 0.737297
1088 -0.0149594
1089 -0.934167
1090 -0.0281049
1091 -0.0630879
1092 -1.15759
1093 -0.0483615
1094 0.482521
1095 -2.07849
1096 -2.92077
1097 0.790238
1098 0.838566
1099 0.631522
1100 -1.07433
1101 -2.10671
1102 0.735009
1103 0.0658273
1104 -1.08895
1105 1.47259
1106 -0.176179
1107 -1.32634
1108 1.24462
1109 1.63657
1110 -1.66385
1111 0.003271
1112 0.642227
1113 0.623362
1114 1.66573
1115 0.277317
1116 0.959251
1117 0.497955
1118 0.235807
1119 -0.601533
1120 0.476332
1121 -0.231828
1122 -0.191869
1123 0.834022
1124 0.0400829
1125 1.76705
1126 0.950978
1127 1.04106
1128 1.23655
1129 0.277737
1130 0.34882
1131 1.37525
1132 1.24729
1133 -0.156794
1134 -0.250521
1135 1.06405
1136 -0.791258
1137 -1.61949
1138 0.499486
1139 1.67676
1140 -1.07325
1141 1.38486
1142 1.35259
1143 -0.0503603
1144 0.812438
1145 0.809078
1146 1.62999
1147 0.159082
1148 1.59586
1149 -2.64235
1150 0.290338
1151 0.0365602
1152 1.20986
1153 -1.00244
1154 0.753942
1155 1.42255
1156 1.14213
1157 -0.224344
1158 -0.586533
1159 1.24718
1160 -0.545552
1161 -0.769353
1162 0.976232
1163 0.379705
1164 0.274651
1165 -0.728376
1166 0.415896
1167 -0.0911239
1168 0.476653
1169 -1.00654
1170 -0.272471
1171 0.0430208
1172 -0.0920569
1173 0.0759438
1174 -0.414618
1175 0.628532
1176 1.41804
1177 0.740164
1178 0.64894
1179 -1.2177
1180 -0.583452
1181 -0.960399
1182 0.781721
1183 0.25642
1184 0.342809
1185 -1.28582
1186 0.232644
1187 1.45723
1188 1.14646
1189 0.127018
1190 0.789962
1191 0.456059
1192 0.835309
1193 0.456632
1194 0.444606
1195 0.835183
1196 1.07794
1197 0.559595
1198 0.0565595
1199 1.43384
1200 -0.0983415
1201 0.896585
1202 0.447611
1203 0.352688
1204 1.18176
1205 0.747311
1206 0.516177
1207 -2.13668
1208 0.578893
1209 0.856031
1210 -1.4243
1211 1.35702
1212 -0.469361
1213 -1.40892
1214 -0.401248
1215 -0.349379
1216 0.0939601
1217 -0.711416
1218 0.187398
1219 0.839384
1220 1.52324
1221 0.589004
1222 1.23018
1223 0.905417
1224 -2.00937
1225 -2.2162
1226 0.350775
1227 0.166974
1228 -1.81245
1229 0.789939
1230 -0.429802
1231 0.466217
1232 -0.903096
1233 -0.365596
1234 0.777521
1235 0.912871
1236 -0.733256
1237 1.30671
1238 -0.129848
1239 0.335864
1240 -1.85748
1241 1.05785
1242 1.17746
1243 -0.0200091
1244 -0.650248
1245 -1.62758
1246 0.921677
1247 1.06823
1248 0.267243
1249 0.472872
1250 1.06752
1251 0.45271
1252 0.994909
1253 0.281956
1254 -0.264743
1255 -1.03054
1256 -0.484153
1257 0.243801
1258 0.32358
1259 -0.540039
1260 -0.468878
1261 -0.127979
1262 0.754898
1263 0.392812
1264 -0.823998
1265 -0.118886
1266 0.161494
1267 0.864596
1268 -2.50843
1269 0.962773
1270 -0.317911
1271 0.491843
1272 -0.278084
1273 0.871808
1274 -0.218683
1275 0.0268551
1276 0.581556
1277 0.695268
1278 1.36922
1279 -1.93531
1280 -1.33499
1281 0.902524
1282 -1.88525
1283 0.637999
1284 -0.635295
1285 -2.15788
1286 -1.00139
1287 -1.36278
1288 -1.13013
1289 1.25179
1290 0.0150177
1291 -1.5919
1292 -0.438503
1293 -0.201502
1294 -1.45509
1295 0.943455
1296 -0.959909
1297 0.472598
1298 0.119589
1299 -0.0330693
1300 -0.337223
1301 -0.382907
1302 0.463991
1303 -2.2107
1304 0.942332
1305 -0.59514
1306 0.418365
1307 0.0608799
1308 -0.24637
1309 -0.377037
1310 2.05246
1311 -0.584151
1312 0.432668
1313 1.02508
1314 0.177909
1315 0.669282
1316 -1.24367
1317 -0.227602
1318 0.353876
1319 -2.71951
1320 -0.669561
1321 1.05287
1322 0.446419
1323 1.41859
1324 1.79454
1325 -0.8174
1326 0.165084
1327 -1.35063
1328 0.531685
1329 1.07034
1330 0.794
1331 0.816522
1332 -1.21405
1333 0.517871
1334 0.59559
1335 0.355472
1336 0.548225
1337 -0.254509
1338 0.62443
1339 -0.353988
1340 0.60833
1341 -2.30016
1342 0.739928
1343 -1.45212
1344 -0.306637
1345 1.16701
1346 0.22552
1347 0.769953
1348 -1.22374
1349 -0.696355
1350 0.280217
1351 1.28604
1352 -0.169391
1353 -0.632161
1354 1.47535
1355 -0.987202
1356 0.0303393
1357 0.516639
1358 1.42258
1359 0.25838
1360 -1.05858
1361 0.749561
1362 -1.96691
1363 1.46917
1364 1.51051
1365 -1.0113
1366 0.31501
1367 -0.552849
1368 0.202215
1369 0.73617
1370 0.484608
1371 0.0233363
1372 -0.41394
1373 0.369859
1374 0.0910484
1375 0.714236
1376 0.854852
1377 -0.378391
1378 0.758362
1379 -1.16196
1380 0.696517
1381 0.669871
1382 1.26047
1383 0.829167
1384 1.18926
1385 0.957254
1386 0.383175
1387 -0.506175
1388 1.2154
1389 0.848957
1390 1.11555
1391 -1.76573
1392 1.25581
1393 0.421037
1394 -0.648961
1395 1.72254
1396 -0.73309
1397 -0.932781
1398 1.41792
1399 0.926955
1400 -1.85437
1401 -0.466697
1402 -0.0748668
1403 -2.38124
1404 -0.232649
1405 0.524328
1406 1.48656
1407 0.120148
1408 0.992928
1409 0.0381769
1410 0.623527
1411 0.446595
1412 -1.01578
1413 0.83267
1414 -0.488965
1415 0.568614
1416 1.28967
1417 0.285347
1418 1.57401
1419 0.763423
1420 0.47695
1421 0.0886447
1422 -0.144069
1423 -0.353758
1424 0.532955
1425 0.198097
1426 -1.49414
1427 0.246581
1428 1.72464
1429 0.928104
1430 -2.16402
1431 0.610411
1432 -0.766322
1433 -0.875558
1434 1.46365
1435 -0.968829
1436 -2.29078
1437 -0.11799
1438 -1.35991
1439 1.73179
1440 1.22611
1441 0.602059
1442 1.57422
1443 0.124178
1444 -0.560591
1445 0.888143
1446 0.317237
1447 0.592783
1448 -0.258948
1449 -0.0816077
1450 0.697877
1451 -1.80986
1452 1.04436
1453 0.924305
1454 0.640942
1455 1.03958
1456 1.25129
1457 0.972652
1458 1.5249
1459 0.0610439
1460 0.473307
1461 -1.33468
1462 -0.0105207
1463 -1.58063
1464 -2.48458
1465 0.858846
1466 -0.849246
1467 -0.562609
1468 -0.698017
1469 1.96496
1470 -0.576179
1471 2.01555
1472 0.756188
1473 0.812743
1474 -0.229679
1475 0.571905
1476 1.7086
1477 1.03167
1478 -0.752825
1479 -0.0171169
1480 -0.58727
1481 -0.885186
1482 0.666456
1483 -0.250253
1484 -1.89923
1485 -0.530488
1486 1.65266
1487 -1.90701
1488 0.507734
1489 1.1223
1490 -1.04352
1491 0.648536
1492 0.314636
1493 1.3076
1494 -0.364808
1495 0.264839
1496 -0.648859
1497 0.465257
1498 1.50164
1499 0.449406
1500 0.323821
1501 0.251622
1502 -1.3483
1503 0.283423
1504 -0.174591
1505 -0.319711
1506 -0.382326
1507 -0.0703301
1508 0.416272
1509 -1.9026
1510 1.09472
1511 -0.201769
1512 -0.149169
1513 0.496803
1514 0.19234
1515 -0.1514
1516 -0.198064
1517 1.54544
1518 0.554805
1519 -0.90638
1520 0.237273
1521 -1.91154
1522 -1.70524
1523 -1.18663
1524 -1.22276
1525 0.747692
1526 -0.398507
1527 0.771438
1528 0.470427
1529 1.83972
1530 -0.376682
1531 0.2165
1532 0.619408
1533 1.14706
1534 -0.571243
1535 0.123006
1536 0.844029
1537 0.165601
1538 -0.927392
1539 -0.298175
1540 1.52961
1541 -0.487843
1542 1.03208
1543 1.2875
1544 0.566032
1545 -0.630719
1546 0.0567388
1547 -0.719625
1548 -2.20055
1549 -0.822676
1550 1.30582
1551 1.91238
1552 0.136664
1553 0.983302
1554 0.444287
1555 -0.128014
1556 1.24173
1557 -0.356691
1558 2.27799
1559 -1.35231
1560 1.33892
1561 -0.0445776
1562 0.150013
1563 0.374207
1564 -0.377858
1565 0.424438
1566 0.50738
1567 1.25509
1568 0.198654
1569 -0.903801
1570 -1.06429
1571 0.430951
1572 -0.506278
1573 0.462261
1574 0.229633
1575 -0.850149
1576 0.408972
1577 -0.323321
1578 -0.96797
1579 1.48446
1580 -0.0270181
1581 -0.124874
1582 -1.67758
1583 -0.574808
1584 0.806786
1585 0.310822
1586 -1.59824
1587 1.16611
1588 1.20463
1589 2.15457
1590 0.632553
1591 -1.17975
1592 -0.0276108
1593 0.226357
1594 1.22227
1595 0.524095
1596 -0.604358
1597 1.22728
