1 1.1628
2 -0.180592
3 0.814035
4 -1.53022
5 -0.1643
6 -0.582372
7 -0.402618
8 -0.784739
9 0.159654
10 -0.131765
11 -0.134091
12 1.20335
13 -0.211744
14 -1.83802
15 0.742256
16 -0.779475
17 -1.53808
18 -1.49888
19 0.971592
20 0.402699
21 0.18263
22 -1.66898
23 1.04832
24 -0.0572256
25 0.597502
26 -0.392691
27 0.294361
28 -1.75727
29 0.584796
30 1.12744
31 -0.151099
32 -0.00643074
33 1.2387
34 0.501834
35 -1.00809
36 -0.711732
37 -1.515
38 -0.629838
39 0.869157
40 0.654424
41 0.661713
42 0.223063
43 -0.364866
44 1.19308
45 -2.85044
46 0.180424
47 -0.715883
48 0.75493
49 -1.89783
50 -0.551902
51 0.706235
52 -1.56417
53 -0.652241
54 -0.40095
55 -1.19033
56 1.29763
57 0.293816
58 0.273922
59 -0.710792
60 0.155146
61 -1.621
62 1.02958
63 0.592695
64 0.173058
65 0.529864
66 0.155073
67 0.602032
68 0.457799
69 0.176121
70 -0.416882
71 -0.584338
72 -1.44908
73 -1.89081
74 0.328866
75 -1.00069
76 0.157898
77 -0.430398
78 -0.504287
79 -0.196645
80 1.19845
81 -0.38615
82 -1.50899
83 -0.626306
84 0.266908
85 -0.211249
86 0.213394
87 -1.31169
88 -0.0852612
89 1.36031
90 -4.20262
91 -1.0018
92 0.991457
93 -0.820923
94 1.31469
95 0.911166
96 -2.06267
97 0.216581
98 1.19601
99 -0.264144
100 0.771569
101 0.377386
102 -0.221649
103 0.019763
104 0.216475
105 1.25236
106 0.373595
107 0.676831
108 0.216117
109 0.261262
110 1.11186
111 1.6266
112 0.700125
113 -1.3893
114 0.777033
115 1.18028
116 -0.99703
117 0.795244
118 -0.0642816
119 0.0985146
120 1.07886
121 -3.0104
122 0.119324
123 -0.30393
124 -1.47883
125 0.805513
126 -0.0533698
127 0.465869
128 0.375593
129 0.344737
130 -1.80055
131 -0.0893498
132 1.59475
133 1.59831
134 1.34648
135 -2.59908
136 1.5152
137 -0.745018
138 0.489564
139 -0.499654
140 0.989558
141 0.5053
142 -1.50918
143 -1.46873
144 0.615386
145 0.731837
146 -0.286559
147 -1.42766
148 0.888726
149 -0.705656
150 -1.57358
151 1.39654
152 0.0487835
153 0.232306
154 1.0673
155 -1.44824
156 -1.1944
157 -1.00957
158 -0.288602
159 0.681715
160 0.832012
161 0.741855
162 0.487203
163 -0.527487
164 0.5918
165 1.55452
166 0.150925
167 0.959869
168 -0.728109
169 0.760162
170 1.09989
171 0.819385
172 -1.15543
173 -0.564547
174 -0.907498
175 0.771265
176 2.12584
177 0.401483
178 1.39995
179 0.170829
180 0.110255
181 0.708069
182 0.511095
183 0.344184
184 0.625489
185 1.10953
186 0.0515459
187 0.294238
188 0.732977
189 -1.48142
190 -1.34263
191 -0.285506
192 -1.17815
193 1.08318
194 -1.25461
195 -0.795164
196 0.341708
197 -0.32328
198 -0.0956815
199 0.0412332
200 -2.83364
201 0.377249
202 -1.56952
203 -0.340534
204 0.0609503
205 -1.74191
206 -0.922805
207 -2.00431
208 0.0371497
209 0.100589
210 0.374671
211 0.794606
212 1.21986
213 -1.17339
214 -3.65484
215 0.110354
216 -1.92676
217 0.74486
218 -0.154164
219 -0.179272
220 0.83118
221 -1.3859
222 -0.00240489
223 -1.89204
224 -0.292111
225 -0.184027
226 -1.00159
227 0.601461
228 -0.124814
229 0.937018
230 0.553761
231 0.0467363
232 0.476648
233 0.807528
234 1.12237
235 1.19783
236 0.316382
237 -0.542975
238 -0.438803
239 0.186556
240 0.372489
241 0.737036
242 1.11195
243 -1.28608
244 0.585506
245 -1.47446
246 0.403418
247 -1.96553
248 1.06176
249 0.729282
250 0.0903004
251 0.6513
252 -0.949562
253 0.34452
254 0.747861
255 0.313698
256 0.598652
257 -0.849465
258 0.903886
259 0.529797
260 0.753412
261 0.56243
262 1.14031
263 0.398309
264 -1.36421
265 0.384494
266 -1.50488
267 0.193395
268 0.524946
269 0.267147
270 -1.55758
271 -0.330455
272 -1.59436
273 0.0464242
274 -0.94808
275 0.55461
276 -1.33582
277 0.645393
278 0.550944
279 -1.48796
280 1.02191
281 0.332224
282 -1.73928
283 -0.146181
284 1.26658
285 0.749833
286 -0.2408
287 0.314821
288 -0.32777
289 -0.949756
290 0.254484
291 0.110075
292 0.6163
293 1.56971
294 -1.35327
295 -0.629428
296 0.933627
297 0.0193419
298 1.0009
299 0.0767816
300 1.05707
301 1.41461
302 -0.755246
303 -1.27934
304 -0.258969
305 -0.0248444
306 -0.626831
307 0.82971
308 0.655127
309 1.13892
310 -1.46382
311 1.26996
312 0.637985
313 0.0341845
314 -0.106759
315 0.343489
316 -0.73435
317 0.780404
318 -0.19517
319 1.01325
320 -1.5144
321 0.926825
322 0.712669
323 1.50521
324 1.10796
325 -1.65692
326 0.682616
327 -0.357
328 1.55886
329 0.50664
330 1.02201
331 -0.341289
332 0.534159
333 1.53483
334 -0.128253
335 -0.69422
336 -2.37463
337 1.36243
338 1.82825
339 0.450397
340 1.2023
341 0.189668
342 -0.641258
343 0.491101
344 -0.184295
345 1.5491
346 0.628876
347 1.29176
348 -0.194381
349 -1.75821
350 -0.898762
351 1.24475
352 -0.683892
353 0.186051
354 -1.39033
355 1.42427
356 0.748821
357 0.365433
358 -1.07712
359 0.369719
360 1.25426
361 0.868466
362 1.75776
363 -1.2637
364 0.0340538
365 0.264966
366 0.932715
367 0.501876
368 -0.748607
369 0.368999
370 0.737649
371 0.342247
372 -1.67093
373 1.16918
374 0.52226
375 -2.21559
376 -0.968589
377 -0.901897
378 -0.172772
379 0.906607
380 1.44665
381 0.555622
382 0.108592
383 0.655325
384 1.27757
385 0.908204
386 -0.141543
387 -0.220564
388 0.99629
389 0.720267
390 -0.247554
391 0.20283
392 0.608349
393 -2.24313
394 1.39274
395 1.18845
396 -1.03378
397 1.87092
398 -1.15238
399 0.23007
400 0.366331
401 -0.71424
402 -0.131028
403 -0.543343
404 -1.22638
405 1.73748
406 -0.0883607
407 1.3264
408 0.210092
409 -0.111811
410 -1.89412
411 0.241784
412 -1.66177
413 0.55831
414 0.401949
415 1.9495
416 0.368416
417 0.365357
418 0.245449
419 -0.191914
420 1.60562
421 0.123006
422 0.379262
423 0.527388
424 0.196398
425 1.3261
426 0.393129
427 1.02471
428 0.288143
429 -0.955648
430 1.65387
431 1.15317
432 0.475195
433 1.55708
434 1.3308
435 -0.161279
436 0.511324
437 1.7992
438 1.41821
439 1.19372
440 1.71165
441 -2.76702
442 0.156032
443 -0.348393
444 -1.17721
445 1.21001
446 0.964833
447 0.0330601
448 0.889703
449 1.61546
450 0.731381
451 0.8356
452 0.707714
453 -0.292449
454 0.169838
455 -0.779972
456 0.542733
457 1.47158
458 0.178694
459 0.135048
460 1.67263
461 0.584837
462 0.869674
463 1.5827
464 0.877204
465 -1.70884
466 0.00990118
467 -1.25353
468 -0.755653
469 -1.33653
470 0.567073
471 -0.0180083
472 0.655775
473 1.36673
474 -0.0505629
475 0.940205
476 -1.91872
477 -0.800219
478 -2.8632
479 -1.18812
480 -0.163674
481 0.00109213
482 0.985335
483 -0.681556
484 0.898877
485 0.301566
486 0.0281118
487 -1.51319
488 0.424772
489 -0.253209
490 0.171104
491 0.0409859
492 0.238916
493 0.692332
494 -1.84576
495 -2.68161
496 0.52296
497 1.32861
498 -0.378989
499 0.0640158
500 0.403518
501 -0.607302
502 -2.33719
503 -1.34628
504 0.00923933
505 -0.0523512
506 0.406309
507 -0.228252
508 -1.02615
509 -0.104658
510 -0.12932
511 -1.08105
512 1.32076
513 1.13739
514 -1.45619
515 1.4739
516 -1.50148
517 0.156952
518 -1.42992
519 -1.06159
520 -2.0875
521 0.572747
522 0.0187471
523 -0.00585754
524 -1.46935
525 -0.102845
526 -1.11044
527 -0.253626
528 1.62703
529 -1.45616
530 -1.93494
531 -1.81965
532 -0.381814
533 -0.188424
534 1.32281
535 -0.492478
536 -2.12068
537 -0.687754
538 -0.471913
539 -1.02895
540 -1.52353
541 -0.0107342
542 -0.191444
543 0.871173
544 -0.632068
545 0.411146
546 -1.20611
547 0.600599
548 -0.12834
549 0.386433
550 -0.397832
551 -0.711464
552 0.0394515
553 -0.159408
554 0.284053
555 0.912924
556 -0.0612826
557 -0.143157
558 0.468142
559 -0.17179
560 0.964534
561 -0.0399588
562 0.0517599
563 1.45702
564 0.448426
565 0.291963
566 -1.8082
567 -0.227235
568 -0.650823
569 -1.16381
570 -0.846732
571 -2.35459
572 -1.41515
573 0.992256
574 1.39366
575 0.482661
576 -2.3585
577 -0.525967
578 -0.0731918
579 -0.515014
580 0.666008
581 0.110771
582 1.08057
583 0.594314
584 -0.30696
585 0.579731
586 1.04208
587 1.65988
588 0.844132
589 0.12454
590 1.32964
591 -0.89089
592 1.49504
593 0.626918
594 -0.609729
595 0.413152
596 -0.0933535
597 -0.648348
598 0.67657
599 -2.02899
600 0.856416
601 1.09502
602 -1.60886
603 0.683751
604 -0.295965
605 -0.525219
606 -0.348973
607 -1.00299
608 0.12418
609 0.551012
610 -0.757838
611 -0.422522
612 0.446913
613 -0.31634
614 -1.78267
615 -2.01412
616 -2.68506
617 1.00729
618 -0.0610017
619 0.340499
620 0.0494038
621 -0.0952976
622 0.686558
623 -2.57576
624 -0.255786
625 -0.519691
626 0.158067
627 0.330154
628 -0.866165
629 -0.698807
630 -1.9514
631 0.0653413
632 0.66631
633 1.69623
634 -0.110173
635 -0.238341
636 1.44254
637 -0.693825
638 1.50079
639 -0.538321
640 -0.509029
641 -0.712647
642 -0.198357
643 -0.853266
644 0.901763
645 -1.7477
646 -1.50416
647 -0.855233
648 1.42724
649 -0.040553
650 -1.44031
651 -0.573333
652 0.454535
653 1.59371
654 0.284359
655 -0.318675
656 0.398038
657 0.0453288
658 -0.31505
659 0.175975
660 -2.72259
661 1.42371
662 1.18466
663 1.11085
664 -1.08411
665 0.703717
666 0.0630363
667 -0.643024
668 0.365367
669 0.31144
670 1.73391
671 -0.523951
672 1.29737
673 1.47602
674 0.664252
675 0.0460915
676 0.163784
677 1.34046
678 -0.329693
679 0.147623
680 0.550912
681 0.869853
682 0.4144
683 -0.697154
684 1.10437
685 0.425129
686 0.379547
687 0.832803
688 0.256839
689 -0.00230355
690 1.35908
691 -1.10601
692 0.79917
693 0.142632
694 1.29267
695 0.810838
696 1.57935
697 0.455748
698 0.474175
699 0.45116
700 0.343579
701 0.0553763
702 0.473895
703 -1.43948
704 1.05146
705 1.14333
706 1.09653
707 1.644
708 -1.7779
709 1.21077
710 0.453927
711 0.677341
712 -0.90516
713 -0.148998
714 0.690334
715 0.241072
716 1.1473
717 -1.0669
718 1.91654
719 0.208829
720 0.684279
721 -0.567971
722 -0.16822
723 0.580212
724 0.845928
725 1.1688
726 0.0129668
727 -2.302
728 -1.37392
729 0.614699
730 0.210561
731 0.094344
732 1.23005
733 -0.919444
734 1.70369
735 -0.679844
736 -0.145295
737 1.48964
738 0.83775
739 -0.304294
740 -0.576153
741 -1.39596
742 1.29968
743 -0.0770853
744 0.459741
745 0.111454
746 0.879469
747 0.735532
748 0.450158
749 1.33161
750 0.385635
751 1.81526
752 0.724299
753 -0.0764379
754 1.09904
755 1.2135
756 0.27934
757 0.620787
758 -0.207501
759 -2.35194
760 -0.76511
761 1.35461
762 -1.54315
763 0.478873
764 1.3474
765 -1.4795
766 0.0671775
767 -0.722388
768 1.28832
769 -1.93687
770 1.30482
771 -1.54525
772 -1.23433
773 1.09611
774 0.402122
775 -0.496155
776 0.563769
777 0.893713
778 -0.0743682
779 0.108932
780 1.19747
781 -0.0512653
782 0.988529
783 1.26001
784 1.08496
785 1.64707
786 0.0583168
787 1.47287
788 0.684793
789 0.795692
790 0.395296
791 0.829276
792 1.79704
793 1.12936
794 0.916189
795 1.10319
796 -1.37784
797 1.22292
798 0.458512
799 0.258312
800 1.03695
801 -0.0171528
802 -0.620075
803 1.86346
804 1.27289
805 2.0629
806 1.08451
807 -0.63954
808 0.932874
809 -0.626168
810 -1.09474
811 1.58679
812 1.30798
813 -1.35144
814 -2.62562
815 0.92385
816 -1.59583
817 0.213991
818 0.870064
819 0.662662
820 -0.888948
821 0.490385
822 -0.204042
823 0.465872
824 1.23714
825 0.486928
826 0.213722
827 0.346018
828 -0.849667
829 0.0449988
830 0.399206
831 0.781596
832 0.589542
833 0.665932
834 -1.02568
835 1.56746
836 -1.51776
837 -0.281636
838 -0.935046
839 0.755396
840 -1.13767
841 0.363642
842 1.03804
843 1.06345
844 0.811774
845 -2.06075
846 0.701022
847 -0.402128
848 0.295411
849 0.855424
850 1.13206
851 0.235255
852 -0.377151
853 -1.51484
854 -2.06161
855 -1.31032
856 0.727365
857 0.273864
858 0.223904
859 2.06401
860 1.73365
861 0.759277
862 0.0703839
863 -0.75804
864 -1.31804
865 0.940042
866 -0.996477
867 1.80834
868 1.13957
869 0.842748
870 -3.53704
871 0.793447
872 1.18336
873 -1.407
874 0.973038
875 -0.924903
876 1.01563
877 1.28813
878 -0.918228
879 -0.524439
880 -1.3018
881 0.0227766
882 -1.40763
883 1.00348
884 0.919996
885 1.23221
886 1.45807
887 -0.699073
888 0.5871
889 0.705056
890 -0.498947
891 -0.0206514
892 -1.01034
893 0.160801
894 0.955808
895 -0.594601
896 1.16682
897 -1.13017
898 -4.04861
899 -0.163235
900 0.0414647
901 -3.1774
902 0.908554
903 0.695139
904 -1.5004
905 -1.25189
906 -0.829134
907 0.678008
908 0.405663
909 -0.442337
910 0.541142
911 -1.18433
912 -2.47616
913 0.331742
914 -1.59077
915 0.503677
916 -0.597762
917 0.11125
918 -1.13246
919 0.357392
920 -0.245932
921 0.601489
922 -0.294034
923 -0.229842
924 0.086217
925 -0.646382
926 -0.555631
927 -0.355594
928 -0.724322
929 1.07377
930 -0.842808
931 0.431779
932 0.563696
933 -0.245357
934 0.0811233
935 -1.38295
936 0.802628
937 -0.631377
938 0.111248
939 -2.12047
940 -1.12068
941 -1.85931
942 -0.878227
943 1.14945
944 -1.27654
945 0.216945
946 -1.74593
947 -1.73492
948 -2.17733
949 -0.272735
950 0.209819
951 -0.420409
952 -2.86436
953 0.521932
954 -0.296356
955 0.731396
956 0.657983
957 0.0514843
958 0.941303
959 -1.64236
960 -0.752569
961 0.141205
962 0.382216
963 -0.587863
964 -1.16241
965 -0.667414
966 -0.543876
967 -1.28642
968 0.0999844
969 1.52561
970 0.779949
971 -0.557242
972 -1.53497
973 -1.2276
974 1.04003
975 0.287563
976 0.735474
977 0.488027
978 -0.372726
979 -1.6867
980 -0.581151
981 -2.10821
982 1.09438
983 0.455149
984 -0.129846
985 -0.399124
986 -0.754613
987 -0.576636
988 1.12304
989 -0.854159
990 0.970076
991 0.0838862
992 0.810707
993 0.33249
994 -1.59519
995 0.734871
996 -1.25815
997 0.387882
998 -0.00372143
999 -2.31692
1000 -0.721625
1001 0.0119204
1002 0.00679768
1003 0.00638661
1004 -0.778648
1005 -0.0804012
1006 -2.1107
1007 -1.994
1008 -0.00704955
1009 0.476138
1010 1.00104
1011 1.23154
1012 -1.88251
1013 0.168322
1014 -0.378112
1015 0.548135
1016 1.42101
1017 0.24111
1018 -1.0335
1019 0.40447
1020 -1.69676
1021 -0.244974
1022 1.311
1023 -0.780093
1024 0.510965
1025 -1.10811
1026 -0.974651
1027 0.794701
1028 -1.63135
1029 -0.354889
1030 -0.6987
1031 -2.27705
1032 -1.19725
1033 2.12411
1034 0.498909
1035 0.875632
1036 0.231661
1037 0.289082
1038 0.914858
1039 0.590766
1040 1.5682
1041 -1.07816
1042 1.4733
1043 0.11572
1044 0.980184
1045 0.173769
1046 -1.11051
1047 1.98711
1048 0.342158
1049 -0.573155
1050 -0.902621
1051 -0.0142973
1052 -0.130896
1053 1.02457
1054 1.11324
1055 -1.27164
1056 0.520012
1057 -0.165159
1058 0.0414209
1059 -0.384926
1060 -1.43537
1061 0.441517
1062 -0.942895
1063 -0.999118
1064 0.500294
1065 -1.40588
1066 -1.19129
1067 0.748585
1068 0.534324
1069 1.27014
1070 -1.02233
1071 0.540521
1072 -1.17778
1073 -0.794551
1074 1.07688
1075 -0.445015
1076 -0.258979
1077 0.429246
1078 1.42432
1079 -1.44084
1080 -0.455245
1081 -1.07554
1082 -0.604821
1083 1.14561
1084 0.908919
1085 -0.144448
1086 2.15227
1087 0.71286
1088 0.085552
1089 -1.12482
1090 1.49289
1091 0.282966
1092 0.71804
1093 0.197622
1094 -0.0373883
1095 -1.09718
1096 -0.716013
1097 0.0617537
1098 -0.74542
1099 -1.30072
1100 0.643693
1101 0.0165921
1102 -0.0737612
1103 1.57124
1104 -1.74031
1105 0.832184
1106 -0.281772
1107 -0.0798726
1108 -0.618566
1109 -1.97531
1110 0.61481
1111 1.26143
1112 0.286898
1113 0.899241
1114 -0.223705
1115 0.359449
1116 -1.554
1117 0.407578
1118 -1.40176
1119 0.615806
1120 -2.07712
1121 0.433727
1122 0.664328
1123 -1.05063
1124 0.740146
1125 -0.0676949
1126 0.492483
1127 -0.887696
1128 -0.165307
1129 -0.0259284
1130 0.445084
1131 -1.30878
1132 -1.50346
1133 -0.36716
1134 -0.392227
1135 0.678231
1136 -0.759137
1137 0.088194
1138 -0.0314789
1139 0.880693
1140 -1.14104
1141 -1.36635
1142 -1.29079
1143 -0.698303
1144 0.457028
1145 0.539756
1146 0.339358
1147 -0.982985
1148 -1.7523
1149 -0.393905
1150 -0.471434
1151 -0.334353
1152 -0.188211
1153 -1.08144
1154 0.424676
1155 -0.772986
1156 0.527358
1157 -1.25949
1158 -0.239712
1159 -0.606938
1160 -0.407458
1161 -1.02366
1162 1.28891
1163 -0.441113
1164 0.785315
1165 -0.0358927
1166 -0.871151
1167 -0.770155
1168 0.383677
1169 -1.07528
1170 0.0807308
1171 1.1558
1172 0.265765
1173 0.385493
1174 0.308314
1175 -0.0964513
1176 0.199202
1177 -0.784644
1178 0.6639
1179 -0.989961
1180 -0.570022
1181 0.52299
1182 -2.10327
1183 0.371038
1184 0.530101
1185 -0.840925
1186 -0.633952
1187 1.39419
1188 0.862974
1189 -0.32863
1190 0.777748
1191 -1.48717
1192 1.18365
1193 -0.373923
1194 1.52617
1195 1.30068
1196 -2.30634
1197 0.771346
1198 -1.23068
1199 0.714775
1200 0.259536
1201 0.287537
1202 1.00468
1203 0.945511
1204 0.238543
1205 0.758378
1206 0.656245
1207 0.816432
1208 -0.824238
1209 0.661144
1210 -2.14552
1211 0.451674
1212 0.676235
1213 -0.438314
1214 -0.136075
1215 -0.473196
1216 0.0697654
1217 0.41162
1218 -0.245406
1219 -0.69527
1220 -0.537572
1221 0.573917
1222 1.63526
1223 -0.128145
1224 0.248841
1225 -0.4015
1226 1.20186
1227 -0.509905
1228 0.587597
1229 0.736342
1230 0.357931
1231 -0.125043
1232 -0.234014
1233 -0.034947
1234 -1.93091
1235 0.520501
1236 -0.282918
1237 0.722769
1238 -0.129056
1239 0.54116
1240 0.381611
1241 -0.0399098
1242 -0.402138
1243 0.841308
1244 -0.638214
1245 0.895738
1246 -0.479343
1247 0.711073
1248 0.113281
1249 0.186273
1250 0.416683
1251 0.021588
1252 -0.136406
1253 -0.72642
1254 -0.74096
1255 -0.148628
1256 0.410582
1257 -0.0869045
1258 -0.628896
1259 1.03972
1260 0.271622
1261 0.16605
1262 0.396589
1263 0.0766591
1264 0.563152
1265 0.383381
1266 0.155632
1267 0.0894229
1268 1.31168
1269 1.04992
1270 1.15393
1271 -0.941401
1272 0.70161
1273 -0.172083
1274 0.426851
1275 0.5975
1276 0.945872
1277 0.012454
1278 1.9217
1279 0.480968
1280 0.596767
1281 0.622294
1282 -1.13774
1283 1.43308
1284 1.10624
1285 0.290523
1286 0.759107
1287 1.41089
1288 -0.137651
1289 0.440941
1290 0.650639
1291 0.776701
1292 -0.663585
1293 0.906385
1294 -0.0096697
1295 0.498861
1296 0.554268
1297 0.803303
1298 0.413771
1299 0.839844
1300 0.848041
1301 -1.289
1302 0.660347
1303 1.58376
1304 -0.966544
1305 0.302531
1306 -1.27955
1307 1.49824
1308 0.140991
1309 -0.517765
1310 1.28159
1311 0.146932
1312 1.06914
1313 -0.642387
1314 0.646806
1315 0.373047
1316 0.787763
1317 -1.52588
1318 1.02553
1319 1.15292
1320 -0.608313
1321 -0.692603
1322 -2.14474
1323 -2.89046
1324 1.44376
1325 0.48324
1326 1.80213
1327 -0.36213
1328 -1.82468
1329 -1.34631
1330 0.458338
1331 -0.799836
1332 -0.911165
1333 1.28905
1334 1.12282
1335 1.38837
1336 0.813907
1337 1.00558
1338 -0.559823
1339 -2.94417
1340 -1.7769
1341 -1.19929
1342 0.633504
1343 0.56917
1344 0.454598
1345 0.936115
1346 -2.05986
1347 0.0614967
1348 0.899432
1349 1.32258
1350 0.845028
1351 0.756518
1352 -1.17196
1353 0.796004
1354 -0.927478
1355 -0.649865
1356 1.03878
1357 -0.704707
1358 -1.78439
1359 0.865784
1360 -0.395943
1361 1.42481
1362 -0.903209
1363 -0.504189
1364 0.570366
1365 0.605296
1366 -0.0415508
1367 0.22197
1368 0.115546
1369 0.769069
1370 1.09947
1371 1.1492
1372 0.992333
1373 0.212606
1374 -0.357684
1375 0.616803
1376 -2.32907
1377 -1.37913
1378 -0.811036
1379 -0.105118
1380 -0.589667
1381 0.139424
1382 1.44893
1383 0.438532
1384 0.484987
1385 1.00042
1386 0.767914
1387 0.367366
1388 0.736385
1389 0.366995
1390 -0.394847
1391 -0.544425
1392 -1.27074
1393 -1.4253
1394 1.14379
1395 -0.297149
1396 -0.991159
1397 -0.378593
1398 0.72438
1399 0.448085
1400 -0.684394
1401 1.10622
1402 -0.34993
1403 1.55999
1404 0.329256
1405 0.771108
1406 -1.68861
1407 -1.04885
1408 0.600173
1409 0.247079
1410 0.116881
1411 -0.107304
1412 0.159701
1413 -1.76046
1414 1.56421
1415 0.521374
1416 0.567984
1417 0.516692
1418 -1.10706
1419 0.75839
1420 -0.0155084
1421 -1.42163
1422 -0.131023
1423 0.931912
1424 0.478955
1425 -1.516
1426 0.48271
1427 0.113762
1428 0.291517
1429 1.02776
1430 1.43267
1431 1.45946
1432 1.77975
1433 -0.766043
1434 -1.71879
1435 1.46741
1436 0.844053
1437 1.38799
1438 1.15509
1439 0.314835
1440 0.0238154
1441 0.419787
1442 1.33885
1443 1.59997
1444 0.178507
1445 1.05338
1446 0.209461
1447 -1.48436
1448 0.844845
1449 -1.06161
1450 1.36847
1451 1.43642
1452 0.897168
1453 -0.294039
1454 0.778342
1455 -1.31294
1456 -0.407221
1457 1.18927
1458 -0.0739618
1459 1.58281
1460 -0.228108
1461 -1.0799
1462 -0.112629
1463 0.445302
1464 0.490377
1465 -0.550433
1466 0.246959
1467 0.713284
1468 -0.843446
1469 0.148479
1470 0.549101
1471 -1.57546
1472 1.47709
1473 -0.0453319
1474 0.200148
1475 1.47181
1476 0.133747
1477 0.755355
1478 -0.988276
1479 -0.882961
1480 -1.49236
1481 0.190378
1482 0.970811
1483 0.181327
1484 0.0293555
1485 -1.46857
1486 -0.185961
1487 0.327178
1488 0.57
1489 0.0724265
1490 0.561183
1491 0.378183
1492 -0.123037
1493 -0.950365
1494 -0.330243
1495 -0.411373
1496 0.166931
1497 -0.35894
1498 0.910644
1499 -0.966522
1500 -0.51828
1501 -0.778501
1502 -0.956634
1503 1.04084
1504 0.788004
1505 -0.220495
1506 0.380589
1507 0.407366
1508 0.646129
1509 0.383402
1510 -0.154157
1511 0.15026
1512 -0.0861478
1513 -0.0981138
1514 -0.172059
1515 1.3884
1516 -0.971988
1517 -1.09042
1518 -1.02863
1519 1.33663
1520 -1.208
1521 -1.29822
1522 -1.41553
1523 0.445457
1524 0.860844
1525 -0.609718
1526 -0.310853
1527 0.33753
1528 -2.1485
1529 0.109863
1530 -1.57588
1531 -1.32593
1532 -1.55403
1533 -1.18116
1534 -0.467991
1535 -0.520688
1536 -1.24478
1537 -0.213557
1538 1.03441
1539 -0.0829087
1540 -1.44614
1541 -0.542654
1542 -0.985301
1543 -0.383787
1544 0.0793264
1545 0.10785
1546 0.789357
1547 -0.663269
1548 -1.02419
1549 0.167712
1550 -1.35278
1551 -0.95261
1552 0.322969
1553 -1.49317
1554 0.214179
1555 -1.57609
1556 -0.930543
1557 -1.52622
1558 0.4955
1559 0.296706
1560 0.553071
1561 -0.216634
1562 -0.0183455
1563 -1.96431
1564 1.38736
1565 -1.48622
1566 -0.583983
1567 -0.651104
1568 -0.0191484
1569 0.731079
1570 0.293252
1571 0.321264
1572 -0.281329
1573 0.323114
1574 1.20021
1575 -1.06082
1576 0.509489
1577 -0.271228
1578 0.113746
1579 1.18705
1580 0.515205
1581 -0.118723
1582 0.968794
1583 -0.295925
1584 -0.236634
1585 -1.45832
1586 0.59301
1587 0.766227
1588 -0.811072
1589 -1.13105
1590 -0.507484
1591 -0.372381
1592 -0.391716
1593 1.06304
1594 -1.39717
1595 -0.480219
1596 0.872531
1597 0.63812
