1 -0.529415
2 1.36764
3 0.112463
4 0.561935
5 -1.06063
6 -0.0287091
7 0.801295
8 -0.458428
9 0.437949
10 1.94969
11 0.128379
12 -1.48381
13 0.692022
14 0.566426
15 -0.086365
16 1.01412
17 0.534944
18 0.860596
19 -0.248634
20 -1.06657
21 -2.00767
22 0.280969
23 0.68411
24 0.359588
25 0.14583
26 0.995043
27 0.893245
28 0.398176
29 -2.42053
30 -1.10457
31 -1.22778
32 0.613112
33 -0.965685
34 0.352237
35 -0.457542
36 0.198959
37 -0.0144712
38 -1.40111
39 -0.970395
40 0.0165247
41 0.569049
42 1.40713
43 -0.0213602
44 0.179899
45 1.24422
46 -0.946104
47 2.02962
48 -0.283099
49 -0.396392
50 0.55797
51 -0.278239
52 0.0728473
53 -0.68745
54 0.709554
55 -0.600929
56 -0.596824
57 0.762634
58 -1.36019
59 -1.03209
60 -0.17688
61 -0.352383
62 0.388228
63 0.597585
64 -1.50025
65 0.219527
66 1.0802
67 1.60467
68 0.477282
69 0.172247
70 0.407602
71 -0.255818
72 0.0106524
73 -0.0601122
74 0.422246
75 0.349127
76 0.528287
77 0.17385
78 0.496386
79 0.780272
80 0.394558
81 -0.745794
82 -0.26351
83 0.542225
84 0.19079
85 0.246256
86 1.07827
87 -0.0269505
88 0.44655
89 1.1649
90 -0.130624
91 1.58335
92 1.12036
93 0.714574
94 0.21803
95 1.05874
96 -2.29217
97 1.60108
98 0.188901
99 -0.501292
100 0.330052
101 0.0149155
102 1.06876
103 0.954511
104 -0.217109
105 -0.758159
106 0.636309
107 1.53881
108 0.855918
109 0.33207
110 -0.676808
111 0.75747
112 1.97504
113 0.654642
114 -0.974403
115 -1.58535
116 0.784429
117 1.32908
118 -1.91254
119 -0.501995
120 -2.0408
121 1.62893
122 -0.0312819
123 -0.377367
124 -1.13558
125 0.986009
126 -2.34494
127 0.595405
128 1.23148
129 1.17708
130 0.184974
131 -0.641718
132 0.803796
133 0.338786
134 1.00237
135 -0.470294
136 1.00574
137 0.545653
138 -0.876903
139 1.09171
140 0.217101
141 1.68405
142 0.338557
143 -0.386426
144 0.324717
145 -0.180905
146 0.735532
147 -1.23183
148 -1.46536
149 -0.0422915
150 0.34886
151 -0.911223
152 -0.492921
153 -0.341872
154 -0.506713
155 1.29386
156 1.12267
157 -0.573348
158 0.596477
159 -0.730421
160 0.796449
161 0.0502461
162 0.55931
163 -2.83494
164 0.756815
165 1.24196
166 -0.423522
167 0.0394877
168 -0.828374
169 0.267172
170 0.625219
171 -0.39227
172 -1.55775
173 1.59756
174 0.388659
175 -0.557139
176 -0.864699
177 0.196114
178 -0.414707
179 -0.727135
180 -0.948868
181 -0.0188447
182 2.01122
183 -0.497427
184 1.79122
185 1.06525
186 0.561366
187 -0.734186
188 -2.03368
189 -1.07419
190 1.50848
191 -0.0287165
192 0.212242
193 -0.763736
194 0.122534
195 0.0812158
196 0.828853
197 -0.735335
198 0.394223
199 0.351742
200 0.277217
201 1.01838
202 1.55766
203 0.943328
204 -0.326716
205 0.40774
206 -1.1505
207 -0.387382
208 -0.778039
209 0.635283
210 -2.15831
211 0.259553
212 1.07956
213 -0.767484
214 -0.119508
215 1.86468
216 -1.45665
217 0.219999
218 -0.506671
219 0.255754
220 -1.96325
221 0.634365
222 -0.293052
223 0.840723
224 -0.494356
225 -1.25522
226 -0.646225
227 1.13335
228 1.48773
229 -0.30836
230 1.52076
231 0.88836
232 -0.0145748
233 -1.53295
234 0.183247
235 -1.67348
236 -1.02041
237 0.0791073
238 0.0878516
239 -2.03113
240 0.625717
241 0.700672
242 -0.261457
243 0.260797
244 0.269868
245 1.06198
246 -0.41979
247 0.408523
248 -0.087323
249 -0.0383153
250 -0.976539
251 -0.214747
252 0.376997
253 0.0260634
254 -0.256872
255 0.518016
256 -0.901682
257 0.970314
258 -0.0919982
259 0.531538
260 0.509629
261 0.118197
262 -0.32138
263 -0.186665
264 0.0851777
265 -0.14499
266 1.00047
267 0.161815
268 -1.51906
269 -2.06898
270 -0.14146
271 -0.61243
272 0.761552
273 -0.0372528
274 1.58629
275 -0.901282
276 1.51231
277 1.13391
278 0.378776
279 -1.24921
280 0.388783
281 0.753578
282 0.110459
283 -0.035958
284 1.15236
285 0.135926
286 -0.867829
287 0.590151
288 0.808253
289 -1.24972
290 0.63364
291 0.380876
292 0.749048
293 0.823106
294 0.716489
295 -2.26014
296 -1.12098
297 -0.794871
298 0.165547
299 0.0714643
300 0.511132
301 0.825577
302 -0.491115
303 0.853161
304 1.128
305 0.524011
306 -0.871714
307 -3.80021
308 0.788631
309 -0.816124
310 1.50779
311 -3.28673
312 6.2005e-06
313 -2.54076
314 -0.217786
315 -1.67809
316 0.124403
317 -0.546534
318 -0.153433
319 -0.031058
320 0.379965
321 -0.0558078
322 0.581205
323 0.148003
324 1.73978
325 -0.0351678
326 -0.111197
327 -0.174387
328 0.470814
329 -0.00174107
330 0.692601
331 0.488778
332 0.278065
333 -0.644098
334 -0.626813
335 -1.21829
336 0.124842
337 0.298985
338 -0.123063
339 1.11071
340 -0.872219
341 0.715227
342 -0.166066
343 0.435633
344 -0.423751
345 0.0849465
346 -1.41247
347 0.431797
348 0.88279
349 0.640784
350 0.851309
351 -1.18118
352 -2.42323
353 0.466874
354 1.05594
355 0.218316
356 0.985942
357 1.41825
358 -0.130045
359 0.380588
360 -0.835982
361 1.52307
362 -0.0765582
363 0.822483
364 0.488738
365 0.194106
366 -1.74195
367 -1.04682
368 0.161564
369 0.162564
370 -1.53468
371 -0.943117
372 -1.29806
373 0.280606
374 -0.337665
375 -0.471072
376 0.702447
377 -0.465836
378 -0.626114
379 -0.715074
380 1.18569
381 -0.061441
382 -1.85888
383 1.04966
384 0.80849
385 -0.145739
386 -1.00081
387 -0.43805
388 -0.205226
389 -0.7386
390 0.567651
391 -0.537801
392 0.284441
393 -0.487583
394 -0.80941
395 -0.501933
396 0.229399
397 0.993112
398 0.222794
399 -0.652702
400 -1.76474
401 -0.240572
402 -3.00224
403 0.640675
404 -0.607009
405 0.587068
406 0.108052
407 0.409928
408 -1.5164
409 -0.957132
410 -0.950689
411 -0.392483
412 1.42464
413 0.0105914
414 -2.10317
415 0.375933
416 0.872745
417 0.952683
418 -0.252174
419 -4.64897
420 -1.85892
421 -1.55902
422 -1.58946
423 0.973449
424 0.20684
425 0.319659
426 0.0887451
427 -0.600813
428 -0.286734
429 2.52291
430 0.751438
431 0.0277795
432 -0.805018
433 0.881199
434 1.41636
435 0.619668
436 0.326576
437 1.05008
438 0.663519
439 -0.208115
440 0.595408
441 -0.657976
442 -0.158732
443 -0.283439
444 1.29979
445 -0.85734
446 -0.330476
447 -0.304581
448 0.0666711
449 -0.400014
450 -1.76081
451 -0.302228
452 -2.5572
453 0.596471
454 -0.754819
455 0.14527
456 0.920896
457 -0.783102
458 0.0101805
459 -3.07065
460 0.322198
461 -2.03022
462 -0.551921
463 -2.47971
464 1.60629
465 0.292297
466 -0.466299
467 0.645379
468 0.38177
469 -1.18602
470 -0.909479
471 -1.33612
472 0.251354
473 0.775543
474 -0.195742
475 -0.391704
476 1.12014
477 -0.667442
478 1.44527
479 0.208962
480 0.0633239
481 -0.601839
482 0.247359
483 -0.296823
484 -0.969421
485 -0.766089
486 1.56032
487 -0.143579
488 0.819503
489 0.890406
490 1.70869
491 1.53501
492 0.306015
493 0.0837881
494 0.0385246
495 0.41656
496 -0.357996
497 0.0774828
498 -0.104604
499 1.21189
500 -0.89871
501 1.17525
502 -1.6366
503 0.721172
504 -0.786034
505 0.235357
506 -0.321754
507 0.815672
508 0.333868
509 0.715143
510 0.346961
511 0.243289
512 2.10852
513 0.550997
514 0.89697
515 -0.112922
516 0.620535
517 -1.16335
518 0.176314
519 -0.0261864
520 -0.774472
521 1.07953
522 0.180376
523 0.357598
524 0.850034
525 0.750287
526 0.546077
527 -0.792972
528 -0.321011
529 -0.584206
530 0.228881
531 -0.391949
532 -0.914036
533 0.477103
534 1.2565
535 1.19855
536 1.22411
537 1.20418
538 0.323945
539 1.80782
540 0.556698
541 1.27247
542 -1.72088
543 1.15952
544 0.0148848
545 0.971135
546 -0.85582
547 -2.45507
548 1.5958
549 -2.20012
550 -1.23875
551 -0.355529
552 -0.394482
553 -0.654881
554 -0.512179
555 1.18142
556 0.407468
557 -0.0141382
558 -0.384896
559 -0.200924
560 -1.56493
561 0.871926
562 1.33257
563 0.961419
564 -1.60877
565 0.0531109
566 0.21192
567 -0.0109367
568 -0.620162
569 -0.537843
570 0.72849
571 -0.133187
572 -1.0231
573 1.05177
574 0.520837
575 0.909725
576 0.454307
577 -0.887727
578 1.33897
579 1.36685
580 0.316937
581 -1.97563
582 0.132036
583 -0.352449
584 0.176566
585 -1.60168
586 1.09681
587 1.04947
588 0.392457
589 -0.976135
590 0.0820275
591 -3.16522
592 -0.174585
593 -2.12927
594 -0.645055
595 -0.606118
596 0.185517
597 0.222865
598 0.652801
599 1.12653
600 -1.73642
601 -1.37906
602 -1.53618
603 -0.0169404
604 0.856131
605 -0.568329
606 -0.787901
607 0.990695
608 -1.25268
609 0.742421
610 -0.0960716
611 -0.986528
612 -0.836422
613 0.394534
614 -0.687179
615 -0.201254
616 -0.26482
617 -0.393307
618 -0.25609
619 0.319109
620 -0.522332
621 0.480053
622 0.183925
623 -0.667861
624 0.708449
625 -0.833654
626 0.823749
627 -0.902678
628 -2.27043
629 -1.4158
630 -0.0503667
631 0.419385
632 -2.19339
633 0.318932
634 -2.94715
635 1.0331
636 0.282641
637 -0.618583
638 -0.966331
639 0.707846
640 1.70168
641 0.01654
642 -0.403454
643 -4.18251
644 1.17722
645 -1.39769
646 1.54791
647 -0.549855
648 1.06557
649 0.0804131
650 0.199223
651 -0.434915
652 -0.446978
653 -1.45345
654 -0.736814
655 -2.57443
656 0.0599344
657 0.615574
658 -0.780385
659 -0.11232
660 -0.670259
661 -1.15706
662 1.18817
663 1.09785
664 -0.667442
665 1.07994
666 -0.0280695
667 -0.318798
668 0.382609
669 -2.0483
670 -1.59019
671 0.220685
672 -0.00803278
673 -0.209565
674 -0.251889
675 0.458117
676 -1.80016
677 0.261438
678 -1.42141
679 0.255904
680 -2.61888
681 0.859009
682 -0.00938133
683 -0.741065
684 -0.950353
685 0.278747
686 0.238384
687 0.234416
688 0.746684
689 0.127199
690 -0.989539
691 1.56244
692 0.482135
693 -0.307931
694 0.331113
695 0.756022
696 -0.18645
697 -0.280792
698 0.499389
699 0.750381
700 -0.966003
701 0.14713
702 -1.68716
703 0.942557
704 -0.9519
705 0.405839
706 -1.59575
707 -1.62366
708 0.510384
709 0.806723
710 -0.620672
711 -1.60123
712 0.805188
713 -0.0386128
714 0.743732
715 -1.81151
716 -0.267938
717 0.796272
718 -0.724455
719 0.960736
720 0.378888
721 -0.00487586
722 0.154699
723 0.946258
724 -0.948517
725 0.992777
726 1.04764
727 -1.66207
728 0.364811
729 -2.38678
730 0.743016
731 0.841058
732 0.31517
733 1.34692
734 0.286002
735 0.520114
736 0.295671
737 0.661969
738 0.313531
739 0.885234
740 0.603362
741 1.35956
742 0.81448
743 -1.80074
744 -0.853821
745 0.0987524
746 0.856708
747 1.16209
748 0.321606
749 0.934192
750 0.42207
751 1.80149
752 0.420824
753 0.608753
754 -0.599652
755 0.791517
756 0.838652
757 -0.933362
758 -0.586862
759 -1.29461
760 0.706329
761 -0.300642
762 0.366064
763 -1.02265
764 -1.3084
765 -0.789419
766 -0.137824
767 -0.434354
768 0.964617
769 -0.498458
770 -1.31192
771 -0.206329
772 -1.42005
773 0.229723
774 0.579001
775 1.39814
776 0.276074
777 0.800432
778 -1.24088
779 -1.17472
780 0.259103
781 0.457919
782 -1.53213
783 0.624301
784 -0.547746
785 1.20507
786 -1.00608
787 0.426345
788 0.508967
789 0.0561048
790 -1.647
791 -0.455596
792 -1.27946
793 -0.304844
794 1.39491
795 -0.311206
796 0.637122
797 0.753618
798 -0.0588072
799 0.585352
800 1.26368
801 0.900288
802 1.42025
803 1.2628
804 -1.21817
805 0.0320497
806 0.769424
807 -0.359204
808 1.37699
809 -0.141186
810 1.18529
811 0.545251
812 -0.327819
813 -0.237042
814 -0.314429
815 -0.736723
816 1.56168
817 -1.9304
818 0.100431
819 0.986616
820 -0.442569
821 0.0887813
822 -0.629345
823 1.90447
824 1.59413
825 -0.776072
826 -0.0764557
827 0.358418
828 0.893265
829 -0.341479
830 0.411633
831 -1.04979
832 0.588584
833 0.88821
834 0.958527
835 0.138191
836 -0.318739
837 -0.690781
838 -0.0143613
839 0.38875
840 -0.882116
841 -0.709158
842 1.0911
843 -0.412549
844 -1.49874
845 0.461027
846 0.277479
847 0.382572
848 -0.132005
849 -0.927438
850 -0.206934
851 0.638431
852 -0.0515178
853 0.621099
854 0.494137
855 1.63834
856 0.400469
857 0.0860714
858 -0.326457
859 0.407877
860 0.569373
861 -0.901658
862 1.50563
863 -1.6193
864 0.614662
865 -0.829345
866 1.52352
867 -0.085916
868 0.342346
869 -0.480556
870 -0.229218
871 0.115336
872 -0.126263
873 -1.13131
874 -1.04893
875 0.834149
876 -0.388779
877 1.68351
878 -3.0569
879 -0.754233
880 1.81022
881 0.50707
882 0.54754
883 0.327995
884 1.78241
885 0.920037
886 -0.435393
887 1.40028
888 0.554978
889 1.07945
890 0.856521
891 0.437281
892 0.856834
893 0.242737
894 -0.198005
895 0.764706
896 1.06731
897 0.611951
898 1.31282
899 1.06418
900 -0.148329
901 0.703076
902 1.05261
903 0.958066
904 1.17695
905 0.535442
906 1.59203
907 0.0434385
908 -0.176665
909 -0.341475
910 -1.01638
911 -0.703476
912 0.601343
913 1.15339
914 -1.13509
915 0.848025
916 0.0721832
917 -0.695526
918 1.03751
919 -0.378959
920 0.434957
921 -0.854077
922 -1.71513
923 1.29394
924 0.28716
925 0.397855
926 0.306587
927 -0.133306
928 0.921909
929 0.595505
930 -1.44896
931 0.731572
932 -0.812035
933 0.719192
934 0.80667
935 0.770926
936 -0.123967
937 -0.346994
938 0.183525
939 0.734253
940 -0.0461082
941 0.471227
942 -0.652315
943 -0.241698
944 0.327447
945 0.289667
946 1.39512
947 0.370065
948 -0.0108708
949 -3.29158
950 0.463229
951 0.557613
952 0.159232
953 0.54437
954 0.371096
955 -1.27091
956 -0.422296
957 -0.918862
958 0.206328
959 -3.20747
960 -0.189219
961 -0.462234
962 1.06654
963 -0.991164
964 0.753698
965 0.400148
966 -1.09463
967 -0.158637
968 0.455691
969 0.356239
970 -0.123237
971 0.724389
972 -0.479969
973 -0.573235
974 -1.15056
975 0.400134
976 -0.265486
977 0.415064
978 -0.13484
979 -0.667213
980 -0.0291868
981 1.43556
982 -1.05257
983 1.2402
984 0.782967
985 -0.834953
986 0.0640629
987 0.334591
988 -3.30306
989 1.59761
990 -0.462985
991 0.710652
992 0.657736
993 0.0519176
994 -0.454705
995 0.182232
996 0.407544
997 -0.0104709
998 -1.61697
999 -0.171192
1000 -0.422226
1001 -1.65166
1002 0.0627427
1003 -0.902495
1004 -0.998821
1005 -1.26416
1006 -2.75586
1007 -1.46435
1008 -1.48335
1009 -0.384155
1010 -0.160149
1011 -0.507156
1012 -1.5755
1013 -1.09032
1014 -1.151
1015 -0.342148
1016 -0.633017
1017 -1.49523
1018 -0.646342
1019 -2.33184
1020 0.870194
1021 1.361
1022 -1.29116
1023 0.292681
1024 0.591214
1025 -0.602343
1026 1.02808
1027 -1.84056
1028 0.270867
1029 0.845305
1030 0.408503
1031 -1.62212
1032 0.0324139
1033 -0.0605159
1034 0.543214
1035 -0.913126
1036 0.53389
1037 0.387845
1038 0.232092
1039 -0.115944
1040 1.52094
1041 -0.80489
1042 0.362247
1043 -1.41648
1044 0.719351
1045 -0.518899
1046 -1.95066
1047 1.55783
1048 -0.288834
1049 2.22693
1050 2.63026
1051 0.547028
1052 -0.952189
1053 -3.01434
1054 -0.662927
1055 -0.0446824
1056 -1.31267
1057 0.0660929
1058 0.45326
1059 1.25834
1060 2.22643
1061 -0.458461
1062 2.30402
1063 -0.748941
1064 1.08288
1065 0.216639
1066 0.129044
1067 1.79014
1068 -0.253055
1069 1.11062
1070 -0.987237
1071 0.221465
1072 0.269458
1073 1.2432
1074 0.378892
1075 -0.120509
1076 -0.105103
1077 0.195905
1078 -0.252544
1079 -0.864161
1080 0.151042
1081 -0.0249048
1082 0.535669
1083 0.251552
1084 0.685211
1085 -0.363407
1086 -0.038423
1087 -0.335001
1088 -0.173321
1089 1.54286
1090 0.637811
1091 -1.0786
1092 0.901289
1093 0.705955
1094 0.271226
1095 0.823548
1096 -1.44996
1097 1.13263
1098 -0.614165
1099 -0.401255
1100 0.374548
1101 0.504926
1102 0.92767
1103 -0.00863856
1104 -1.8212
1105 0.634817
1106 0.379817
1107 -2.15874
1108 -0.595982
1109 0.267963
1110 -1.64611
1111 0.437188
1112 0.954341
1113 0.465709
1114 1.11853
1115 1.48357
1116 0.538851
1117 1.57878
1118 -0.830973
1119 -0.312418
1120 0.980042
1121 0.883544
1122 0.321824
1123 1.94238
1124 1.30592
1125 1.30487
1126 -1.98599
1127 1.30283
1128 -0.0467716
1129 0.256018
1130 0.415154
1131 -0.479502
1132 0.722533
1133 0.772255
1134 1.68749
1135 2.23408
1136 0.432938
1137 0.195741
1138 0.43496
1139 1.069
1140 -0.597732
1141 -0.961577
1142 1.15131
1143 -0.338008
1144 0.953219
1145 -0.225651
1146 -0.0750807
1147 0.359692
1148 0.36655
1149 -0.514196
1150 0.169444
1151 -0.165541
1152 1.23226
1153 1.20722
1154 0.995199
1155 -0.655571
1156 0.220322
1157 0.751392
1158 -0.753586
1159 0.0928776
1160 1.87898
1161 -0.116224
1162 -0.683646
1163 -1.11881
1164 0.409275
1165 -0.0774011
1166 -0.541985
1167 0.607458
1168 -0.376726
1169 -0.658849
1170 -1.69658
1171 0.158258
1172 -0.00735462
1173 -0.882271
1174 -1.09247
1175 0.157783
1176 0.892996
1177 0.654658
1178 0.481989
1179 1.26428
1180 -0.0539091
1181 -0.147324
1182 0.0226478
1183 0.0833533
1184 0.14182
1185 0.823202
1186 0.525055
1187 1.05595
1188 0.597811
1189 -0.284789
1190 0.0927572
1191 0.313007
1192 -0.287177
1193 1.02256
1194 -0.976203
1195 1.05704
1196 0.23143
1197 0.934627
1198 0.297147
1199 0.881789
1200 0.743594
1201 0.393402
1202 -1.50497
1203 0.422558
1204 0.423666
1205 -1.76078
1206 -1.57968
1207 -0.212777
1208 -1.393
1209 -0.051604
1210 0.10911
1211 0.8573
1212 0.597308
1213 0.815044
1214 -1.58099
1215 -1.86486
1216 -1.08833
1217 -0.530512
1218 0.810865
1219 -1.00603
1220 0.012342
1221 -1.49487
1222 0.448803
1223 0.938051
1224 -1.25974
1225 -1.62771
1226 1.26246
1227 0.0647517
1228 -1.36321
1229 0.434091
1230 -0.608837
1231 -1.9518
1232 1.35164
1233 -0.14139
1234 0.0377297
1235 -1.29368
1236 -1.19956
1237 1.4803
1238 -0.350362
1239 -0.245509
1240 -1.27054
1241 0.377717
1242 0.97249
1243 1.45929
1244 0.283423
1245 0.268332
1246 0.620519
1247 -0.226413
1248 -1.59947
1249 0.984255
1250 1.19383
1251 -0.56843
1252 -1.37275
1253 0.688082
1254 0.268013
1255 -0.0900234
1256 0.221138
1257 -0.242586
1258 0.579738
1259 1.11863
1260 -0.994254
1261 0.293164
1262 0.619664
1263 -0.139118
1264 -0.284833
1265 0.624733
1266 -0.449755
1267 -0.718796
1268 0.586096
1269 0.312821
1270 -2.07734
1271 -1.41326
1272 0.916063
1273 0.644948
1274 0.260779
1275 0.5483
1276 0.68148
1277 1.61653
1278 0.410173
1279 1.65226
1280 0.726508
1281 -0.699993
1282 0.539078
1283 0.179675
1284 -1.75081
1285 0.641584
1286 0.688983
1287 1.47347
1288 -0.840815
1289 0.794488
1290 0.609133
1291 -0.0849966
1292 -0.820086
1293 0.144265
1294 -0.245496
1295 1.08133
1296 -0.233796
1297 -0.527427
1298 0.562851
1299 -1.45753
1300 0.0214528
1301 -1.15394
1302 -0.32302
1303 -0.0992953
1304 -0.700686
1305 -1.70655
1306 -1.17976
1307 -4.81083
1308 -1.59039
1309 -1.79222
1310 -2.25034
1311 -3.14392
1312 0.478882
1313 0.791912
1314 -0.0553534
1315 -1.06268
1316 0.941357
1317 -0.464445
1318 0.233788
1319 0.364996
1320 -0.52127
1321 1.56785
1322 1.31787
1323 -2.16532
1324 2.00902
1325 1.0998
1326 -0.829936
1327 0.804552
1328 -3.451
1329 1.42133
1330 -1.53698
1331 -0.645711
1332 -0.806751
1333 -0.362605
1334 0.435194
1335 -0.661547
1336 -0.960739
1337 -1.57569
1338 1.20974
1339 -1.62011
1340 0.674819
1341 1.0736
1342 0.796599
1343 0.738321
1344 0.457347
1345 0.246754
1346 0.0966943
1347 1.11025
1348 0.262084
1349 0.117537
1350 -0.219841
1351 -2.36439
1352 0.0935838
1353 -2.18443
1354 0.205506
1355 -0.0253697
1356 0.907787
1357 -0.439383
1358 -2.23568
1359 -1.32711
1360 -3.59215
1361 0.973389
1362 -1.2756
1363 -0.65775
1364 0.493821
1365 0.498552
1366 0.553059
1367 1.34194
1368 -0.0838018
1369 -0.683749
1370 -1.75848
1371 0.413539
1372 0.348078
1373 -0.250201
1374 -0.339724
1375 -2.21823
1376 -0.69975
1377 1.24291
1378 0.28173
1379 -1.32633
1380 0.776904
1381 0.902821
1382 -0.739683
1383 0.349332
1384 1.00582
1385 -1.78209
1386 0.833098
1387 0.282758
1388 -0.649231
1389 -0.14075
1390 1.78695
1391 -1.55063
1392 -1.46245
1393 0.932287
1394 0.5938
1395 0.190949
1396 -0.0682587
1397 0.814808
1398 -0.860179
1399 -0.285457
1400 0.176531
1401 -0.184593
1402 0.603398
1403 0.689198
1404 -1.56857
1405 0.189739
1406 0.706216
1407 -0.221811
1408 -0.169076
1409 -2.27104
1410 0.760105
1411 -0.00293741
1412 -1.27703
1413 1.4322
1414 1.62267
1415 -0.340672
1416 0.291701
1417 0.423664
1418 0.901457
1419 1.4464
1420 0.606128
1421 1.23309
1422 1.04438
1423 -2.64178
1424 -0.925718
1425 -0.810037
1426 -0.944413
1427 -2.70974
1428 0.373605
1429 0.128119
1430 -1.98447
1431 -0.591716
1432 0.309988
1433 -0.438066
1434 0.252423
1435 -0.807812
1436 0.252927
1437 1.40463
1438 0.840272
1439 0.392569
1440 0.142482
1441 0.461813
1442 1.36284
1443 -2.0803
1444 1.80771
1445 -2.12161
1446 1.0982
1447 1.75923
1448 0.762364
1449 0.888809
1450 -1.04294
1451 -1.16364
1452 0.156918
1453 0.774923
1454 -3.09506
1455 0.128639
1456 -0.293973
1457 -0.200229
1458 0.963254
1459 -0.305191
1460 0.159226
1461 0.214521
1462 1.32723
1463 -0.969091
1464 0.857718
1465 0.0487276
1466 -1.10799
1467 -0.149898
1468 -2.28296
1469 0.0948883
1470 -0.276084
1471 -0.109105
1472 0.154581
1473 -0.746229
1474 -0.671572
1475 -0.874164
1476 -0.10164
1477 -1.30311
1478 0.410075
1479 -0.0774928
1480 0.85141
1481 -2.48491
1482 -0.86983
1483 0.0793278
1484 0.173626
1485 1.16748
1486 1.27443
1487 0.201537
1488 0.1208
1489 -1.01227
1490 -1.91323
1491 0.748833
1492 0.421644
1493 -1.04222
1494 -0.731711
1495 0.201545
1496 0.882472
1497 0.194817
1498 -0.0620615
1499 -0.91401
1500 0.0484086
1501 -2.02441
1502 -1.18822
1503 -1.47362
1504 0.466147
1505 0.166979
1506 0.603574
1507 -1.21845
1508 -0.200004
1509 1.70344
1510 1.9215
1511 1.60828
1512 -0.888422
1513 1.07741
1514 1.1098
1515 -0.725108
1516 -1.31077
1517 1.25368
1518 1.321
1519 -0.344015
1520 0.552206
1521 -0.29078
1522 -1.14985
1523 -0.0107684
1524 -0.623338
1525 1.05146
1526 -0.204573
1527 0.471586
1528 -0.758012
1529 -0.534455
1530 1.52548
1531 1.40038
1532 1.42709
1533 1.93621
1534 -0.143067
1535 0.131723
1536 0.0987867
1537 0.634389
1538 -0.498408
1539 -1.78066
1540 0.0146634
1541 -0.113432
1542 -0.500275
1543 1.08787
1544 0.0134967
1545 0.374702
1546 1.63039
1547 -0.364608
1548 1.40634
1549 1.5061
1550 1.39403
1551 1.16505
1552 0.838635
1553 -1.23282
1554 0.418056
1555 1.18427
1556 1.51547
1557 0.164801
1558 -0.488963
1559 0.643617
1560 -0.130045
1561 -1.57483
1562 -1.33228
1563 1.45236
1564 0.581599
1565 0.850714
1566 -0.667085
1567 -0.256583
1568 1.24068
1569 -0.0933212
1570 1.10531
1571 -0.367743
1572 1.29459
1573 -0.820132
1574 0.731745
1575 -0.288303
1576 0.419883
1577 0.431575
1578 -0.20443
1579 0.779646
1580 0.986018
1581 0.332142
1582 1.82265
1583 0.606142
1584 0.449076
1585 -1.63726
1586 0.674891
1587 0.395133
1588 0.815773
1589 1.40987
1590 0.476058
1591 0.393225
1592 -1.40741
1593 0.68163
1594 -0.300219
1595 1.39184
1596 -0.997526
1597 0.97845
