1 -0.329626
2 1.58793
3 -0.261659
4 1.80966
5 0.723795
6 0.322803
7 -0.213141
8 0.289592
9 0.494604
10 0.0390074
11 0.324961
12 0.852664
13 0.855027
14 0.837741
15 1.04955
16 -0.632987
17 0.774848
18 -0.133257
19 -2.06703
20 -1.03259
21 0.974908
22 -1.89834
23 0.720989
24 -0.747442
25 0.261166
26 -1.28884
27 0.0626052
28 -0.818854
29 0.088412
30 0.394674
31 -0.127409
32 -0.834347
33 0.365484
34 0.256967
35 -0.3001
36 -0.967152
37 -1.26661
38 -1.62599
39 0.0956665
40 -3.00229
41 0.0212289
42 0.0896125
43 -0.726797
44 -0.260267
45 0.193599
46 -0.93106
47 0.976105
48 -0.880322
49 0.84078
50 -1.02702
51 -1.47924
52 1.58321
53 -1.22936
54 -1.54882
55 1.23825
56 0.707518
57 -0.513288
58 0.0938573
59 0.176618
60 1.05317
61 0.50792
62 -0.169091
63 0.182661
64 0.664758
65 -0.941241
66 0.23747
67 1.21681
68 1.60749
69 0.987864
70 -1.66146
71 -0.225239
72 0.891092
73 0.460072
74 -1.79615
75 -0.102758
76 -1.22958
77 -0.0504149
78 -0.360072
79 -1.03529
80 -0.284442
81 -0.695025
82 0.108563
83 -2.38716
84 0.768815
85 0.871051
86 -0.627292
87 -1.04284
88 0.0808913
89 -0.25583
90 -2.11963
91 1.63901
92 0.233727
93 0.30284
94 0.0599761
95 -2.40932
96 0.661476
97 -0.240309
98 -0.505164
99 0.91193
100 -0.279359
101 0.330888
102 -1.3625
103 0.486249
104 0.869332
105 -1.02337
106 1.10435
107 -0.748434
108 0.188247
109 -1.8273
110 1.10986
111 0.887768
112 -0.691974
113 -0.601568
114 0.609184
115 0.673777
116 -1.3713
117 -1.84621
118 0.426961
119 0.125327
120 -0.494593
121 1.18601
122 1.15407
123 0.42863
124 -0.292975
125 -2.12116
126 -1.43671
127 0.253511
128 0.375964
129 -2.75834
130 1.21511
131 0.464818
132 -0.473746
133 0.633217
134 0.623803
135 0.868305
136 -2.51886
137 0.756864
138 0.133642
139 0.121462
140 -0.340373
141 -1.21864
142 -1.58253
143 0.475087
144 0.329364
145 -3.7031
146 0.802297
147 -0.240555
148 -0.283909
149 0.092022
150 -0.498702
151 -0.768954
152 1.54412
153 -0.291337
154 0.62181
155 1.22349
156 0.642827
157 -0.703092
158 0.131946
159 0.414773
160 -0.845428
161 0.0434265
162 0.688091
163 -1.55478
164 0.201525
165 -0.88552
166 0.366223
167 -2.23689
168 1.36179
169 -0.494526
170 -0.58952
171 0.237733
172 -0.276479
173 0.167226
174 0.536866
175 -1.06255
176 0.305059
177 -0.736786
178 -1.54463
179 -3.75878
180 -0.96049
181 -1.14003
182 -0.13601
183 -0.562555
184 -0.61556
185 1.1553
186 0.880357
187 0.977401
188 0.49562
189 -1.28986
190 -0.980764
191 -1.40971
192 -0.0326752
193 0.268761
194 1.27162
195 -0.0680101
196 -1.01118
197 1.56264
198 -0.241736
199 0.672301
200 -0.637439
201 1.04198
202 1.03831
203 -1.52329
204 -1.04739
205 0.250406
206 0.935532
207 -0.457617
208 -1.15257
209 0.378106
210 0.71532
211 0.899192
212 -1.43333
213 -0.87447
214 0.301241
215 0.168866
216 -1.3696
217 -2.27921
218 -1.69193
219 -0.949486
220 -3.03925
221 -1.03656
222 0.283728
223 -1.56305
224 1.13303
225 -1.51003
226 -0.681239
227 -0.00237501
228 -2.47315
229 -1.55279
230 0.482992
231 0.486208
232 0.648163
233 -2.01869
234 -0.679467
235 0.0710458
236 0.547625
237 -1.25081
238 -2.04934
239 -2.11512
240 -2.43131
241 0.0242018
242 -0.576505
243 0.893154
244 -0.961923
245 -1.36145
246 -2.94569
247 -0.308568
248 -0.221637
249 -0.0737579
250 -0.331011
251 -0.560979
252 -0.827003
253 -1.28584
254 0.191175
255 -0.474686
256 -0.504833
257 0.504901
258 0.571016
259 -0.29702
260 0.385409
261 -0.00165545
262 -1.7212
263 0.383079
264 -1.95671
265 -0.178879
266 -1.94603
267 -0.426264
268 0.430238
269 0.00584044
270 2.15667
271 0.0274318
272 0.125162
273 -0.369085
274 -0.668352
275 -2.61254
276 -1.20312
277 -2.02378
278 -2.01316
279 1.36037
280 0.448917
281 1.14806
282 -0.871539
283 0.72284
284 0.416371
285 0.676839
286 0.029959
287 0.849182
288 0.73696
289 -1.24716
290 -1.5532
291 0.828634
292 0.0321638
293 0.764528
294 0.176131
295 -2.39109
296 0.148798
297 -0.632316
298 1.07854
299 0.311637
300 1.55913
301 -0.921227
302 -0.278471
303 -1.63158
304 -0.962589
305 -1.02093
306 -0.351499
307 -0.642854
308 -0.567833
309 -0.290012
310 -1.15082
311 -0.0743765
312 -1.4296
313 -0.880181
314 -0.132503
315 -0.34374
316 1.17098
317 0.144333
318 -1.14391
319 0.384807
320 -0.102755
321 -1.39928
322 0.863542
323 0.557149
324 -0.205287
325 0.924248
326 0.461156
327 0.589825
328 0.443342
329 -1.07049
330 -1.41746
331 -0.206802
332 -0.662147
333 0.69687
334 0.484245
335 -1.23208
336 0.15211
337 1.67023
338 0.762547
339 -2.39284
340 0.245801
341 0.779436
342 -0.373172
343 -0.0981746
344 -1.99246
345 0.894793
346 -0.79816
347 -2.96656
348 -1.04352
349 -0.962533
350 0.974033
351 0.407237
352 -0.905152
353 -0.0137775
354 0.845425
355 -0.23516
356 -0.15305
357 -0.814361
358 -0.569738
359 0.830215
360 -1.20155
361 1.09513
362 -1.41121
363 1.24073
364 0.0185261
365 -1.34384
366 0.574031
367 0.557124
368 0.878832
369 0.604028
370 1.0711
371 -0.125262
372 0.493828
373 1.45933
374 0.397194
375 0.600871
376 -1.93845
377 0.364084
378 0.596504
379 0.995008
380 0.896246
381 0.390327
382 1.53601
383 0.295749
384 0.446393
385 1.16916
386 0.876715
387 -0.010891
388 1.21332
389 -0.535245
390 -1.12733
391 -0.0469374
392 0.665768
393 1.41894
394 1.23015
395 0.280559
396 0.178941
397 1.73414
398 0.30532
399 -0.613876
400 -0.0504676
401 0.15343
402 -0.92687
403 -1.67612
404 0.523157
405 1.29107
406 0.260776
407 -0.00813325
408 -1.73662
409 -1.34089
410 -0.132037
411 0.858087
412 0.707912
413 -0.0409305
414 0.731322
415 1.12955
416 -0.427489
417 -1.10771
418 0.0257967
419 0.142567
420 -2.27106
421 -0.582113
422 -1.55772
423 -1.55302
424 0.00903648
425 -1.80619
426 1.12414
427 0.833608
428 0.967108
429 -0.350981
430 -1.02328
431 0.101359
432 1.49889
433 -0.238994
434 -0.615813
435 0.642319
436 -0.669295
437 -1.04032
438 1.14553
439 0.411086
440 -0.244602
441 -1.19988
442 1.81468
443 1.66318
444 0.997028
445 -0.499219
446 0.632707
447 -0.636432
448 0.531155
449 -0.237564
450 -0.0482549
451 -0.776312
452 0.44333
453 0.54447
454 0.839653
455 -1.92194
456 1.13244
457 -0.643983
458 1.6811
459 0.887286
460 -1.65589
461 0.229458
462 0.690346
463 0.614505
464 0.87232
465 0.880025
466 0.975636
467 0.262853
468 0.804335
469 0.619278
470 0.20412
471 -0.32332
472 -0.514396
473 0.433917
474 -0.151215
475 0.0732167
476 -0.0378092
477 -0.345742
478 0.664657
479 1.63306
480 0.269527
481 -0.103257
482 -0.162251
483 -0.183918
484 2.25807
485 0.756174
486 -0.505335
487 -0.887899
488 -0.775215
489 -0.504106
490 -0.209055
491 1.47737
492 1.38783
493 0.117726
494 0.338727
495 -0.671995
496 1.50692
497 1.44788
498 -2.10329
499 -1.76221
500 0.220109
501 -1.44784
502 0.583523
503 1.45525
504 -0.324856
505 -1.69752
506 -0.288017
507 0.577603
508 -1.30193
509 0.586703
510 -0.764517
511 -1.16709
512 -0.189306
513 0.399112
514 0.753769
515 0.356126
516 0.863007
517 -0.816964
518 0.949431
519 1.09612
520 1.6563
521 -0.349236
522 -0.802618
523 -0.18937
524 -1.14404
525 -0.0213683
526 0.00295924
527 1.07106
528 0.861078
529 -1.48487
530 0.437835
531 -0.809905
532 -0.544391
533 0.455848
534 -1.31238
535 -0.47256
536 0.190453
537 0.166901
538 0.51237
539 0.926017
540 0.595531
541 0.752584
542 -0.240357
543 -0.22827
544 0.508399
545 0.993246
546 -0.884251
547 0.314957
548 -1.14887
549 -1.32336
550 -0.00209361
551 -1.34509
552 -1.03416
553 1.31251
554 -0.556885
555 -2.35342
556 0.173186
557 0.0168
558 -0.566253
559 -0.506325
560 0.797488
561 1.85015
562 0.734691
563 -1.6008
564 0.490108
565 -0.185708
566 -0.0164751
567 -0.0450365
568 0.891373
569 -2.19404
570 0.330469
571 -0.140554
572 0.50172
573 -1.37212
574 0.989452
575 -2.75215
576 -0.131659
577 1.4174
578 1.22021
579 -4.02268
580 0.611992
581 0.91619
582 -0.323495
583 -1.00297
584 -0.469188
585 0.690316
586 0.63698
587 0.167926
588 -1.47462
589 1.03757
590 0.0529364
591 0.828729
592 -0.0555319
593 1.40319
594 1.18525
595 1.0201
596 0.418992
597 0.864446
598 0.192669
599 0.268118
600 0.495832
601 0.824462
602 0.136935
603 1.27487
604 -3.77382
605 -2.72009
606 1.00378
607 -0.574891
608 0.0287498
609 -0.692301
610 0.390523
611 0.719131
612 0.280689
613 1.19494
614 1.40373
615 0.75809
616 0.233315
617 -0.177453
618 -0.625773
619 -0.993949
620 -0.579967
621 -0.256646
622 0.205388
623 0.332291
624 0.0786872
625 0.530061
626 -3.31668
627 0.185872
628 -0.40173
629 0.368317
630 0.936869
631 -0.474401
632 0.281697
633 -0.920275
634 -0.49339
635 -1.46169
636 0.862788
637 -0.234263
638 -0.494965
639 0.768555
640 0.0859839
641 -0.253872
642 -0.919447
643 -1.61312
644 -0.51762
645 -0.296548
646 1.30243
647 0.83171
648 -1.71317
649 0.870161
650 0.831082
651 0.741949
652 -0.427254
653 -1.36012
654 -2.05083
655 1.16479
656 0.210637
657 -1.08212
658 0.966562
659 -2.34696
660 -0.342175
661 -2.90808
662 0.228723
663 -0.769266
664 0.286581
665 -0.773906
666 0.355
667 -0.0420563
668 0.341191
669 0.622541
670 -1.5504
671 0.658357
672 -0.0750283
673 1.32231
674 0.286464
675 -1.0434
676 0.901789
677 -0.836891
678 0.140748
679 0.265653
680 1.29056
681 1.12686
682 0.399264
683 0.338286
684 0.910071
685 0.00503336
686 0.640127
687 0.635324
688 0.308374
689 -1.10125
690 1.27062
691 -0.132892
692 -1.82857
693 0.982224
694 -1.38557
695 -0.0348639
696 -0.0897691
697 1.45129
698 -0.287872
699 -2.38296
700 0.290382
701 1.73565
702 0.153542
703 0.19374
704 0.358151
705 0.841293
706 0.532176
707 0.675407
708 -1.40628
709 0.451509
710 -0.332515
711 0.353269
712 -0.635913
713 -0.475195
714 -1.14854
715 0.642256
716 -0.2726
717 0.271403
718 0.193336
719 1.70002
720 1.11557
721 0.76204
722 0.287391
723 1.37013
724 0.8361
725 1.50761
726 0.46875
727 -0.135391
728 -1.10293
729 0.527728
730 -0.697835
731 -1.22192
732 -1.7864
733 -0.628701
734 -0.559476
735 -0.204465
736 0.404885
737 1.64611
738 0.568352
739 0.235335
740 -0.873916
741 -0.249206
742 -0.469256
743 0.542357
744 0.104126
745 1.22775
746 0.478711
747 -0.181099
748 1.53101
749 0.624491
750 0.625021
751 0.989081
752 1.19737
753 0.418115
754 0.217921
755 -1.07988
756 0.98621
757 -0.46285
758 -0.897924
759 0.170123
760 0.835759
761 -1.69416
762 -0.900051
763 -0.497224
764 1.11814
765 -0.314683
766 1.65617
767 -0.0165714
768 0.519512
769 1.04484
770 0.412727
771 1.25242
772 0.651966
773 0.490558
774 -1.07755
775 -0.798054
776 -0.451896
777 -0.248267
778 -0.0672195
779 -0.936972
780 0.20139
781 0.768999
782 1.10946
783 0.0737878
784 0.438373
785 0.944072
786 1.15093
787 0.539866
788 1.61672
789 -1.63454
790 1.37624
791 0.6859
792 -1.04255
793 0.683161
794 0.305687
795 1.22296
796 1.02103
797 2.11618
798 -1.24541
799 1.60048
800 0.49752
801 1.40134
802 0.986596
803 -0.775096
804 -0.17175
805 1.2109
806 1.61747
807 2.08223
808 0.793608
809 -1.30234
810 1.29881
811 0.185027
812 -0.0446407
813 1.15596
814 -0.0933443
815 0.153595
816 1.35972
817 0.716087
818 0.278608
819 -0.133861
820 -0.452007
821 -1.15869
822 0.246421
823 -0.713755
824 0.472952
825 1.49286
826 1.69117
827 0.577047
828 0.50591
829 -0.472347
830 0.268413
831 -0.0100532
832 -0.486896
833 0.209597
834 -0.779769
835 -1.5513
836 0.868047
837 0.70025
838 -0.43521
839 -0.669139
840 -0.850384
841 -0.765009
842 0.499554
843 0.369166
844 -0.241044
845 -0.213516
846 0.418224
847 -0.598804
848 0.520121
849 2.06292
850 -1.52494
851 -0.679218
852 1.00281
853 -0.312617
854 -2.00107
855 1.11562
856 0.140553
857 0.184444
858 0.736982
859 -0.0159156
860 1.45666
861 0.592493
862 0.29288
863 -0.502523
864 1.11766
865 0.720058
866 0.966827
867 1.47998
868 0.512889
869 0.378578
870 -0.300573
871 -0.247327
872 0.175636
873 0.0505812
874 -0.23286
875 0.85461
876 -1.58552
877 1.55096
878 -0.667907
879 0.825053
880 -0.445105
881 -0.0670633
882 -0.433039
883 1.63208
884 0.348217
885 0.63384
886 0.626303
887 0.322955
888 0.103642
889 0.952692
890 1.56571
891 -0.0162055
892 0.546436
893 1.15919
894 0.447317
895 -0.934915
896 1.26642
897 -0.0731687
898 0.566354
899 1.34054
900 0.0645724
901 0.714734
902 0.396273
903 1.23895
904 -1.32688
905 -0.075924
906 0.154766
907 1.62624
908 0.314091
909 -0.386238
910 -0.94691
911 0.370219
912 0.483127
913 -0.383198
914 0.513462
915 1.43229
916 -0.66795
917 0.0349694
918 0.543838
919 0.587881
920 -1.64358
921 1.18401
922 0.667648
923 1.41417
924 0.546751
925 -0.225788
926 -0.58351
927 0.241805
928 0.238749
929 1.57615
930 0.735086
931 -0.211216
932 0.710541
933 -0.507066
934 1.12549
935 -0.803882
936 -1.97078
937 -0.143411
938 0.726073
939 0.0260198
940 1.98785
941 1.47852
942 0.458687
943 -1.37377
944 -0.748377
945 2.27356
946 0.675431
947 1.03113
948 1.32297
949 0.452502
950 0.732167
951 -0.710597
952 -1.90252
953 -0.607031
954 0.448159
955 0.596831
956 -0.0384204
957 -0.064106
958 -1.05397
959 1.09598
960 0.82016
961 0.404292
962 -0.470688
963 0.49171
964 0.6821
965 -0.68175
966 0.776618
967 -0.916653
968 0.461393
969 0.719198
970 1.06543
971 0.48037
972 -0.148803
973 -1.17366
974 -1.7324
975 1.04277
976 -0.0193929
977 -0.55808
978 -0.645692
979 -1.75645
980 0.481129
981 -1.80283
982 -1.29681
983 -1.29549
984 1.12
985 -1.04205
986 0.327979
987 1.02246
988 -0.318338
989 -0.639814
990 0.0939535
991 -2.54966
992 -0.40147
993 -0.0847341
994 0.937519
995 -2.89881
996 -0.354379
997 0.0532716
998 -0.293543
999 0.867279
1000 -0.508019
1001 1.28158
1002 -0.131716
1003 -0.69695
1004 0.0286006
1005 -0.0203589
1006 -0.0901004
1007 0.0309002
1008 0.731716
1009 -0.37591
1010 2.45065
1011 -0.562081
1012 0.940526
1013 0.860178
1014 0.272398
1015 -0.50717
1016 -0.51573
1017 -0.220358
1018 -0.459158
1019 0.120503
1020 0.756399
1021 -2.22866
1022 1.41835
1023 -0.015967
1024 0.440075
1025 -0.779164
1026 0.548431
1027 0.14684
1028 0.761148
1029 -0.642768
1030 0.934499
1031 -0.17305
1032 -0.297479
1033 0.788926
1034 1.09598
1035 0.417568
1036 -0.919674
1037 0.450605
1038 1.44534
1039 -0.390047
1040 -0.339884
1041 0.678116
1042 -0.200961
1043 1.53853
1044 -0.772104
1045 0.373294
1046 -0.395871
1047 0.66031
1048 -0.191904
1049 -0.384864
1050 -0.588224
1051 0.103496
1052 -0.305926
1053 1.47058
1054 0.803511
1055 -0.840946
1056 0.245261
1057 0.0120631
1058 0.771089
1059 -0.378721
1060 -1.03731
1061 1.25348
1062 1.80607
1063 -0.71735
1064 -0.893843
1065 -1.2616
1066 -1.16734
1067 0.639391
1068 0.794234
1069 1.13506
1070 -0.562207
1071 -0.191583
1072 0.622467
1073 0.342573
1074 0.0338477
1075 0.676147
1076 -1.81699
1077 0.461635
1078 0.564887
1079 0.247896
1080 0.451802
1081 -1.09708
1082 1.12946
1083 -0.234066
1084 -1.15232
1085 -1.07751
1086 -1.12758
1087 -2.35924
1088 -1.56863
1089 -0.0555408
1090 0.913558
1091 0.336676
1092 0.880197
1093 1.24507
1094 0.741468
1095 0.683358
1096 -0.400999
1097 0.910616
1098 -0.184436
1099 1.39035
1100 0.381315
1101 0.751792
1102 0.527581
1103 -0.388237
1104 0.43339
1105 -0.0248156
1106 -1.46394
1107 -1.71294
1108 0.362714
1109 0.186655
1110 1.80391
1111 -0.0966476
1112 1.48379
1113 1.07697
1114 2.30917
1115 0.474954
1116 -0.102874
1117 0.822898
1118 0.308438
1119 -0.285803
1120 -1.16647
1121 -1.26271
1122 -0.555747
1123 1.6107
1124 0.409871
1125 -1.03391
1126 -0.649682
1127 0.37068
1128 0.303541
1129 0.577007
1130 -0.0112381
1131 1.27455
1132 -1.53088
1133 -2.33896
1134 0.872988
1135 0.42637
1136 -0.408424
1137 1.69611
1138 0.625679
1139 1.17592
1140 -0.73282
1141 -0.844356
1142 0.889068
1143 -0.118996
1144 1.49222
1145 -1.25883
1146 0.646605
1147 0.267726
1148 0.247039
1149 -0.819874
1150 -1.47154
1151 0.642116
1152 -0.346905
1153 -0.629386
1154 0.497992
1155 0.430163
1156 0.0157965
1157 -0.757139
1158 0.0748717
1159 1.31713
1160 0.886206
1161 0.238159
1162 -1.63583
1163 -0.229762
1164 -0.737346
1165 -0.650416
1166 -0.399036
1167 0.755921
1168 0.286643
1169 0.974423
1170 0.307526
1171 0.223284
1172 1.16677
1173 0.532636
1174 -1.15802
1175 1.0367
1176 -0.761727
1177 0.40359
1178 -0.877089
1179 0.753282
1180 0.492127
1181 0.95894
1182 0.838449
1183 0.394938
1184 1.17093
1185 0.0148294
1186 0.247394
1187 1.20052
1188 0.752218
1189 0.754004
1190 0.966181
1191 1.24844
1192 -0.5236
1193 1.49964
1194 0.777408
1195 -1.54818
1196 0.394921
1197 -1.53573
1198 0.946543
1199 -1.37989
1200 0.713463
1201 0.476725
1202 -0.302772
1203 0.26089
1204 0.0205157
1205 -1.83997
1206 0.452227
1207 0.0681197
1208 -0.439594
1209 0.84489
1210 0.512096
1211 0.625341
1212 0.511891
1213 -1.55762
1214 -1.7838
1215 0.310983
1216 -2.10977
1217 0.236476
1218 0.957845
1219 1.0416
1220 -0.267664
1221 -0.303305
1222 1.76579
1223 -0.624139
1224 -1.28997
1225 -1.91322
1226 -0.240021
1227 -0.983402
1228 -0.830024
1229 -0.370023
1230 -0.52012
1231 -1.15046
1232 1.72507
1233 0.58757
1234 -1.77252
1235 -1.3843
1236 -0.0657311
1237 2.00708
1238 -2.01248
1239 1.06105
1240 -1.38975
1241 0.319898
1242 0.310956
1243 -0.887295
1244 0.104542
1245 0.821447
1246 -0.465457
1247 -1.04957
1248 0.29145
1249 0.0866965
1250 1.34094
1251 0.520209
1252 0.0146941
1253 0.736356
1254 0.424802
1255 0.780357
1256 0.083564
1257 0.642913
1258 0.454784
1259 -0.0552675
1260 1.06826
1261 0.67679
1262 0.227699
1263 -0.494636
1264 0.836718
1265 -1.46101
1266 0.773975
1267 -1.20084
1268 1.0485
1269 1.85513
1270 1.51465
1271 -1.25301
1272 1.05175
1273 1.10579
1274 0.0297221
1275 1.07129
1276 -2.15049
1277 0.591622
1278 1.37913
1279 -0.532386
1280 0.25474
1281 1.13757
1282 -0.0689694
1283 0.42609
1284 0.155589
1285 0.135977
1286 0.388685
1287 0.95785
1288 -0.37449
1289 -1.889
1290 -0.6037
1291 0.348792
1292 -0.251221
1293 0.37476
1294 1.12227
1295 0.39816
1296 0.832008
1297 -0.942905
1298 0.948623
1299 -0.708813
1300 0.488853
1301 1.03767
1302 -0.320719
1303 -0.169366
1304 -0.736223
1305 -1.71002
1306 -1.03549
1307 -0.361674
1308 0.211264
1309 -0.83081
1310 0.933445
1311 -0.650604
1312 -0.640008
1313 1.3445
1314 0.656652
1315 0.378376
1316 -1.79219
1317 1.93937
1318 2.09116
1319 0.900142
1320 -0.97771
1321 1.51473
1322 0.0263305
1323 -0.281745
1324 -0.200419
1325 0.79253
1326 -0.589827
1327 1.02973
1328 0.130906
1329 1.2855
1330 1.39128
1331 -0.608411
1332 2.26731
1333 -0.935529
1334 1.06917
1335 -0.0642947
1336 1.431
1337 -0.303174
1338 -0.624996
1339 -0.40812
1340 0.117176
1341 -0.238449
1342 -2.4088
1343 -0.98173
1344 0.177416
1345 0.203228
1346 0.749191
1347 0.93481
1348 -0.48297
1349 -1.85406
1350 0.537692
1351 -2.3523
1352 -1.47838
1353 -0.761727
1354 -0.442047
1355 1.40538
1356 1.63532
1357 -0.254078
1358 -1.49663
1359 -0.188792
1360 0.65431
1361 -0.897914
1362 0.5687
1363 0.887706
1364 -0.265631
1365 -1.39221
1366 -0.646117
1367 1.18783
1368 1.18117
1369 0.534291
1370 0.868643
1371 -0.00684765
1372 1.29772
1373 0.213254
1374 -1.2238
1375 -1.11605
1376 -0.941397
1377 1.13123
1378 -1.85928
1379 -1.27205
1380 0.61624
1381 0.705216
1382 -1.9297
1383 1.94847
1384 -0.0901436
1385 0.297152
1386 -1.12569
1387 -0.127508
1388 0.12903
1389 0.991549
1390 -1.77346
1391 -0.804115
1392 -1.55909
1393 1.06781
1394 0.569073
1395 -2.53745
1396 -1.95766
1397 0.435245
1398 -0.977351
1399 0.612797
1400 0.206448
1401 0.0577975
1402 1.84868
1403 -1.85353
1404 -1.84093
1405 -0.610066
1406 0.708855
1407 -3.54933
1408 -1.24518
1409 0.928289
1410 -0.350054
1411 -1.26748
1412 0.768779
1413 0.861263
1414 1.49012
1415 -0.867703
1416 -0.0151962
1417 0.238469
1418 -0.513127
1419 0.344373
1420 -1.15342
1421 0.974286
1422 0.832213
1423 0.803982
1424 -1.06361
1425 -2.14449
1426 -1.12372
1427 -0.929606
1428 0.381172
1429 0.253129
1430 -0.085632
1431 -2.65405
1432 -0.684716
1433 1.62907
1434 -1.40787
1435 -1.37727
1436 0.160513
1437 1.41278
1438 -0.379203
1439 -1.15641
1440 -2.6416
1441 -1.31926
1442 -0.418282
1443 0.466224
1444 1.37454
1445 0.261922
1446 -0.748209
1447 -0.668162
1448 -0.590261
1449 0.43616
1450 0.622122
1451 -1.15732
1452 0.371825
1453 -0.920644
1454 -0.322245
1455 0.96409
1456 1.04886
1457 -1.00892
1458 0.63633
1459 -0.60947
1460 1.29808
1461 -0.439137
1462 0.312448
1463 -0.797227
1464 -1.60307
1465 -0.0936357
1466 -2.19655
1467 -0.0272711
1468 -0.321596
1469 0.403397
1470 -0.585649
1471 -0.262016
1472 -0.72871
1473 -0.133328
1474 0.671782
1475 -1.02333
1476 0.35552
1477 -0.854934
1478 -1.24176
1479 1.36385
1480 1.00863
1481 -0.449124
1482 -0.197387
1483 -0.313643
1484 0.748085
1485 -0.123626
1486 -0.351908
1487 -1.73115
1488 0.438428
1489 1.50225
1490 -1.46729
1491 1.51263
1492 1.24458
1493 -1.24077
1494 -0.7353
1495 0.828211
1496 0.504597
1497 0.365495
1498 -0.240994
1499 0.603686
1500 -0.865103
1501 0.962912
1502 -0.871899
1503 0.290852
1504 0.192106
1505 0.920079
1506 1.29785
1507 0.354886
1508 0.465604
1509 -0.203694
1510 0.750878
1511 -0.326485
1512 1.17665
1513 -1.22201
1514 -1.09381
1515 -1.04872
1516 0.827556
1517 1.70676
1518 -2.0488
1519 -0.772999
1520 0.212757
1521 0.455858
1522 -0.140932
1523 0.667765
1524 1.20354
1525 -0.024543
1526 -2.06508
1527 -1.21359
1528 0.28428
1529 -0.209291
1530 1.62556
1531 0.441397
1532 -1.37386
1533 1.21781
1534 -0.179091
1535 0.653189
1536 -0.43122
1537 0.198546
1538 1.06024
1539 -1.04862
1540 0.7735
1541 -0.338917
1542 -0.589721
1543 -1.91052
1544 1.66993
1545 0.98911
1546 -1.30278
1547 0.0770766
1548 -0.0370299
1549 0.264666
1550 0.578241
1551 -0.750565
1552 -0.302777
1553 -0.399848
1554 -2.11651
1555 -0.235451
1556 1.48278
1557 1.42816
1558 2.17024
1559 1.78573
1560 1.05139
1561 0.205832
1562 0.809394
1563 -0.499633
1564 0.40475
1565 -0.104912
1566 1.55608
1567 1.85616
1568 -0.565043
1569 -0.734626
1570 0.00654737
1571 -0.378433
1572 0.532063
1573 0.884706
1574 0.663891
1575 0.828571
1576 -2.35549
1577 0.393633
1578 0.2029
1579 0.838305
1580 1.27232
1581 0.792476
1582 -0.255929
1583 0.933259
1584 1.16574
1585 -0.210491
1586 -1.63643
1587 0.967163
1588 0.192891
1589 0.259287
1590 1.4019
1591 1.19388
1592 -0.165976
1593 0.699571
1594 1.17375
1595 0.722961
1596 0.0495698
1597 1.09831
