1 -0.851813
2 0.728898
3 -1.92784
4 -0.384459
5 -0.377852
6 -0.854402
7 0.458378
8 -0.282701
9 0.311228
10 -0.142576
11 -1.7672
12 -0.536125
13 0.172876
14 -1.44626
15 -1.57563
16 -1.27488
17 -1.37348
18 -0.3995
19 0.385647
20 -1.50882
21 -0.840319
22 -0.563636
23 0.260655
24 -1.30834
25 0.46763
26 -0.920585
27 -1.27662
28 1.53125
29 -0.338909
30 1.35591
31 0.300422
32 0.244383
33 1.51264
34 -0.151835
35 -0.931333
36 0.919269
37 -0.442974
38 0.300693
39 -0.00209989
40 -1.41542
41 0.541036
42 -0.180536
43 -0.957891
44 -1.49574
45 -0.0221898
46 0.9581
47 0.0773216
48 -1.99806
49 -1.55322
50 -2.05413
51 -1.06034
52 0.302952
53 -0.157493
54 1.22375
55 1.65848
56 -0.798598
57 1.99032
58 -1.12148
59 -0.00242827
60 -0.424479
61 -0.25113
62 1.27836
63 1.17247
64 1.9797
65 -1.78037
66 1.86055
67 0.311075
68 0.834313
69 0.682138
70 0.0463218
71 -1.45756
72 -1.27743
73 -1.1599
74 -1.36628
75 -1.55666
76 -1.00005
77 -0.692237
78 -0.00512314
79 -1.29852
80 -0.726714
81 -0.602774
82 0.454922
83 -0.0867927
84 0.799825
85 2.53373
86 1.21117
87 1.21919
88 0.771557
89 0.416261
90 -0.838188
91 0.752841
92 -0.316035
93 1.13727
94 0.857423
95 -0.422221
96 0.170086
97 0.408683
98 -0.688918
99 1.31469
100 -0.664027
101 0.966247
102 -0.753733
103 -0.99706
104 -3.05155
105 0.250083
106 -0.442204
107 0.936651
108 -0.418638
109 -0.398615
110 -0.234847
111 1.10732
112 -0.774518
113 -0.69938
114 0.148705
115 -1.01794
116 -0.467253
117 0.248224
118 -2.41799
119 -0.456849
120 -0.18665
121 -0.479855
122 -1.87149
123 -0.269545
124 -1.19739
125 -0.390866
126 0.685126
127 -0.388345
128 -0.441764
129 -0.846343
130 -2.76135
131 -2.4014
132 -0.46963
133 -0.524773
134 0.467942
135 -0.560223
136 -0.981302
137 -1.65726
138 -0.300851
139 -0.718119
140 0.134239
141 0.0744654
142 0.601916
143 -1.00624
144 -1.1311
145 -1.49803
146 1.56343
147 -0.713252
148 -0.0545452
149 1.2483
150 0.0926894
151 -0.994319
152 1.35265
153 1.29394
154 0.783745
155 0.40949
156 0.899564
157 1.20401
158 -0.805956
159 -0.41884
160 -0.483269
161 -0.306363
162 -0.894934
163 0.404117
164 -1.54416
165 -1.36656
166 -0.0675891
167 -0.852624
168 0.407508
169 -1.22536
170 0.377003
171 0.684362
172 -2.81625e-05
173 0.921425
174 -0.652877
175 -0.577035
176 -0.0952237
177 1.28442
178 1.29753
179 0.2709
180 -0.000478387
181 0.429075
182 0.184227
183 -3.01928
184 0.361801
185 -0.210526
186 -1.29063
187 1.30288
188 0.343385
189 0.862512
190 0.80317
191 -0.258412
192 0.201874
193 -2.08334
194 0.861445
195 -1.32052
196 -1.2037
197 -0.450042
198 -1.55174
199 1.65957
200 1.42505
201 -0.120925
202 0.184687
203 -0.606292
204 -0.347497
205 0.628585
206 0.570137
207 1.06096
208 -0.790699
209 -1.94255
210 0.63503
211 0.145687
212 0.732461
213 0.316537
214 -1.308
215 -0.448671
216 1.14816
217 -0.282902
218 -0.965265
219 -1.51876
220 -1.10432
221 1.41101
222 -0.511579
223 1.80605
224 1.57779
225 0.105719
226 2.0588
227 2.1846
228 1.28241
229 0.972334
230 -0.00121001
231 -1.21912
232 -1.23854
233 0.306524
234 1.20006
235 1.1691
236 -1.2311
237 0.645591
238 -0.0828402
239 0.145007
240 -0.750701
241 1.08105
242 0.787891
243 -2.59794
244 0.552084
245 1.17209
246 -0.38083
247 -0.804914
248 -0.729793
249 0.904015
250 0.113888
251 0.0659398
252 1.36448
253 -1.35098
254 -0.921635
255 0.983752
256 0.0332441
257 -0.268103
258 0.0587072
259 1.11112
260 0.683243
261 0.938289
262 -1.48393
263 -0.173393
264 1.42393
265 1.30647
266 -0.749932
267 0.93088
268 1.73192
269 1.60933
270 1.10207
271 1.18015
272 2.17686
273 1.19231
274 2.2737
275 -0.412184
276 0.239535
277 -1.46799
278 0.934761
279 0.398217
280 1.08363
281 0.238487
282 1.36142
283 -0.695463
284 -0.905266
285 0.194069
286 0.423603
287 0.30986
288 1.74363
289 0.479245
290 0.280306
291 0.264934
292 0.621062
293 0.332001
294 0.683672
295 -1.07765
296 -0.992841
297 -0.164857
298 -0.372525
299 0.363402
300 0.161798
301 1.76901
302 -0.0490978
303 -1.56554
304 1.08483
305 -0.127891
306 1.31044
307 -0.502402
308 -0.0721179
309 -0.738393
310 0.965799
311 0.482572
312 2.02031
313 0.293065
314 -0.968626
315 -0.00812951
316 -0.633838
317 -0.187642
318 -2.05798
319 -0.426681
320 0.237377
321 0.189769
322 1.85087
323 -1.48525
324 0.247806
325 -0.17861
326 0.203234
327 0.443911
328 -1.07694
329 0.615161
330 0.357709
331 -0.4117
332 -0.261066
333 0.431619
334 0.223869
335 -0.678513
336 0.892958
337 -0.157823
338 0.735012
339 0.231276
340 -0.522425
341 -1.22728
342 -0.466104
343 0.308642
344 0.0309402
345 -1.36261
346 0.982729
347 -0.803817
348 0.953825
349 0.617599
350 0.5233
351 -0.381146
352 0.956449
353 -0.573029
354 0.216694
355 -0.0788594
356 0.479088
357 0.0349512
358 -0.8766
359 -0.822181
360 0.522555
361 0.681032
362 0.250057
363 0.40228
364 -0.47723
365 -0.431781
366 0.711335
367 0.376889
368 0.981945
369 1.05348
370 1.64016
371 1.56009
372 -0.835216
373 0.319721
374 0.667599
375 1.0775
376 1.00311
377 -0.407489
378 -0.620345
379 2.08158
380 0.662766
381 0.854946
382 1.56611
383 1.48065
384 1.6416
385 -0.252079
386 -0.758369
387 0.22567
388 -0.389705
389 -0.210751
390 1.39806
391 -0.232141
392 -0.0471529
393 0.698764
394 -0.174824
395 1.4998
396 0.848128
397 0.670358
398 0.960206
399 1.01327
400 -0.244122
401 0.717454
402 -0.0877365
403 1.87244
404 1.28005
405 0.940939
406 0.191775
407 0.539647
408 1.5559
409 0.283828
410 0.645688
411 -1.62527
412 0.920067
413 -0.107602
414 1.53484
415 0.45393
416 0.101982
417 -0.00261137
418 0.0948558
419 0.759796
420 0.392001
421 0.538268
422 -1.20744
423 1.28271
424 1.33432
425 0.949866
426 -1.03361
427 0.912314
428 -0.349629
429 0.820818
430 -0.285155
431 1.22431
432 0.600021
433 1.05076
434 0.589577
435 0.880041
436 1.04086
437 0.36331
438 1.52255
439 0.806212
440 -0.647061
441 -0.355309
442 1.88721
443 -0.325338
444 1.19673
445 0.33732
446 1.05924
447 1.02817
448 -0.323289
449 1.18876
450 1.55444
451 0.658608
452 1.10721
453 -0.256179
454 1.5122
455 1.42952
456 0.951148
457 -0.0539334
458 1.04489
459 1.01316
460 0.159983
461 0.230828
462 1.34231
463 0.521548
464 1.0441
465 0.964475
466 1.28209
467 0.727159
468 -0.855969
469 2.16032
470 0.307335
471 0.36087
472 -0.382901
473 0.570159
474 -0.0270513
475 0.740878
476 -1.74252
477 0.294553
478 0.0436612
479 -0.616096
480 -1.43748
481 0.0608684
482 -0.851084
483 -0.164341
484 -0.318281
485 -1.07404
486 -0.54779
487 -1.45569
488 -0.545552
489 -0.067816
490 0.1915
491 0.568585
492 -0.728223
493 -1.90392
494 -2.2962
495 -0.292045
496 -1.07152
497 -0.0495401
498 -0.968376
499 -0.361186
500 -1.86653
501 0.463713
502 -1.4449
503 -1.04731
504 -0.492801
505 -0.222268
506 -1.22501
507 -1.31377
508 -0.996565
509 -1.79303
510 -1.35521
511 -0.172058
512 0.326772
513 0.27669
514 0.548097
515 0.132664
516 -0.436108
517 -0.904705
518 -1.35114
519 0.441079
520 -0.0395023
521 1.07171
522 1.90222
523 1.18348
524 -1.41503
525 -1.69634
526 -1.594
527 -2.67073
528 0.382759
529 -1.04147
530 0.366835
531 0.237525
532 -1.30781
533 -1.11544
534 1.18271
535 -0.71568
536 1.23023
537 -0.40171
538 -1.03583
539 2.18033
540 1.51565
541 -1.3424
542 -0.0427919
543 1.80313
544 2.865
545 -0.496841
546 -0.349516
547 -1.40834
548 -0.484842
549 0.708852
550 1.04183
551 0.267704
552 0.995566
553 -0.958602
554 -1.18062
555 -0.65173
556 -1.57512
557 -0.36169
558 0.146443
559 -1.52267
560 -0.674163
561 -1.11444
562 -1.30287
563 -1.4233
564 -0.887179
565 -0.834412
566 -0.327386
567 0.208783
568 -1.69495
569 0.264431
570 -0.271294
571 0.85516
572 -0.144688
573 -0.425289
574 0.271858
575 0.526219
576 -1.18652
577 0.0761521
578 -0.462249
579 0.0742067
580 0.319845
581 -0.106518
582 1.18208
583 0.334042
584 0.480527
585 -0.116239
586 0.86025
587 0.844093
588 -0.504152
589 0.12087
590 0.60564
591 0.524542
592 -0.0985063
593 0.243363
594 -1.22766
595 -0.118345
596 0.98226
597 0.405183
598 1.26696
599 0.733741
600 -1.73163
601 -0.407558
602 1.61496
603 0.141632
604 -0.836431
605 1.1748
606 -1.14652
607 0.670423
608 -0.338905
609 -0.494363
610 -0.294082
611 1.73682
612 -1.35351
613 0.93985
614 0.187678
615 1.17132
616 -0.586014
617 -0.753089
618 0.00975388
619 0.933907
620 3.10359
621 -0.758994
622 -0.0105724
623 0.550152
624 1.47162
625 1.47401
626 0.809653
627 1.14019
628 -0.409239
629 -2.15015
630 -2.05521
631 -0.293356
632 -1.56276
633 0.589921
634 0.380586
635 -0.92376
636 -0.248432
637 0.64632
638 0.440045
639 1.97536
640 1.45039
641 -0.0488682
642 -1.51526
643 0.0913373
644 1.16451
645 -0.248618
646 0.863272
647 1.37406
648 1.11492
649 0.422056
650 0.391332
651 0.651293
652 0.314433
653 -0.669432
654 0.0528517
655 0.545525
656 -0.157479
657 -1.50354
658 -0.323388
659 0.515073
660 -0.770518
661 -0.477271
662 0.479409
663 1.38033
664 1.03242
665 0.302917
666 1.17185
667 -0.520624
668 0.0961351
669 -0.371209
670 1.4894
671 0.352945
672 0.153478
673 0.486801
674 0.961486
675 2.00485
676 0.131553
677 0.412366
678 0.609205
679 1.22251
680 -0.34008
681 -0.869741
682 -0.0965677
683 1.89533
684 -2.45816
685 1.17682
686 -1.13943
687 -0.846714
688 -0.701719
689 -2.18565
690 0.401947
691 0.418959
692 0.509732
693 0.709866
694 0.168603
695 -1.52646
696 -1.56893
697 -2.60962
698 0.227815
699 0.993734
700 1.17913
701 0.0465355
702 0.00669724
703 -1.6644
704 0.0248646
705 -0.135446
706 -1.60766
707 1.193
708 1.19261
709 1.51909
710 1.62099
711 1.09675
712 -0.96534
713 -0.452556
714 0.273806
715 -1.54563
716 -2.66349
717 0.504983
718 0.605731
719 0.938789
720 -1.35753
721 -4.13406
722 0.812496
723 -0.666646
724 1.77446
725 0.308163
726 -0.158209
727 -1.27083
728 1.87701
729 -1.93521
730 -0.24336
731 1.04125
732 0.235131
733 -1.05543
734 -2.38775
735 -2.18526
736 0.656638
737 -1.43521
738 1.15346
739 -1.1635
740 -1.83851
741 0.338312
742 0.265745
743 1.0923
744 0.149252
745 0.304979
746 0.819307
747 -0.842121
748 -0.662167
749 -0.752049
750 0.406619
751 -0.559651
752 0.424818
753 -0.0645073
754 -2.13426
755 -1.54117
756 -0.127706
757 0.0900471
758 -0.804781
759 -0.15322
760 1.88377
761 0.113621
762 -0.241358
763 0.0365261
764 -0.374351
765 -0.211192
766 -0.544114
767 1.1399
768 0.627792
769 0.276146
770 0.281433
771 0.922495
772 1.38464
773 0.52634
774 0.432426
775 0.697328
776 1.05503
777 -0.479387
778 -0.357666
779 -1.94696
780 -0.450914
781 -0.234581
782 1.06239
783 1.43267
784 -0.352798
785 1.74944
786 0.100992
787 1.20026
788 0.800572
789 0.224437
790 -0.760857
791 -1.23013
792 -0.659184
793 0.348857
794 -0.403283
795 0.501971
796 0.54149
797 -0.942353
798 -0.64419
799 0.474998
800 -0.168964
801 1.13118
802 -1.43649
803 0.160087
804 0.0714805
805 -0.638713
806 1.11314
807 -0.901938
808 0.56531
809 -0.930846
810 1.07939
811 0.2642
812 -0.0014323
813 0.906663
814 -0.447616
815 -1.08218
816 0.510596
817 -0.460932
818 -0.0974215
819 0.384296
820 -0.266654
821 0.209897
822 0.312284
823 -0.325233
824 0.0133921
825 -0.249817
826 0.131644
827 -0.876379
828 0.707831
829 -0.648064
830 -0.922415
831 -0.386721
832 -1.79611
833 -0.651494
834 0.310697
835 -0.17211
836 -0.582869
837 -0.963534
838 -0.511752
839 -0.624407
840 1.57456
841 -2.56228
842 0.10258
843 -2.38851
844 -3.54116
845 -2.44371
846 0.434108
847 -1.98338
848 -0.484415
849 0.253732
850 -1.14811
851 -1.34443
852 0.337371
853 0.250385
854 -0.215036
855 0.292473
856 -0.724722
857 -0.533664
858 -0.371166
859 0.355227
860 1.02736
861 -1.77235
862 0.826912
863 -1.14615
864 -0.0890619
865 -0.529892
866 1.06662
867 -1.61811
868 -1.25655
869 -0.628327
870 0.349041
871 -0.0112793
872 0.286611
873 -0.0152924
874 -2.24242
875 -0.894618
876 -1.51943
877 0.772401
878 1.08842
879 0.521054
880 0.109156
881 -0.230568
882 0.824981
883 1.88239
884 0.928808
885 -0.505703
886 -0.510377
887 -1.02088
888 -1.4696
889 -1.27216
890 0.877239
891 0.868979
892 -1.6424
893 -1.33616
894 -0.982
895 0.0366148
896 -0.587267
897 0.0756331
898 0.948274
899 -0.356364
900 1.04789
901 -0.483187
902 -0.0126867
903 -1.09776
904 0.588431
905 -0.940019
906 -1.6819
907 -0.184347
908 -0.693003
909 -3.04062
910 0.648013
911 0.747607
912 -0.613874
913 0.00723366
914 -0.652225
915 0.401611
916 -0.51798
917 -2.17173
918 -0.789744
919 -1.28542
920 -1.42093
921 0.250043
922 -1.14034
923 -1.06337
924 -1.92769
925 -0.894934
926 -0.881414
927 -1.0618
928 -0.90574
929 0.0982434
930 0.605144
931 0.135358
932 0.747653
933 -0.583151
934 -1.60283
935 -3.39978
936 -0.965484
937 -0.523855
938 -0.7353
939 -0.276297
940 -0.111784
941 -0.12361
942 0.0405656
943 -0.554968
944 -0.888429
945 0.696691
946 -0.0207049
947 0.814634
948 0.0293686
949 -1.57955
950 -0.169591
951 -0.0741155
952 -0.325838
953 0.66687
954 0.803218
955 1.89107
956 -0.511883
957 -0.435837
958 0.762173
959 0.0406444
960 0.0818161
961 -0.246549
962 0.25321
963 0.830872
964 1.29578
965 0.0293194
966 0.423826
967 0.211461
968 -0.18541
969 -0.72632
970 -0.0968233
971 2.22493
972 1.76289
973 0.306992
974 0.874183
975 0.817
976 -0.584643
977 0.449373
978 0.56586
979 0.827633
980 1.71201
981 -0.969153
982 1.40873
983 1.4171
984 -0.875537
985 -0.276049
986 -0.329987
987 -0.826499
988 -0.455828
989 -0.0205122
990 0.0509578
991 0.329878
992 -1.18082
993 0.457055
994 -0.349396
995 -0.497224
996 -0.103578
997 0.885375
998 0.893408
999 0.583849
1000 -0.613101
1001 0.421069
1002 -0.0478747
1003 0.302284
1004 0.565665
1005 1.61939
1006 0.283987
1007 1.57657
1008 -0.0322872
1009 -0.596414
1010 0.420255
1011 -0.202595
1012 0.060979
1013 -0.355417
1014 0.318212
1015 -0.281319
1016 0.639549
1017 -1.0344
1018 -0.450826
1019 1.27317
1020 -0.133427
1021 0.845466
1022 0.424687
1023 -0.768601
1024 -0.67532
1025 -0.281239
1026 0.878801
1027 1.31463
1028 1.03106
1029 -0.536659
1030 1.32374
1031 -0.504676
1032 0.729593
1033 0.576786
1034 0.962338
1035 0.326002
1036 1.50297
1037 0.576699
1038 1.246
1039 0.365603
1040 0.0206297
1041 0.378954
1042 -0.462895
1043 -0.520349
1044 -0.0448047
1045 -0.290868
1046 0.54118
1047 0.314817
1048 -0.00924394
1049 -0.936619
1050 0.87244
1051 -0.0721389
1052 -0.144412
1053 -0.370453
1054 0.246344
1055 0.556653
1056 1.15995
1057 -1.61182
1058 -0.124286
1059 0.573681
1060 1.08665
1061 -0.639874
1062 1.46565
1063 0.824638
1064 -0.565641
1065 0.926624
1066 0.756144
1067 -1.12715
1068 -0.0580423
1069 0.454639
1070 0.495499
1071 -1.45739
1072 0.133647
1073 1.27395
1074 -1.72516
1075 -0.682266
1076 -1.17574
1077 0.151917
1078 -0.0906057
1079 -0.368052
1080 -0.357095
1081 -1.314
1082 -0.597866
1083 -0.935675
1084 0.382397
1085 -0.00435479
1086 0.873996
1087 -1.83492
1088 -2.22974
1089 0.44417
1090 -0.864591
1091 -0.208739
1092 1.24392
1093 0.392491
1094 -0.77266
1095 -0.877096
1096 -2.43078
1097 -0.92857
1098 -1.14192
1099 -1.14725
1100 0.0693215
1101 -0.164662
1102 -0.846143
1103 -0.703734
1104 0.872568
1105 0.415224
1106 -1.60759
1107 0.816673
1108 -0.986228
1109 -1.25669
1110 0.472718
1111 -0.682081
1112 1.07124
1113 -1.11737
1114 -0.368277
1115 -1.33788
1116 -2.19528
1117 -0.314001
1118 -0.118658
1119 0.571889
1120 0.77276
1121 -0.334558
1122 -0.473812
1123 0.130643
1124 0.439179
1125 -0.0791324
1126 -1.91104
1127 -1.93919
1128 0.36849
1129 -0.335299
1130 -0.983688
1131 -1.41653
1132 -0.139609
1133 -0.70788
1134 -2.96695
1135 -1.29888
1136 -0.504152
1137 -0.349628
1138 0.269054
1139 0.365949
1140 -0.270978
1141 0.0499874
1142 -0.857993
1143 -1.71751
1144 -1.27438
1145 0.380375
1146 -0.68165
1147 -0.848983
1148 -1.06438
1149 0.0619264
1150 -1.02303
1151 -1.6524
1152 -0.833183
1153 1.04198
1154 0.672301
1155 0.30015
1156 -0.913925
1157 0.289565
1158 -0.773811
1159 -0.581067
1160 -0.727188
1161 -0.399009
1162 0.452189
1163 -1.13721
1164 -0.595375
1165 -0.922866
1166 -1.90381
1167 -1.43157
1168 -2.54697
1169 -1.07755
1170 -2.20222
1171 -1.6766
1172 -1.93519
1173 -2.22253
1174 -1.8194
1175 -0.78324
1176 -0.76457
1177 -1.50262
1178 -0.549698
1179 -0.519215
1180 -0.173725
1181 -0.726332
1182 -1.12923
1183 -0.806097
1184 -0.445543
1185 0.447953
1186 0.631971
1187 -1.33577
1188 0.529088
1189 0.0776257
1190 0.363997
1191 -0.419161
1192 0.257477
1193 0.899855
1194 1.05883
1195 1.40771
1196 1.39447
1197 1.15173
1198 -0.480047
1199 0.51684
1200 1.21495
1201 1.06154
1202 0.48247
1203 1.34246
1204 0.805894
1205 1.15491
1206 0.768403
1207 1.94522
1208 0.927742
1209 -0.258573
1210 0.766282
1211 0.911573
1212 1.4364
1213 0.985894
1214 0.700164
1215 -0.290533
1216 1.13117
1217 1.92908
1218 1.43032
1219 0.471265
1220 -0.577985
1221 1.58364
1222 -2.15802
1223 0.694615
1224 0.58967
1225 1.76176
1226 -0.315429
1227 -1.17694
1228 1.13157
1229 0.343657
1230 1.21077
1231 0.731072
1232 0.0549716
1233 0.15924
1234 -1.6086
1235 0.58088
1236 0.639245
1237 0.862345
1238 0.346933
1239 -0.261402
1240 1.2307
1241 0.802554
1242 -0.436874
1243 -0.0963135
1244 -0.527441
1245 1.56691
1246 -2.08243
1247 1.05279
1248 -0.795205
1249 -0.560522
1250 0.013059
1251 -0.666302
1252 -0.282459
1253 -1.49425
1254 -0.316089
1255 1.22867
1256 0.00686669
1257 0.486268
1258 0.703044
1259 1.20054
1260 -0.567703
1261 0.607164
1262 1.21286
1263 0.0822457
1264 0.883294
1265 -0.323689
1266 -0.0686551
1267 0.0632258
1268 -0.215123
1269 2.3434
1270 -1.27141
1271 -0.299006
1272 0.738173
1273 -1.16337
1274 -0.301235
1275 0.45128
1276 0.946781
1277 0.103791
1278 0.546876
1279 0.94128
1280 1.15008
1281 1.07589
1282 1.70252
1283 -1.15595
1284 1.74682
1285 2.11982
1286 0.322136
1287 1.16762
1288 -0.411207
1289 0.362941
1290 0.125142
1291 -0.417479
1292 0.377537
1293 1.36847
1294 1.02533
1295 1.52319
1296 1.4111
1297 1.14367
1298 1.34865
1299 0.320504
1300 1.03935
1301 0.457346
1302 1.09055
1303 0.985911
1304 0.0527369
1305 0.31251
1306 1.10971
1307 -0.178302
1308 0.641777
1309 -0.0946028
1310 0.0466908
1311 -0.799802
1312 -0.393943
1313 0.31596
1314 0.457735
1315 -0.000409379
1316 0.931262
1317 1.11329
1318 -0.273701
1319 0.398305
1320 1.313
1321 0.695175
1322 -1.31548
1323 -0.205406
1324 0.838806
1325 0.579898
1326 1.04384
1327 0.0930755
1328 -0.103083
1329 0.615108
1330 -0.0742855
1331 -1.68405
1332 -0.273535
1333 -0.860324
1334 0.776387
1335 0.43243
1336 1.29339
1337 0.415417
1338 1.30057
1339 1.14647
1340 1.38426
1341 -0.379666
1342 0.914951
1343 0.893413
1344 0.623696
1345 -0.047808
1346 0.0812935
1347 0.440801
1348 1.01559
1349 0.0641961
1350 -0.87751
1351 -0.636983
1352 0.767476
1353 0.130923
1354 1.68383
1355 0.548466
1356 0.476445
1357 -0.747073
1358 -0.0230908
1359 -0.363221
1360 0.475798
1361 -2.22586
1362 -0.782008
1363 -0.568713
1364 -0.256239
1365 1.22036
1366 -0.333426
1367 0.538028
1368 -0.251351
1369 0.90059
1370 -1.46865
1371 -0.102709
1372 1.21825
1373 1.50802
1374 0.311938
1375 0.619872
1376 1.1806
1377 1.29562
1378 0.950854
1379 0.647518
1380 -0.95078
1381 -1.07521
1382 -0.421869
1383 0.0839088
1384 -1.15145
1385 -1.97335
1386 -0.0130198
1387 -0.306056
1388 -1.06123
1389 0.272675
1390 -0.099228
1391 0.972479
1392 1.81531
1393 0.556542
1394 0.593989
1395 -0.40004
1396 -0.876365
1397 0.0535572
1398 1.29843
1399 0.860709
1400 -0.142943
1401 0.441907
1402 -0.69638
1403 0.540075
1404 0.276769
1405 0.72666
1406 -0.367799
1407 -0.191101
1408 0.995736
1409 0.194468
1410 0.410802
1411 0.918678
1412 0.0144489
1413 -0.988004
1414 1.09133
1415 0.370601
1416 0.459221
1417 0.752665
1418 1.17896
1419 1.0506
1420 2.0705
1421 -0.298684
1422 -1.25049
1423 -1.72425
1424 0.276721
1425 -0.630846
1426 0.383632
1427 0.67001
1428 0.350135
1429 1.00697
1430 -1.11284
1431 -1.32586
1432 -1.16407
1433 0.815556
1434 0.173752
1435 0.0666015
1436 -0.215762
1437 0.454199
1438 1.24735
1439 0.43759
1440 -0.105671
1441 0.197742
1442 0.161454
1443 0.193944
1444 1.46611
1445 -0.306874
1446 -1.03166
1447 -0.91808
1448 0.532415
1449 -0.952028
1450 0.241953
1451 1.15358
1452 -0.408237
1453 0.489177
1454 0.429053
1455 -0.629471
1456 0.317932
1457 -0.0677384
1458 0.680952
1459 -0.0896058
1460 0.798313
1461 1.69274
1462 0.992431
1463 1.27998
1464 0.0966584
1465 -1.44456
1466 -1.36327
1467 -0.220046
1468 -1.59266
1469 0.0600364
1470 -0.136405
1471 0.960346
1472 -0.620744
1473 -0.333403
1474 0.0580882
1475 -0.0338876
1476 0.214934
1477 -1.06818
1478 0.709324
1479 -0.624724
1480 0.25739
1481 -0.876984
1482 -0.239239
1483 -1.02411
1484 0.852165
1485 1.17014
1486 -0.877749
1487 -0.283171
1488 1.15247
1489 1.43915
1490 0.144144
1491 -0.300382
1492 0.732319
1493 -0.277448
1494 -0.48809
1495 -1.94473
1496 1.73793
1497 0.625593
1498 0.0792477
1499 1.11022
1500 0.0397294
1501 -0.541333
1502 -0.465418
1503 0.273025
1504 -0.695905
1505 0.643334
1506 -0.388829
1507 -1.11148
1508 0.397375
1509 1.10573
1510 0.201827
1511 -0.214262
1512 -0.59972
1513 0.874551
1514 0.594189
1515 0.817883
1516 0.520063
1517 0.429351
1518 -0.501284
1519 0.853755
1520 0.339865
1521 0.0395815
1522 -0.328973
1523 -0.0103766
1524 0.666889
1525 0.478875
1526 -0.639634
1527 0.308707
1528 0.356212
1529 0.47906
1530 -0.172541
1531 0.762594
1532 -0.0992189
1533 -0.571043
1534 0.597101
1535 0.274684
1536 -0.00831264
1537 -0.732578
1538 -0.162311
1539 -0.0980629
1540 0.847162
1541 -0.244212
1542 -0.00562309
1543 -0.575368
1544 0.714128
1545 -0.320219
1546 0.567152
1547 0.374117
1548 0.152116
1549 1.10811
1550 -0.954923
1551 -0.392638
1552 -0.199443
1553 0.0712954
1554 -1.38322
1555 -0.586961
1556 -0.161677
1557 -0.345815
1558 0.13774
1559 -0.226842
1560 0.313555
1561 -0.966693
1562 0.383127
1563 0.0659118
1564 -0.761279
1565 0.968664
1566 1.44471
1567 -1.10614
1568 0.217172
1569 -1.28694
1570 0.325822
1571 -1.42272
1572 0.963182
1573 -0.410838
1574 -0.941774
1575 -0.043294
1576 0.678114
1577 0.400218
1578 -0.0692124
1579 -0.0884359
1580 1.19744
1581 -0.360184
1582 0.665502
1583 2.11745
1584 0.249927
1585 1.64866
1586 -0.378738
1587 -0.943876
1588 -0.892242
1589 0.570592
1590 1.13533
1591 -0.923054
1592 -0.961406
1593 -1.92733
1594 -1.68711
1595 0.500268
1596 0.894723
1597 0.798746
